sim2.log
WARNING: Datapath/Fetch/imem.v:7: $readmemh: The behaviour for reg[...] mem[N:0]; $readmemh("...", mem); changed in the 1364-2005 standard. To avoid ambiguity, use mem[0:N] or explicit range parameters $readmemh("...", mem, start, stop);. Defaulting to 1364-2005 behavior.
WARNING: Datapath/Fetch/imem.v:7: $readmemh(Single Cycle/riscvtest.txt): Not enough words in the file for the requested range [0:63].
============================================================
CICLO 0
  [IF ] PC=00000000  Instr=00500113
  [ID ] Instr=00000000  PC+4=00000000  rs1=x0 rs2=x0 rd=x0
  [EX ] ALUResult=00000000  WriteData=00000000  Zero=1  PCSrc=0  rd=x0
  [MEM] ALUResult=00000000  WriteData=00000000  MemWrite=0  rd=x0
  [WB ] Result=00000000  rd=x0
============================================================
============================================================
CICLO 1
  [IF ] PC=00000004  Instr=00c00193
  [ID ] Instr=00500113  PC+4=00000004  rs1=x0 rs2=x5 rd=x2
  [EX ] ALUResult=00000000  WriteData=00000000  Zero=1  PCSrc=0  rd=x0
  [MEM] ALUResult=00000000  WriteData=00000000  MemWrite=0  rd=x0
  [WB ] Result=00000000  rd=x0
============================================================
============================================================
CICLO 2
  [IF ] PC=00000008  Instr=ff718393
  [ID ] Instr=00c00193  PC+4=00000008  rs1=x0 rs2=x12 rd=x3
  [EX ] ALUResult=00000005  WriteData=xxxxxxxx  Zero=0  PCSrc=0  rd=x2
  [MEM] ALUResult=00000000  WriteData=00000000  MemWrite=0  rd=x0
  [WB ] Result=00000000  rd=x0
============================================================
============================================================
CICLO 3
  [IF ] PC=0000000c  Instr=0023e233
  [ID ] Instr=ff718393  PC+4=0000000c  rs1=x3 rs2=x23 rd=x7
  [EX ] ALUResult=0000000c  WriteData=xxxxxxxx  Zero=0  PCSrc=0  rd=x3
  [MEM] ALUResult=00000005  WriteData=xxxxxxxx  MemWrite=0  rd=x2
  [WB ] Result=00000000  rd=x0
============================================================
============================================================
CICLO 4
  [IF ] PC=00000010  Instr=0041f2b3
  [ID ] Instr=0023e233  PC+4=00000010  rs1=x7 rs2=x2 rd=x4
  [EX ] ALUResult=00000003  WriteData=xxxxxxxx  Zero=0  PCSrc=0  rd=x7
  [MEM] ALUResult=0000000c  WriteData=xxxxxxxx  MemWrite=0  rd=x3
  [WB ] Result=00000005  rd=x2
============================================================
============================================================
CICLO 5
  [IF ] PC=00000014  Instr=004282b3
  [ID ] Instr=0041f2b3  PC+4=00000014  rs1=x3 rs2=x4 rd=x5
  [EX ] ALUResult=00000007  WriteData=00000005  Zero=0  PCSrc=0  rd=x4
  [MEM] ALUResult=00000003  WriteData=xxxxxxxx  MemWrite=0  rd=x7
  [WB ] Result=0000000c  rd=x3
============================================================
============================================================
CICLO 6
  [IF ] PC=00000018  Instr=02728863
  [ID ] Instr=004282b3  PC+4=00000018  rs1=x5 rs2=x4 rd=x5
  [EX ] ALUResult=00000004  WriteData=00000007  Zero=0  PCSrc=0  rd=x5
  [MEM] ALUResult=00000007  WriteData=00000005  MemWrite=0  rd=x4
  [WB ] Result=00000003  rd=x7
============================================================
============================================================
CICLO 7
  [IF ] PC=0000001c  Instr=0041a233
  [ID ] Instr=02728863  PC+4=0000001c  rs1=x5 rs2=x7 rd=x16
  [EX ] ALUResult=0000000b  WriteData=00000007  Zero=0  PCSrc=0  rd=x5
  [MEM] ALUResult=00000004  WriteData=00000007  MemWrite=0  rd=x5
  [WB ] Result=00000007  rd=x4
============================================================
============================================================
CICLO 8
  [IF ] PC=00000020  Instr=00020463
  [ID ] Instr=0041a233  PC+4=00000020  rs1=x3 rs2=x4 rd=x4
  [EX ] ALUResult=00000008  WriteData=00000003  Zero=0  PCSrc=0  rd=x16
  [MEM] ALUResult=0000000b  WriteData=00000007  MemWrite=0  rd=x5
  [WB ] Result=00000004  rd=x5
============================================================
============================================================
CICLO 9
  [IF ] PC=00000024  Instr=00000293
  [ID ] Instr=00020463  PC+4=00000024  rs1=x4 rs2=x0 rd=x8
  [EX ] ALUResult=00000000  WriteData=00000007  Zero=1  PCSrc=0  rd=x4
  [MEM] ALUResult=00000008  WriteData=00000003  MemWrite=0  rd=x16
  [WB ] Result=0000000b  rd=x5
============================================================
============================================================
CICLO 10
  [IF ] PC=00000028  Instr=0023a233
  [ID ] Instr=00000293  PC+4=00000028  rs1=x0 rs2=x0 rd=x5
  [EX ] ALUResult=00000000  WriteData=00000000  Zero=1  PCSrc=1  rd=x8
  [MEM] ALUResult=00000000  WriteData=00000007  MemWrite=0  rd=x4
  [WB ] Result=00000008  rd=x16
============================================================
============================================================
CICLO 11
  [IF ] PC=00000028  Instr=0023a233
  [ID ] Instr=00000000  PC+4=00000000  rs1=x0 rs2=x0 rd=x0
  [EX ] ALUResult=00000000  WriteData=00000000  Zero=1  PCSrc=0  rd=x0
  [MEM] ALUResult=00000000  WriteData=00000000  MemWrite=0  rd=x8
  [WB ] Result=00000000  rd=x4
============================================================
============================================================
CICLO 12
  [IF ] PC=0000002c  Instr=005203b3
  [ID ] Instr=0023a233  PC+4=0000002c  rs1=x7 rs2=x2 rd=x4
  [EX ] ALUResult=00000000  WriteData=00000000  Zero=1  PCSrc=0  rd=x0
  [MEM] ALUResult=00000000  WriteData=00000000  MemWrite=0  rd=x0
  [WB ] Result=00000000  rd=x8
============================================================
============================================================
CICLO 13
  [IF ] PC=00000030  Instr=402383b3
  [ID ] Instr=005203b3  PC+4=00000030  rs1=x4 rs2=x5 rd=x7
  [EX ] ALUResult=00000001  WriteData=00000005  Zero=0  PCSrc=0  rd=x4
  [MEM] ALUResult=00000000  WriteData=00000000  MemWrite=0  rd=x0
  [WB ] Result=00000000  rd=x0
============================================================
============================================================
CICLO 14
  [IF ] PC=00000034  Instr=0471aa23
  [ID ] Instr=402383b3  PC+4=00000034  rs1=x7 rs2=x2 rd=x7
  [EX ] ALUResult=0000000c  WriteData=0000000b  Zero=0  PCSrc=0  rd=x7
  [MEM] ALUResult=00000001  WriteData=00000005  MemWrite=0  rd=x4
  [WB ] Result=00000000  rd=x0
============================================================
============================================================
CICLO 15
  [IF ] PC=00000038  Instr=06002103
  [ID ] Instr=0471aa23  PC+4=00000038  rs1=x3 rs2=x7 rd=x20
  [EX ] ALUResult=00000007  WriteData=00000005  Zero=0  PCSrc=0  rd=x7
  [MEM] ALUResult=0000000c  WriteData=0000000b  MemWrite=0  rd=x7
  [WB ] Result=00000001  rd=x4
============================================================
============================================================
CICLO 16
  [IF ] PC=0000003c  Instr=005104b3
  [ID ] Instr=06002103  PC+4=0000003c  rs1=x0 rs2=x0 rd=x2
  [EX ] ALUResult=00000060  WriteData=00000007  Zero=0  PCSrc=0  rd=x20
  [MEM] ALUResult=00000007  WriteData=00000005  MemWrite=0  rd=x7
  [WB ] Result=0000000c  rd=x7
============================================================
============================================================
CICLO 17
  [IF ] PC=00000040  Instr=008001ef
  [ID ] Instr=005104b3  PC+4=00000040  rs1=x2 rs2=x5 rd=x9
  [EX ] ALUResult=00000060  WriteData=00000000  Zero=0  PCSrc=0  rd=x2
  [MEM] ALUResult=00000060  WriteData=00000007  MemWrite=1  rd=x20
  [WB ] Result=00000007  rd=x7
============================================================
============================================================
CICLO 18
  [IF ] PC=00000040  Instr=008001ef
  [ID ] Instr=005104b3  PC+4=00000040  rs1=x2 rs2=x5 rd=x9
  [EX ] ALUResult=00000000  WriteData=00000000  Zero=1  PCSrc=0  rd=x0
  [MEM] ALUResult=00000060  WriteData=00000000  MemWrite=0  rd=x2
  [WB ] Result=00000060  rd=x20
============================================================
============================================================
CICLO 19
  [IF ] PC=00000044  Instr=00100113
  [ID ] Instr=008001ef  PC+4=00000044  rs1=x0 rs2=x8 rd=x3
  [EX ] ALUResult=00000012  WriteData=0000000b  Zero=0  PCSrc=0  rd=x9
  [MEM] ALUResult=00000000  WriteData=00000000  MemWrite=0  rd=x0
  [WB ] Result=00000007  rd=x2
============================================================
============================================================
CICLO 20
  [IF ] PC=00000048  Instr=00910133
  [ID ] Instr=00100113  PC+4=00000048  rs1=x0 rs2=x1 rd=x2
  [EX ] ALUResult=xxxxxxxx  WriteData=xxxxxxxx  Zero=x  PCSrc=1  rd=x3
  [MEM] ALUResult=00000012  WriteData=0000000b  MemWrite=0  rd=x9
  [WB ] Result=00000000  rd=x0
============================================================
============================================================
CICLO 21
  [IF ] PC=00000048  Instr=00910133
  [ID ] Instr=00000000  PC+4=00000000  rs1=x0 rs2=x0 rd=x0
  [EX ] ALUResult=00000000  WriteData=00000000  Zero=1  PCSrc=0  rd=x0
  [MEM] ALUResult=xxxxxxxx  WriteData=xxxxxxxx  MemWrite=0  rd=x3
  [WB ] Result=00000012  rd=x9
============================================================
============================================================
CICLO 22
  [IF ] PC=0000004c  Instr=0221a023
  [ID ] Instr=00910133  PC+4=0000004c  rs1=x2 rs2=x9 rd=x2
  [EX ] ALUResult=00000000  WriteData=00000000  Zero=1  PCSrc=0  rd=x0
  [MEM] ALUResult=00000000  WriteData=00000000  MemWrite=0  rd=x0
  [WB ] Result=00000044  rd=x3
============================================================
============================================================
CICLO 23
  [IF ] PC=00000050  Instr=00210063
  [ID ] Instr=0221a023  PC+4=00000050  rs1=x3 rs2=x2 rd=x0
  [EX ] ALUResult=00000019  WriteData=00000012  Zero=0  PCSrc=0  rd=x2
  [MEM] ALUResult=00000000  WriteData=00000000  MemWrite=0  rd=x0
  [WB ] Result=00000000  rd=x0
============================================================
============================================================
CICLO 24
  [IF ] PC=00000054  Instr=xxxxxxxx
  [ID ] Instr=00210063  PC+4=00000054  rs1=x2 rs2=x2 rd=x0
  [EX ] ALUResult=00000064  WriteData=00000019  Zero=0  PCSrc=0  rd=x0
  [MEM] ALUResult=00000019  WriteData=00000012  MemWrite=0  rd=x2
  [WB ] Result=00000000  rd=x0
============================================================
*** SIMULACION EXITOSA: mem[100] = 25 ***
============================================================
CICLO 25
  [IF ] PC=00000058  Instr=xxxxxxxx
  [ID ] Instr=xxxxxxxx  PC+4=00000058  rs1=xx rs2=xx rd=xx
  [EX ] ALUResult=00000000  WriteData=00000019  Zero=1  PCSrc=1  rd=x0
  [MEM] ALUResult=00000064  WriteData=00000019  MemWrite=1  rd=x0
  [WB ] Result=00000019  rd=x2
============================================================
============================================================
CICLO 26
  [IF ] PC=00000050  Instr=00210063
  [ID ] Instr=00000000  PC+4=00000000  rs1=x0 rs2=x0 rd=x0
  [EX ] ALUResult=00000000  WriteData=00000000  Zero=1  PCSrc=0  rd=x0
  [MEM] ALUResult=00000000  WriteData=00000019  MemWrite=0  rd=x0
  [WB ] Result=00000064  rd=x0
============================================================
Datapath/tb.v:48: $finish called at 290000 (1ps)
