Waves/waves_remaining_ops.vcd
$date
	Thu Jun 18 20:23:10 2026
$end
$version
	Icarus Verilog
$end
$timescale
	1ps
$end
$scope module tb $end
$var wire 32 ! pcF [31:0] $end
$var wire 1 " memWriteM $end
$var reg 1 # clk $end
$var reg 1 $ reset $end
$var integer 32 % cycle [31:0] $end
$scope module dut $end
$var wire 1 " MemWriteM $end
$var wire 32 & WriteDataM [31:0] $end
$var wire 1 ' ZeroE $end
$var wire 1 # clk $end
$var wire 1 $ reset $end
$var wire 32 ( WriteDataE [31:0] $end
$var wire 1 ) StallF $end
$var wire 1 * StallD $end
$var wire 5 + Rs2E [4:0] $end
$var wire 5 , Rs2D [4:0] $end
$var wire 5 - Rs1E [4:0] $end
$var wire 5 . Rs1D [4:0] $end
$var wire 32 / ResultW [31:0] $end
$var wire 2 0 ResultSrcM [1:0] $end
$var wire 2 1 ResultSrcE [1:0] $end
$var wire 2 2 ResultSrcD [1:0] $end
$var wire 1 3 RegWriteW $end
$var wire 1 4 RegWriteM_internal $end
$var wire 1 5 RegWriteE $end
$var wire 1 6 RegWriteD $end
$var wire 32 7 ReadDataM [31:0] $end
$var wire 5 8 RdW [4:0] $end
$var wire 5 9 RdM [4:0] $end
$var wire 5 : RdE [4:0] $end
$var wire 5 ; RdD [4:0] $end
$var wire 32 < RD2D [31:0] $end
$var wire 32 = RD1D [31:0] $end
$var wire 32 > PCTargetE [31:0] $end
$var wire 1 ? PCSrcE $end
$var wire 32 @ PCPlus4M [31:0] $end
$var wire 32 A PCPlus4F [31:0] $end
$var wire 32 B PCPlus4E [31:0] $end
$var wire 32 C PCPlus4D [31:0] $end
$var wire 32 D PCF [31:0] $end
$var wire 32 E PCD [31:0] $end
$var wire 1 F MemWriteE $end
$var wire 1 G MemWriteD $end
$var wire 1 H JumpD $end
$var wire 32 I InstrW [31:0] $end
$var wire 32 J InstrM [31:0] $end
$var wire 32 K InstrF [31:0] $end
$var wire 32 L InstrE [31:0] $end
$var wire 32 M InstrD [31:0] $end
$var wire 2 N ForwardBE [1:0] $end
$var wire 2 O ForwardAE [1:0] $end
$var wire 1 P FlushE $end
$var wire 1 Q FlushD $end
$var wire 32 R ExtImmD [31:0] $end
$var wire 1 S BranchD $end
$var wire 1 T ALUSrcD $end
$var wire 32 U ALUResultM [31:0] $end
$var wire 32 V ALUResultE [31:0] $end
$var wire 4 W ALUControlD [3:0] $end
$scope module decodeStage $end
$var wire 1 # clk $end
$var wire 1 $ reset $end
$var wire 1 * StallD $end
$var wire 5 X Rs2D [4:0] $end
$var wire 5 Y Rs1D [4:0] $end
$var wire 32 Z ResultW [31:0] $end
$var wire 2 [ ResultSrcD [1:0] $end
$var wire 1 3 RegWriteW $end
$var wire 1 6 RegWriteD $end
$var wire 5 \ RdW [4:0] $end
$var wire 5 ] RdD [4:0] $end
$var wire 32 ^ RD2D [31:0] $end
$var wire 32 _ RD1D [31:0] $end
$var wire 32 ` PCPlus4F [31:0] $end
$var wire 32 a PCPlus4D [31:0] $end
$var wire 32 b PCF [31:0] $end
$var wire 32 c PCD [31:0] $end
$var wire 1 G MemWriteD $end
$var wire 1 H JumpD $end
$var wire 32 d InstrF [31:0] $end
$var wire 32 e InstrD [31:0] $end
$var wire 3 f ImmSrcD [2:0] $end
$var wire 1 Q FlushD $end
$var wire 32 g ExtImmD [31:0] $end
$var wire 1 S BranchD $end
$var wire 1 T ALUSrcD $end
$var wire 4 h ALUControlD [3:0] $end
$scope module ctrl $end
$var wire 3 i funct3 [2:0] $end
$var wire 7 j funct7 [6:0] $end
$var wire 7 k op [6:0] $end
$var wire 1 l use_alt_op $end
$var wire 1 m op5 $end
$var reg 4 n ALUControl [3:0] $end
$var reg 2 o ALUOp [1:0] $end
$var reg 1 T ALUSrc $end
$var reg 1 S Branch $end
$var reg 3 p ImmSrc [2:0] $end
$var reg 1 H Jump $end
$var reg 1 G MemWrite $end
$var reg 1 6 RegWrite $end
$var reg 2 q ResultSrc [1:0] $end
$upscope $end
$scope module ext $end
$var wire 3 r immsrc [2:0] $end
$var wire 25 s instr [31:7] $end
$var reg 32 t immext [31:0] $end
$upscope $end
$scope module ifIdInstr $end
$var wire 1 # clk $end
$var wire 1 u en $end
$var wire 1 $ reset $end
$var wire 32 v d [31:0] $end
$var wire 1 Q clear $end
$var parameter 32 w WIDTH $end
$var reg 32 x q [31:0] $end
$upscope $end
$scope module ifIdPc $end
$var wire 1 # clk $end
$var wire 1 y en $end
$var wire 1 $ reset $end
$var wire 32 z d [31:0] $end
$var wire 1 Q clear $end
$var parameter 32 { WIDTH $end
$var reg 32 | q [31:0] $end
$upscope $end
$scope module ifIdPcPlus4 $end
$var wire 1 # clk $end
$var wire 1 } en $end
$var wire 1 $ reset $end
$var wire 32 ~ d [31:0] $end
$var wire 1 Q clear $end
$var parameter 32 !" WIDTH $end
$var reg 32 "" q [31:0] $end
$upscope $end
$scope module rf $end
$var wire 5 #" a1 [4:0] $end
$var wire 5 $" a2 [4:0] $end
$var wire 1 # clk $end
$var wire 1 3 we3 $end
$var wire 32 %" wd3 [31:0] $end
$var wire 32 &" rd2 [31:0] $end
$var wire 32 '" rd1 [31:0] $end
$var wire 5 (" a3 [4:0] $end
$upscope $end
$upscope $end
$scope module executeStage $end
$var wire 4 )" ALUControlD [3:0] $end
$var wire 1 T ALUSrcD $end
$var wire 1 S BranchD $end
$var wire 32 *" ExtImmD [31:0] $end
$var wire 32 +" InstrD [31:0] $end
$var wire 1 H JumpD $end
$var wire 1 G MemWriteD $end
$var wire 32 ," PCD [31:0] $end
$var wire 32 -" PCPlus4D [31:0] $end
$var wire 1 ? PCSrcE $end
$var wire 32 ." RD1D [31:0] $end
$var wire 32 /" RD2D [31:0] $end
$var wire 5 0" RdD [4:0] $end
$var wire 1 6 RegWriteD $end
$var wire 2 1" ResultSrcD [1:0] $end
$var wire 5 2" Rs1D [4:0] $end
$var wire 5 3" Rs2D [4:0] $end
$var wire 1 # clk $end
$var wire 1 $ reset $end
$var wire 32 4" pcTargetBaseE [31:0] $end
$var wire 32 5" pcTargetAddOutE [31:0] $end
$var wire 1 6" isJALRE $end
$var wire 1 7" ZeroE $end
$var wire 32 8" WriteDataE [31:0] $end
$var wire 32 9" SrcBE [31:0] $end
$var wire 32 :" SrcAE [31:0] $end
$var wire 5 ;" Rs2E [4:0] $end
$var wire 5 <" Rs1E [4:0] $end
$var wire 32 =" ResultW [31:0] $end
$var wire 2 >" ResultSrcE [1:0] $end
$var wire 1 5 RegWriteE $end
$var wire 5 ?" RdE [4:0] $end
$var wire 32 @" RD2E [31:0] $end
$var wire 32 A" RD1E [31:0] $end
$var wire 32 B" PCTargetE [31:0] $end
$var wire 32 C" PCPlus4E [31:0] $end
$var wire 32 D" PCE [31:0] $end
$var wire 1 F MemWriteE $end
$var wire 1 E" JumpE $end
$var wire 32 F" InstrE [31:0] $end
$var wire 2 G" ForwardBE [1:0] $end
$var wire 2 H" ForwardAE [1:0] $end
$var wire 1 P FlushE $end
$var wire 32 I" ExtImmE [31:0] $end
$var wire 1 J" BranchE $end
$var wire 1 K" ALUSrcE $end
$var wire 32 L" ALUResultM [31:0] $end
$var wire 32 M" ALUResultE [31:0] $end
$var wire 4 N" ALUControlE [3:0] $end
$var reg 1 O" TakeBranchE $end
$scope module aluUnit $end
$var wire 4 P" alucontrol [3:0] $end
$var wire 1 Q" isAddSub $end
$var wire 1 R" v $end
$var wire 1 7" zero $end
$var wire 32 S" sum [31:0] $end
$var wire 32 T" condinvb [31:0] $end
$var wire 32 U" b [31:0] $end
$var wire 32 V" a [31:0] $end
$var reg 32 W" result [31:0] $end
$upscope $end
$scope module forwardAmux $end
$var wire 32 X" d0 [31:0] $end
$var wire 32 Y" y [31:0] $end
$var wire 2 Z" s [1:0] $end
$var wire 32 [" d2 [31:0] $end
$var wire 32 \" d1 [31:0] $end
$var parameter 32 ]" WIDTH $end
$upscope $end
$scope module forwardBmux $end
$var wire 32 ^" d0 [31:0] $end
$var wire 32 _" y [31:0] $end
$var wire 2 `" s [1:0] $end
$var wire 32 a" d2 [31:0] $end
$var wire 32 b" d1 [31:0] $end
$var parameter 32 c" WIDTH $end
$upscope $end
$scope module idexReg $end
$var wire 1 # clk $end
$var wire 218 d" d [217:0] $end
$var wire 1 e" en $end
$var wire 1 $ reset $end
$var wire 1 P clear $end
$var parameter 32 f" WIDTH $end
$var reg 218 g" q [217:0] $end
$upscope $end
$scope module pcTargetAdd $end
$var wire 32 h" a [31:0] $end
$var wire 32 i" b [31:0] $end
$var wire 32 j" y [31:0] $end
$upscope $end
$scope module srcBmux $end
$var wire 32 k" d0 [31:0] $end
$var wire 32 l" d1 [31:0] $end
$var wire 1 K" s $end
$var wire 32 m" y [31:0] $end
$var parameter 32 n" WIDTH $end
$upscope $end
$upscope $end
$scope module fetchStage $end
$var wire 1 ? PCSrcE $end
$var wire 32 o" PCTargetE [31:0] $end
$var wire 1 # clk $end
$var wire 1 $ reset $end
$var wire 1 ) StallF $end
$var wire 32 p" PCPlus4F [31:0] $end
$var wire 32 q" PCF_next [31:0] $end
$var wire 32 r" PCF [31:0] $end
$var wire 32 s" InstrF [31:0] $end
$scope module imemory $end
$var wire 32 t" rd [31:0] $end
$var wire 32 u" a [31:0] $end
$upscope $end
$scope module pcAdd4 $end
$var wire 32 v" b [31:0] $end
$var wire 32 w" y [31:0] $end
$var wire 32 x" a [31:0] $end
$upscope $end
$scope module pcReg $end
$var wire 1 # clk $end
$var wire 1 y" en $end
$var wire 1 $ reset $end
$var wire 32 z" d [31:0] $end
$var parameter 32 {" WIDTH $end
$var reg 32 |" q [31:0] $end
$upscope $end
$scope module pcmux $end
$var wire 32 }" d0 [31:0] $end
$var wire 32 ~" d1 [31:0] $end
$var wire 1 ? s $end
$var wire 32 !# y [31:0] $end
$var parameter 32 "# WIDTH $end
$upscope $end
$upscope $end
$scope module hazardUnit $end
$var wire 1 Q FlushD $end
$var wire 1 P FlushE $end
$var wire 1 ? PCSrcE $end
$var wire 5 ## RdE [4:0] $end
$var wire 1 $# ResultSrcE0 $end
$var wire 5 %# Rs1D [4:0] $end
$var wire 5 &# Rs1E [4:0] $end
$var wire 5 '# Rs2D [4:0] $end
$var wire 5 (# Rs2E [4:0] $end
$var wire 1 * StallD $end
$var wire 1 ) StallF $end
$var wire 1 )# lwStall $end
$var wire 1 3 RegWriteW $end
$var wire 1 4 RegWriteM $end
$var wire 5 *# RdW [4:0] $end
$var wire 5 +# RdM [4:0] $end
$var reg 2 ,# ForwardAE [1:0] $end
$var reg 2 -# ForwardBE [1:0] $end
$upscope $end
$scope module memStage $end
$var wire 32 .# ALUResultE [31:0] $end
$var wire 32 /# InstrE [31:0] $end
$var wire 1 F MemWriteE $end
$var wire 32 0# PCPlus4E [31:0] $end
$var wire 5 1# RdE [4:0] $end
$var wire 1 5 RegWriteE $end
$var wire 2 2# ResultSrcE [1:0] $end
$var wire 32 3# WriteDataE [31:0] $end
$var wire 1 # clk $end
$var wire 1 $ reset $end
$var wire 32 4# WriteDataM [31:0] $end
$var wire 2 5# ResultSrcM [1:0] $end
$var wire 1 4 RegWriteM $end
$var wire 32 6# ReadDataM [31:0] $end
$var wire 5 7# RdM [4:0] $end
$var wire 32 8# PCPlus4M [31:0] $end
$var wire 1 9# MemWriteM $end
$var wire 32 :# InstrM [31:0] $end
$var wire 32 ;# ALUResultM [31:0] $end
$scope module dataMemory $end
$var wire 32 <# a [31:0] $end
$var wire 1 # clk $end
$var wire 32 =# rd [31:0] $end
$var wire 32 ># wd [31:0] $end
$var wire 1 9# we $end
$upscope $end
$scope module exmemReg $end
$var wire 1 # clk $end
$var wire 137 ?# d [136:0] $end
$var wire 1 $ reset $end
$var parameter 32 @# WIDTH $end
$var reg 137 A# q [136:0] $end
$upscope $end
$upscope $end
$scope module wbStage $end
$var wire 32 B# ALUResultM [31:0] $end
$var wire 32 C# InstrM [31:0] $end
$var wire 32 D# PCPlus4M [31:0] $end
$var wire 5 E# RdM [4:0] $end
$var wire 32 F# ReadDataM [31:0] $end
$var wire 1 4 RegWriteM $end
$var wire 2 G# ResultSrcM [1:0] $end
$var wire 1 # clk $end
$var wire 1 $ reset $end
$var wire 32 H# ResultW [31:0] $end
$var wire 2 I# ResultSrcW [1:0] $end
$var wire 1 3 RegWriteW $end
$var wire 32 J# ReadDataW [31:0] $end
$var wire 5 K# RdW [4:0] $end
$var wire 32 L# PCPlus4W [31:0] $end
$var wire 32 M# InstrW [31:0] $end
$var wire 32 N# ALUResultW [31:0] $end
$scope module memwbReg $end
$var wire 1 # clk $end
$var wire 136 O# d [135:0] $end
$var wire 1 $ reset $end
$var parameter 32 P# WIDTH $end
$var reg 136 Q# q [135:0] $end
$upscope $end
$scope module resultMux $end
$var wire 32 R# d0 [31:0] $end
$var wire 32 S# d1 [31:0] $end
$var wire 32 T# d2 [31:0] $end
$var wire 2 U# s [1:0] $end
$var wire 32 V# y [31:0] $end
$var parameter 32 W# WIDTH $end
$upscope $end
$upscope $end
$upscope $end
$upscope $end
$enddefinitions $end
$comment Show the parameter values. $end
$dumpall
b100000 W#
b10001000 P#
b10001001 @#
b100000 "#
b100000 {"
b100000 n"
b11011010 f"
b100000 c"
b100000 ]"
b100000 !"
b100000 {
b100000 w
$end
#0
$dumpvars
b0 V#
b0 U#
b0 T#
b0 S#
b0 R#
b0 Q#
b0xxxxxxxxxxxxxxxxxxxxxxxxxxxxxxxx000000000000000000000000000000000000000000000000000000000000000000000 O#
b0 N#
b0 M#
b0 L#
b0 K#
b0 J#
b0 I#
b0 H#
b0 G#
bx F#
b0 E#
b0 D#
b0 C#
b0 B#
b0 A#
b0 ?#
b0 >#
bx =#
b0 <#
b0 ;#
b0 :#
09#
b0 8#
b0 7#
bx 6#
b0 5#
b0 4#
b0 3#
b0 2#
b0 1#
b0 0#
b0 /#
b0 .#
b0 -#
b0 ,#
b0 +#
b0 *#
0)#
b0 (#
b0 '#
b0 &#
b0 %#
0$#
b0 ##
b100 !#
b0 ~"
b100 }"
b0 |"
b100 z"
1y"
b0 x"
b100 w"
b100 v"
b0 u"
b111100000000000100010011 t"
b111100000000000100010011 s"
b0 r"
b100 q"
b100 p"
b0 o"
b0 m"
b0 l"
b0 k"
b0 j"
b0 i"
b0 h"
b0 g"
1e"
b0 d"
b0 b"
b0 a"
b0 `"
b0 _"
b0 ^"
b0 \"
b0 ["
b0 Z"
b0 Y"
b0 X"
b0 W"
b0 V"
b0 U"
b0 T"
b0 S"
0R"
1Q"
b0 P"
1O"
b0 N"
b0 M"
b0 L"
0K"
0J"
b0 I"
b0 H"
b0 G"
b0 F"
0E"
b0 D"
b0 C"
b0 B"
b0 A"
b0 @"
b0 ?"
b0 >"
b0 ="
b0 <"
b0 ;"
b0 :"
b0 9"
b0 8"
17"
06"
b0 5"
b0 4"
b0 3"
b0 2"
b0 1"
b0 0"
b0 /"
b0 ."
b0 -"
b0 ,"
b0 +"
b0 *"
b0 )"
b0 ("
b0 '"
b0 &"
b0 %"
b0 $"
b0 #"
b0 ""
b100 ~
1}
b0 |
b0 z
1y
b0 x
b111100000000000100010011 v
1u
b0 t
b0 s
b0 r
b0 q
b0 p
b0 o
b0 n
0m
0l
b0 k
b0 j
b0 i
b0 h
b0 g
b0 f
b0 e
b111100000000000100010011 d
b0 c
b0 b
b0 a
b100 `
b0 _
b0 ^
b0 ]
b0 \
b0 [
b0 Z
b0 Y
b0 X
b0 W
b0 V
b0 U
0T
0S
b0 R
0Q
0P
b0 O
b0 N
b0 M
b0 L
b111100000000000100010011 K
b0 J
b0 I
0H
0G
0F
b0 E
b0 D
b0 C
b0 B
b100 A
b0 @
0?
b0 >
b0 =
b0 <
b0 ;
b0 :
b0 9
b0 8
bx 7
06
05
04
03
b0 2
b0 1
b0 0
b0 /
b0 .
b0 -
b0 ,
b0 +
0*
0)
b0 (
1'
b0 &
b0 %
1$
0#
0"
b0 !
$end
#5000
1#
#10000
0#
#15000
1#
#20000
0#
#22000
0$
#25000
bx <
bx ^
bx &"
bx /"
b1000000000100000000000000000000000000000000xxxxxxxxxxxxxxxxxxxxxxxxxxxxxxxx00000000000000000000000000000000000000111100010000000000000000000000000000011110000000000000000000000000000010000000000111100000000000100010011 d"
b1111 R
b1111 g
b1111 t
b1111 *"
b10 o
1T
16
bx J#
bx S#
b11110000000000010 s
b10011 k
b10 ;
b10 ]
b10 0"
b1111 ,
b1111 X
b1111 $"
b1111 3"
b1111 '#
b1000 q"
b1000 z"
b1000 !#
b10100000000000110010011 K
b10100000000000110010011 d
b10100000000000110010011 v
b10100000000000110010011 s"
b10100000000000110010011 t"
b0xxxxxxxxxxxxxxxxxxxxxxxxxxxxxxxx000000000000000000000000000000000000000000000000000000000000000000000 Q#
b100 C
b100 a
b100 ""
b100 -"
b111100000000000100010011 M
b111100000000000100010011 e
b111100000000000100010011 x
b111100000000000100010011 +"
b1000 A
b1000 `
b1000 ~
b1000 p"
b1000 w"
b1000 }"
b100 !
b100 D
b100 b
b100 z
b100 r"
b100 u"
b100 x"
b100 |"
b1 %
1#
#30000
0#
#35000
0O"
0'
07"
b1111 V
b1111 M"
b1111 W"
b1111 .#
b1110 >
b1110 B"
b1110 o"
b1110 ~"
bx (
bx 8"
bx _"
bx k"
bx 3#
b1111 S"
b1111 T"
b100000000000000000000000000000001111xxxxxxxxxxxxxxxxxxxxxxxxxxxxxxxx000100000000000000000000000000000010000000000111100000000000100010011 ?#
b101 R
b101 g
b101 t
b101 *"
b1000000000100000000000000000000000000000000xxxxxxxxxxxxxxxxxxxxxxxxxxxxxxxx00000000000000000000000000000100000000010100011000000000000000000000000000001010000000000000000000000000000100000000000010100000000000110010011 d"
b1111 9"
b1111 U"
b1111 m"
b1100 q"
b1100 z"
b1100 !#
b1100010000001000110011 K
b1100010000001000110011 d
b1100010000001000110011 v
b1100010000001000110011 s"
b1100010000001000110011 t"
b1010000000000011 s
b11 ;
b11 ]
b11 0"
b101 ,
b101 X
b101 $"
b101 3"
b101 '#
b111100000000000100010011 L
b111100000000000100010011 F"
b111100000000000100010011 /#
b100 B
b100 C"
b100 0#
b1111 5"
b1111 j"
b1111 I"
b1111 i"
b1111 l"
b10 :
b10 ?"
b10 ##
b10 1#
b1111 +
b1111 ;"
b1111 (#
bx @"
bx ^"
1K"
15
b1100 A
b1100 `
b1100 ~
b1100 p"
b1100 w"
b1100 }"
b1000 !
b1000 D
b1000 b
b1000 z
b1000 r"
b1000 u"
b1000 x"
b1000 |"
b10100000000000110010011 M
b10100000000000110010011 e
b10100000000000110010011 x
b10100000000000110010011 +"
b100 E
b100 c
b100 |
b100 ,"
b1000 C
b1000 a
b1000 ""
b1000 -"
b1000000000100000000000000000000000000000000xxxxxxxxxxxxxxxxxxxxxxxxxxxxxxxx00000000000000000000000000000000000000111100010000000000000000000000000000011110000000000000000000000000000010000000000111100000000000100010011 g"
b10 %
1#
#40000
0#
#45000
b101 V
b101 M"
b101 W"
b101 .#
b10000000000000000000000000000001111xxxxxxxxxxxxxxxxxxxxxxxxxxxxxxxx000100000000000000000000000000000010000000000111100000000000100010011 O#
b1000 >
b1000 B"
b1000 o"
b1000 ~"
b101 S"
b101 T"
b100000000000000000000000000000000101xxxxxxxxxxxxxxxxxxxxxxxxxxxxxxxx000110000000000000000000000000000100000000000010100000000000110010011 ?#
bx =
bx _
bx '"
bx ."
b101 9"
b101 U"
b101 m"
b100 4"
b100 h"
b10000000000xxxxxxxxxxxxxxxxxxxxxxxxxxxxxxxxxxxxxxxxxxxxxxxxxxxxxxxxxxxxxxxx00000000000000000000000000001000000100001100100xxxxxxxxxxxxxxxxxxxxxxxxxxxxxxxx0000000000000000000000000000110000000000001100010000001000110011 d"
bx R
bx g
bx t
bx *"
bx f
bx p
bx r
b10 o
0T
16
1m
b111100000000000100010011 J
b111100000000000100010011 :#
b111100000000000100010011 C#
b100 @
b100 8#
b100 D#
b10 9
b10 +#
b10 7#
b10 E#
bx &
bx 4#
bx >#
b1111 U
b1111 L"
b1111 ["
b1111 a"
b1111 ;#
b1111 <#
b1111 B#
14
b10100000000000110010011 L
b10100000000000110010011 F"
b10100000000000110010011 /#
b1000 B
b1000 C"
b1000 0#
b1001 5"
b1001 j"
b101 I"
b101 i"
b101 l"
b11 :
b11 ?"
b11 ##
b11 1#
b101 +
b101 ;"
b101 (#
b100 D"
b110001000000100 s
b110011 k
b100 ;
b100 ]
b100 0"
b11 ,
b11 X
b11 $"
b11 3"
b11 '#
b10 .
b10 Y
b10 #"
b10 2"
b10 %#
b10000 q"
b10000 z"
b10000 !#
b1000000001100010000001010110011 K
b1000000001100010000001010110011 d
b1000000001100010000001010110011 v
b1000000001100010000001010110011 s"
b1000000001100010000001010110011 t"
b100000000000000000000000000000001111xxxxxxxxxxxxxxxxxxxxxxxxxxxxxxxx000100000000000000000000000000000010000000000111100000000000100010011 A#
b1000000000100000000000000000000000000000000xxxxxxxxxxxxxxxxxxxxxxxxxxxxxxxx00000000000000000000000000000100000000010100011000000000000000000000000000001010000000000000000000000000000100000000000010100000000000110010011 g"
b1100 C
b1100 a
b1100 ""
b1100 -"
b1000 E
b1000 c
b1000 |
b1000 ,"
b1100010000001000110011 M
b1100010000001000110011 e
b1100010000001000110011 x
b1100010000001000110011 +"
b10000 A
b10000 `
b10000 ~
b10000 p"
b10000 w"
b10000 }"
b1100 !
b1100 D
b1100 b
b1100 z
b1100 r"
b1100 u"
b1100 x"
b1100 |"
b11 %
1#
#50000
0#
#55000
0R"
b1000 W
b1000 h
b1000 n
b1000 )"
0O"
0'
07"
b10100 V
b10100 M"
b10100 W"
b10100 .#
b101 (
b101 8"
b101 _"
b101 k"
b101 3#
1l
bx0 >
bx0 B"
bx0 o"
bx0 ~"
b10000000000000000000000000000001010000000000000000000000000000000101001000000000000000000000000000000110000000000001100010000001000110011 ?#
b1111 :"
b1111 V"
b1111 Y"
b10100 S"
b101 T"
b10000000000000000000000000000000101xxxxxxxxxxxxxxxxxxxxxxxxxxxxxxxx000110000000000000000000000000000100000000000010100000000000110010011 O#
b1111 /
b1111 Z
b1111 %"
b1111 ="
b1111 \"
b1111 b"
b1111 H#
b1111 V#
b10000010000xxxxxxxxxxxxxxxxxxxxxxxxxxxxxxxxxxxxxxxxxxxxxxxxxxxxxxxxxxxxxxxx00000000000000000000000000001100000100001100101xxxxxxxxxxxxxxxxxxxxxxxxxxxxxxxx0000000000000000000000000001000001000000001100010000001010110011 d"
b1000 4"
b1000 h"
b101 9"
b101 U"
b101 m"
b10 N
b10 G"
b10 `"
b10 -#
b1 O
b1 H"
b1 Z"
b1 ,#
b10100 q"
b10100 z"
b10100 !#
b1100010111001100110011 K
b1100010111001100110011 d
b1100010111001100110011 v
b1100010111001100110011 s"
b1100010111001100110011 t"
b100000000110001000000101 s
b100000 j
b101 ;
b101 ]
b101 0"
b1100010000001000110011 L
b1100010000001000110011 F"
b1100010000001000110011 /#
b1100 B
b1100 C"
b1100 0#
bx 5"
bx j"
bx I"
bx i"
bx l"
b100 :
b100 ?"
b100 ##
b100 1#
b11 +
b11 ;"
b11 (#
b10 -
b10 <"
b10 &#
b1000 D"
bx A"
bx X"
0K"
b10100000000000110010011 J
b10100000000000110010011 :#
b10100000000000110010011 C#
b1000 @
b1000 8#
b1000 D#
b11 9
b11 +#
b11 7#
b11 E#
b101 U
b101 L"
b101 ["
b101 a"
b101 ;#
b101 <#
b101 B#
b111100000000000100010011 I
b111100000000000100010011 M#
b100 L#
b100 T#
b10 8
b10 \
b10 ("
b10 *#
b10 K#
b1111 N#
b1111 R#
13
b10100 A
b10100 `
b10100 ~
b10100 p"
b10100 w"
b10100 }"
b10000 !
b10000 D
b10000 b
b10000 z
b10000 r"
b10000 u"
b10000 x"
b10000 |"
b1000000001100010000001010110011 M
b1000000001100010000001010110011 e
b1000000001100010000001010110011 x
b1000000001100010000001010110011 +"
b1100 E
b1100 c
b1100 |
b1100 ,"
b10000 C
b10000 a
b10000 ""
b10000 -"
b10000000000xxxxxxxxxxxxxxxxxxxxxxxxxxxxxxxxxxxxxxxxxxxxxxxxxxxxxxxxxxxxxxxx00000000000000000000000000001000000100001100100xxxxxxxxxxxxxxxxxxxxxxxxxxxxxxxx0000000000000000000000000000110000000000001100010000001000110011 g"
b100000000000000000000000000000000101xxxxxxxxxxxxxxxxxxxxxxxxxxxxxxxx000110000000000000000000000000000100000000000010100000000000110010011 A#
b10000000000000000000000000000001111xxxxxxxxxxxxxxxxxxxxxxxxxxxxxxxx000100000000000000000000000000000010000000000111100000000000100010011 Q#
b100 %
1#
#60000
b1000001000000000000000000000000000000001111xxxxxxxxxxxxxxxxxxxxxxxxxxxxxxxx00000000000000000000000000001100000100001100101xxxxxxxxxxxxxxxxxxxxxxxxxxxxxxxx0000000000000000000000000001000001000000001100010000001010110011 d"
b1111 =
b1111 _
b1111 '"
b1111 ."
0#
#65000
0R"
0O"
0'
07"
b1010 V
b1010 M"
b1010 W"
b1010 .#
b101 /
b101 Z
b101 %"
b101 ="
b101 \"
b101 b"
b101 H#
b101 V#
b10000000000000000000000000000010100xxxxxxxxxxxxxxxxxxxxxxxxxxxxxxxx001000000000000000000000000000000110000000000001100010000001000110011 O#
b101 9"
b101 U"
b101 m"
b10000000000000000000000000000000101000000000000000000000000000000101001010000000000000000000000000001000001000000001100010000001010110011 ?#
b11111111111111111111111111111010 T"
b1010 S"
0l
b1 N
b1 G"
b1 `"
b1 -#
b0 O
b0 H"
b0 Z"
b0 ,#
b101 (
b101 8"
b101 _"
b101 k"
b101 3#
b1100 4"
b1100 h"
b1000000111000000000000000000000000000001111xxxxxxxxxxxxxxxxxxxxxxxxxxxxxxxx00000000000000000000000000010000000100001100110xxxxxxxxxxxxxxxxxxxxxxxxxxxxxxxx0000000000000000000000000001010000000000001100010111001100110011 d"
b111 W
b111 h
b111 n
b111 )"
b10100000000000110010011 I
b10100000000000110010011 M#
b1000 L#
b1000 T#
b11 8
b11 \
b11 ("
b11 *#
b11 K#
b101 N#
b101 R#
b1100010000001000110011 J
b1100010000001000110011 :#
b1100010000001000110011 C#
b1100 @
b1100 8#
b1100 D#
b100 9
b100 +#
b100 7#
b100 E#
b101 &
b101 4#
b101 >#
b10100 U
b10100 L"
b10100 ["
b10100 a"
b10100 ;#
b10100 <#
b10100 B#
b1000000001100010000001010110011 L
b1000000001100010000001010110011 F"
b1000000001100010000001010110011 /#
b10000 B
b10000 C"
b10000 0#
b101 :
b101 ?"
b101 ##
b101 1#
b1100 D"
b1111 A"
b1111 X"
b1000 N"
b1000 P"
b110001011100110 s
b0 j
b111 i
b110 ;
b110 ]
b110 0"
b11000 q"
b11000 z"
b11000 !#
b1100010110001110110011 K
b1100010110001110110011 d
b1100010110001110110011 v
b1100010110001110110011 s"
b1100010110001110110011 t"
b10000000000000000000000000000000101xxxxxxxxxxxxxxxxxxxxxxxxxxxxxxxx000110000000000000000000000000000100000000000010100000000000110010011 Q#
b10000000000000000000000000000001010000000000000000000000000000000101001000000000000000000000000000000110000000000001100010000001000110011 A#
b1000001000000000000000000000000000000001111xxxxxxxxxxxxxxxxxxxxxxxxxxxxxxxx00000000000000000000000000001100000100001100101xxxxxxxxxxxxxxxxxxxxxxxxxxxxxxxx0000000000000000000000000001000001000000001100010000001010110011 g"
b10100 C
b10100 a
b10100 ""
b10100 -"
b10000 E
b10000 c
b10000 |
b10000 ,"
b1100010111001100110011 M
b1100010111001100110011 e
b1100010111001100110011 x
b1100010111001100110011 +"
b11000 A
b11000 `
b11000 ~
b11000 p"
b11000 w"
b11000 }"
b10100 !
b10100 D
b10100 b
b10100 z
b10100 r"
b10100 u"
b10100 x"
b10100 |"
b101 %
1#
#70000
b10000001110000000000000000000000000000011110000000000000000000000000000010100000000000000000000000000010000000100001100110xxxxxxxxxxxxxxxxxxxxxxxxxxxxxxxx0000000000000000000000000001010000000000001100010111001100110011 d"
b101 <
b101 ^
b101 &"
b101 /"
0#
