Waves/waves_stalling_NO_HAZARD.vcd
$date
	Thu Jun 18 20:23:10 2026
$end
$version
	Icarus Verilog
$end
$timescale
	1ps
$end
$scope module tb $end
$var wire 32 ! pcF [31:0] $end
$var wire 1 " memWriteM $end
$var reg 1 # clk $end
$var reg 1 $ reset $end
$var integer 32 % cycle [31:0] $end
$scope module dut $end
$var wire 2 & ForwardAE [1:0] $end
$var wire 2 ' ForwardBE [1:0] $end
$var wire 1 " MemWriteM $end
$var wire 1 ( StallD $end
$var wire 1 ) StallF $end
$var wire 32 * WriteDataM [31:0] $end
$var wire 1 + ZeroE $end
$var wire 1 # clk $end
$var wire 1 $ reset $end
$var wire 32 , WriteDataE [31:0] $end
$var wire 5 - Rs2E [4:0] $end
$var wire 5 . Rs2D [4:0] $end
$var wire 5 / Rs1E [4:0] $end
$var wire 5 0 Rs1D [4:0] $end
$var wire 32 1 ResultW [31:0] $end
$var wire 2 2 ResultSrcM [1:0] $end
$var wire 2 3 ResultSrcE [1:0] $end
$var wire 2 4 ResultSrcD [1:0] $end
$var wire 1 5 RegWriteW $end
$var wire 1 6 RegWriteM_internal $end
$var wire 1 7 RegWriteE $end
$var wire 1 8 RegWriteD $end
$var wire 32 9 ReadDataM [31:0] $end
$var wire 5 : RdW [4:0] $end
$var wire 5 ; RdM [4:0] $end
$var wire 5 < RdE [4:0] $end
$var wire 5 = RdD [4:0] $end
$var wire 32 > RD2D [31:0] $end
$var wire 32 ? RD1D [31:0] $end
$var wire 32 @ PCTargetE [31:0] $end
$var wire 1 A PCSrcE $end
$var wire 32 B PCPlus4M [31:0] $end
$var wire 32 C PCPlus4F [31:0] $end
$var wire 32 D PCPlus4E [31:0] $end
$var wire 32 E PCPlus4D [31:0] $end
$var wire 32 F PCF [31:0] $end
$var wire 32 G PCD [31:0] $end
$var wire 1 H MemWriteE $end
$var wire 1 I MemWriteD $end
$var wire 1 J JumpD $end
$var wire 32 K InstrW [31:0] $end
$var wire 32 L InstrM [31:0] $end
$var wire 32 M InstrF [31:0] $end
$var wire 32 N InstrE [31:0] $end
$var wire 32 O InstrD [31:0] $end
$var wire 1 P FlushE $end
$var wire 1 Q FlushD $end
$var wire 32 R ExtImmD [31:0] $end
$var wire 1 S BranchD $end
$var wire 1 T ALUSrcD $end
$var wire 32 U ALUResultM [31:0] $end
$var wire 32 V ALUResultE [31:0] $end
$var wire 4 W ALUControlD [3:0] $end
$scope module decodeStage $end
$var wire 1 ( StallD $end
$var wire 1 # clk $end
$var wire 1 $ reset $end
$var wire 5 X Rs2D [4:0] $end
$var wire 5 Y Rs1D [4:0] $end
$var wire 32 Z ResultW [31:0] $end
$var wire 2 [ ResultSrcD [1:0] $end
$var wire 1 5 RegWriteW $end
$var wire 1 8 RegWriteD $end
$var wire 5 \ RdW [4:0] $end
$var wire 5 ] RdD [4:0] $end
$var wire 32 ^ RD2D [31:0] $end
$var wire 32 _ RD1D [31:0] $end
$var wire 32 ` PCPlus4F [31:0] $end
$var wire 32 a PCPlus4D [31:0] $end
$var wire 32 b PCF [31:0] $end
$var wire 32 c PCD [31:0] $end
$var wire 1 I MemWriteD $end
$var wire 1 J JumpD $end
$var wire 32 d InstrF [31:0] $end
$var wire 32 e InstrD [31:0] $end
$var wire 3 f ImmSrcD [2:0] $end
$var wire 1 Q FlushD $end
$var wire 32 g ExtImmD [31:0] $end
$var wire 1 S BranchD $end
$var wire 1 T ALUSrcD $end
$var wire 4 h ALUControlD [3:0] $end
$scope module ctrl $end
$var wire 3 i funct3 [2:0] $end
$var wire 7 j funct7 [6:0] $end
$var wire 7 k op [6:0] $end
$var wire 1 l use_alt_op $end
$var wire 1 m op5 $end
$var reg 4 n ALUControl [3:0] $end
$var reg 2 o ALUOp [1:0] $end
$var reg 1 T ALUSrc $end
$var reg 1 S Branch $end
$var reg 3 p ImmSrc [2:0] $end
$var reg 1 J Jump $end
$var reg 1 I MemWrite $end
$var reg 1 8 RegWrite $end
$var reg 2 q ResultSrc [1:0] $end
$upscope $end
$scope module ext $end
$var wire 3 r immsrc [2:0] $end
$var wire 25 s instr [31:7] $end
$var reg 32 t immext [31:0] $end
$upscope $end
$scope module ifIdInstr $end
$var wire 1 # clk $end
$var wire 1 u en $end
$var wire 1 $ reset $end
$var wire 32 v d [31:0] $end
$var wire 1 Q clear $end
$var parameter 32 w WIDTH $end
$var reg 32 x q [31:0] $end
$upscope $end
$scope module ifIdPc $end
$var wire 1 # clk $end
$var wire 1 y en $end
$var wire 1 $ reset $end
$var wire 32 z d [31:0] $end
$var wire 1 Q clear $end
$var parameter 32 { WIDTH $end
$var reg 32 | q [31:0] $end
$upscope $end
$scope module ifIdPcPlus4 $end
$var wire 1 # clk $end
$var wire 1 } en $end
$var wire 1 $ reset $end
$var wire 32 ~ d [31:0] $end
$var wire 1 Q clear $end
$var parameter 32 !" WIDTH $end
$var reg 32 "" q [31:0] $end
$upscope $end
$scope module rf $end
$var wire 5 #" a1 [4:0] $end
$var wire 5 $" a2 [4:0] $end
$var wire 1 # clk $end
$var wire 1 5 we3 $end
$var wire 32 %" wd3 [31:0] $end
$var wire 32 &" rd2 [31:0] $end
$var wire 32 '" rd1 [31:0] $end
$var wire 5 (" a3 [4:0] $end
$upscope $end
$upscope $end
$scope module executeStage $end
$var wire 4 )" ALUControlD [3:0] $end
$var wire 1 T ALUSrcD $end
$var wire 1 S BranchD $end
$var wire 32 *" ExtImmD [31:0] $end
$var wire 2 +" ForwardAE [1:0] $end
$var wire 2 ," ForwardBE [1:0] $end
$var wire 32 -" InstrD [31:0] $end
$var wire 1 J JumpD $end
$var wire 1 I MemWriteD $end
$var wire 32 ." PCD [31:0] $end
$var wire 32 /" PCPlus4D [31:0] $end
$var wire 1 A PCSrcE $end
$var wire 32 0" RD1D [31:0] $end
$var wire 32 1" RD2D [31:0] $end
$var wire 5 2" RdD [4:0] $end
$var wire 1 8 RegWriteD $end
$var wire 2 3" ResultSrcD [1:0] $end
$var wire 5 4" Rs1D [4:0] $end
$var wire 5 5" Rs2D [4:0] $end
$var wire 1 # clk $end
$var wire 1 $ reset $end
$var wire 32 6" pcTargetBaseE [31:0] $end
$var wire 32 7" pcTargetAddOutE [31:0] $end
$var wire 1 8" isJALRE $end
$var wire 1 9" ZeroE $end
$var wire 32 :" WriteDataE [31:0] $end
$var wire 32 ;" SrcBE [31:0] $end
$var wire 32 <" SrcAE [31:0] $end
$var wire 5 =" Rs2E [4:0] $end
$var wire 5 >" Rs1E [4:0] $end
$var wire 32 ?" ResultW [31:0] $end
$var wire 2 @" ResultSrcE [1:0] $end
$var wire 1 7 RegWriteE $end
$var wire 5 A" RdE [4:0] $end
$var wire 32 B" RD2E [31:0] $end
$var wire 32 C" RD1E [31:0] $end
$var wire 32 D" PCTargetE [31:0] $end
$var wire 32 E" PCPlus4E [31:0] $end
$var wire 32 F" PCE [31:0] $end
$var wire 1 H MemWriteE $end
$var wire 1 G" JumpE $end
$var wire 32 H" InstrE [31:0] $end
$var wire 1 P FlushE $end
$var wire 32 I" ExtImmE [31:0] $end
$var wire 1 J" BranchE $end
$var wire 1 K" ALUSrcE $end
$var wire 32 L" ALUResultM [31:0] $end
$var wire 32 M" ALUResultE [31:0] $end
$var wire 4 N" ALUControlE [3:0] $end
$var reg 1 O" TakeBranchE $end
$scope module aluUnit $end
$var wire 4 P" alucontrol [3:0] $end
$var wire 1 Q" isAddSub $end
$var wire 1 R" v $end
$var wire 1 9" zero $end
$var wire 32 S" sum [31:0] $end
$var wire 32 T" condinvb [31:0] $end
$var wire 32 U" b [31:0] $end
$var wire 32 V" a [31:0] $end
$var reg 32 W" result [31:0] $end
$upscope $end
$scope module forwardAmux $end
$var wire 32 X" d0 [31:0] $end
$var wire 2 Y" s [1:0] $end
$var wire 32 Z" y [31:0] $end
$var wire 32 [" d2 [31:0] $end
$var wire 32 \" d1 [31:0] $end
$var parameter 32 ]" WIDTH $end
$upscope $end
$scope module forwardBmux $end
$var wire 32 ^" d0 [31:0] $end
$var wire 2 _" s [1:0] $end
$var wire 32 `" y [31:0] $end
$var wire 32 a" d2 [31:0] $end
$var wire 32 b" d1 [31:0] $end
$var parameter 32 c" WIDTH $end
$upscope $end
$scope module idexReg $end
$var wire 1 # clk $end
$var wire 218 d" d [217:0] $end
$var wire 1 e" en $end
$var wire 1 $ reset $end
$var wire 1 P clear $end
$var parameter 32 f" WIDTH $end
$var reg 218 g" q [217:0] $end
$upscope $end
$scope module pcTargetAdd $end
$var wire 32 h" a [31:0] $end
$var wire 32 i" b [31:0] $end
$var wire 32 j" y [31:0] $end
$upscope $end
$scope module srcBmux $end
$var wire 32 k" d0 [31:0] $end
$var wire 32 l" d1 [31:0] $end
$var wire 1 K" s $end
$var wire 32 m" y [31:0] $end
$var parameter 32 n" WIDTH $end
$upscope $end
$upscope $end
$scope module fetchStage $end
$var wire 1 A PCSrcE $end
$var wire 32 o" PCTargetE [31:0] $end
$var wire 1 ) StallF $end
$var wire 1 # clk $end
$var wire 1 $ reset $end
$var wire 32 p" PCPlus4F [31:0] $end
$var wire 32 q" PCF_next [31:0] $end
$var wire 32 r" PCF [31:0] $end
$var wire 32 s" InstrF [31:0] $end
$scope module imemory $end
$var wire 32 t" rd [31:0] $end
$var wire 32 u" a [31:0] $end
$upscope $end
$scope module pcAdd4 $end
$var wire 32 v" b [31:0] $end
$var wire 32 w" y [31:0] $end
$var wire 32 x" a [31:0] $end
$upscope $end
$scope module pcReg $end
$var wire 1 # clk $end
$var wire 1 y" en $end
$var wire 1 $ reset $end
$var wire 32 z" d [31:0] $end
$var parameter 32 {" WIDTH $end
$var reg 32 |" q [31:0] $end
$upscope $end
$scope module pcmux $end
$var wire 32 }" d0 [31:0] $end
$var wire 32 ~" d1 [31:0] $end
$var wire 1 A s $end
$var wire 32 !# y [31:0] $end
$var parameter 32 "# WIDTH $end
$upscope $end
$upscope $end
$scope module hazardUnit $end
$var wire 1 Q FlushD $end
$var wire 1 P FlushE $end
$var wire 2 ## ForwardAE [1:0] $end
$var wire 2 $# ForwardBE [1:0] $end
$var wire 1 A PCSrcE $end
$var wire 5 %# RdE [4:0] $end
$var wire 1 &# ResultSrcE0 $end
$var wire 5 '# Rs1D [4:0] $end
$var wire 5 (# Rs1E [4:0] $end
$var wire 5 )# Rs2D [4:0] $end
$var wire 5 *# Rs2E [4:0] $end
$var wire 1 ( StallD $end
$var wire 1 ) StallF $end
$var wire 1 5 RegWriteW $end
$var wire 1 6 RegWriteM $end
$var wire 5 +# RdW [4:0] $end
$var wire 5 ,# RdM [4:0] $end
$upscope $end
$scope module memStage $end
$var wire 32 -# ALUResultE [31:0] $end
$var wire 32 .# InstrE [31:0] $end
$var wire 1 H MemWriteE $end
$var wire 32 /# PCPlus4E [31:0] $end
$var wire 5 0# RdE [4:0] $end
$var wire 1 7 RegWriteE $end
$var wire 2 1# ResultSrcE [1:0] $end
$var wire 32 2# WriteDataE [31:0] $end
$var wire 1 # clk $end
$var wire 1 $ reset $end
$var wire 32 3# WriteDataM [31:0] $end
$var wire 2 4# ResultSrcM [1:0] $end
$var wire 1 6 RegWriteM $end
$var wire 32 5# ReadDataM [31:0] $end
$var wire 5 6# RdM [4:0] $end
$var wire 32 7# PCPlus4M [31:0] $end
$var wire 1 8# MemWriteM $end
$var wire 32 9# InstrM [31:0] $end
$var wire 32 :# ALUResultM [31:0] $end
$scope module dataMemory $end
$var wire 32 ;# a [31:0] $end
$var wire 1 # clk $end
$var wire 32 <# rd [31:0] $end
$var wire 32 =# wd [31:0] $end
$var wire 1 8# we $end
$upscope $end
$scope module exmemReg $end
$var wire 1 # clk $end
$var wire 137 ># d [136:0] $end
$var wire 1 $ reset $end
$var parameter 32 ?# WIDTH $end
$var reg 137 @# q [136:0] $end
$upscope $end
$upscope $end
$scope module wbStage $end
$var wire 32 A# ALUResultM [31:0] $end
$var wire 32 B# InstrM [31:0] $end
$var wire 32 C# PCPlus4M [31:0] $end
$var wire 5 D# RdM [4:0] $end
$var wire 32 E# ReadDataM [31:0] $end
$var wire 1 6 RegWriteM $end
$var wire 2 F# ResultSrcM [1:0] $end
$var wire 1 # clk $end
$var wire 1 $ reset $end
$var wire 32 G# ResultW [31:0] $end
$var wire 2 H# ResultSrcW [1:0] $end
$var wire 1 5 RegWriteW $end
$var wire 32 I# ReadDataW [31:0] $end
$var wire 5 J# RdW [4:0] $end
$var wire 32 K# PCPlus4W [31:0] $end
$var wire 32 L# InstrW [31:0] $end
$var wire 32 M# ALUResultW [31:0] $end
$scope module memwbReg $end
$var wire 1 # clk $end
$var wire 136 N# d [135:0] $end
$var wire 1 $ reset $end
$var parameter 32 O# WIDTH $end
$var reg 136 P# q [135:0] $end
$upscope $end
$scope module resultMux $end
$var wire 32 Q# d0 [31:0] $end
$var wire 32 R# d1 [31:0] $end
$var wire 32 S# d2 [31:0] $end
$var wire 2 T# s [1:0] $end
$var wire 32 U# y [31:0] $end
$var parameter 32 V# WIDTH $end
$upscope $end
$upscope $end
$upscope $end
$upscope $end
$enddefinitions $end
$comment Show the parameter values. $end
$dumpall
b100000 V#
b10001000 O#
b10001001 ?#
b100000 "#
b100000 {"
b100000 n"
b11011010 f"
b100000 c"
b100000 ]"
b100000 !"
b100000 {
b100000 w
$end
#0
$dumpvars
b0 U#
b0 T#
b0 S#
b0 R#
b0 Q#
b0 P#
b0xxxxxxxxxxxxxxxxxxxxxxxxxxxxxxxx000000000000000000000000000000000000000000000000000000000000000000000 N#
b0 M#
b0 L#
b0 K#
b0 J#
b0 I#
b0 H#
b0 G#
b0 F#
bx E#
b0 D#
b0 C#
b0 B#
b0 A#
b0 @#
b0 >#
b0 =#
bx <#
b0 ;#
b0 :#
b0 9#
08#
b0 7#
b0 6#
bx 5#
b0 4#
b0 3#
b0 2#
b0 1#
b0 0#
b0 /#
b0 .#
b0 -#
b0 ,#
b0 +#
b0 *#
b0 )#
b0 (#
b0 '#
0&#
b0 %#
b0 $#
b0 ##
b100 !#
b0 ~"
b100 }"
b0 |"
b100 z"
1y"
b0 x"
b100 w"
b100 v"
b0 u"
b10100000000000100010011 t"
b10100000000000100010011 s"
b0 r"
b100 q"
b100 p"
b0 o"
b0 m"
b0 l"
b0 k"
b0 j"
b0 i"
b0 h"
b0 g"
1e"
b0 d"
b0 b"
b0 a"
b0 `"
b0 _"
b0 ^"
b0 \"
b0 ["
b0 Z"
b0 Y"
b0 X"
b0 W"
b0 V"
b0 U"
b0 T"
b0 S"
0R"
1Q"
b0 P"
1O"
b0 N"
b0 M"
b0 L"
0K"
0J"
b0 I"
b0 H"
0G"
b0 F"
b0 E"
b0 D"
b0 C"
b0 B"
b0 A"
b0 @"
b0 ?"
b0 >"
b0 ="
b0 <"
b0 ;"
b0 :"
19"
08"
b0 7"
b0 6"
b0 5"
b0 4"
b0 3"
b0 2"
b0 1"
b0 0"
b0 /"
b0 ."
b0 -"
b0 ,"
b0 +"
b0 *"
b0 )"
b0 ("
b0 '"
b0 &"
b0 %"
b0 $"
b0 #"
b0 ""
b100 ~
1}
b0 |
b0 z
1y
b0 x
b10100000000000100010011 v
1u
b0 t
b0 s
b0 r
b0 q
b0 p
b0 o
b0 n
0m
0l
b0 k
b0 j
b0 i
b0 h
b0 g
b0 f
b0 e
b10100000000000100010011 d
b0 c
b0 b
b0 a
b100 `
b0 _
b0 ^
b0 ]
b0 \
b0 [
b0 Z
b0 Y
b0 X
b0 W
b0 V
b0 U
0T
0S
b0 R
0Q
0P
b0 O
b0 N
b10100000000000100010011 M
b0 L
b0 K
0J
0I
0H
b0 G
b0 F
b0 E
b0 D
b100 C
b0 B
0A
b0 @
b0 ?
b0 >
b0 =
b0 <
b0 ;
b0 :
bx 9
08
07
06
05
b0 4
b0 3
b0 2
b0 1
b0 0
b0 /
b0 .
b0 -
b0 ,
1+
b0 *
0)
0(
b0 '
b0 &
b0 %
1$
0#
0"
b0 !
$end
#5000
1#
#10000
0#
#15000
1#
#20000
0#
#22000
0$
#25000
bx >
bx ^
bx &"
bx 1"
b1000000000100000000000000000000000000000000xxxxxxxxxxxxxxxxxxxxxxxxxxxxxxxx00000000000000000000000000000000000000010100010000000000000000000000000000001010000000000000000000000000000010000000000010100000000000100010011 d"
b101 R
b101 g
b101 t
b101 *"
b10 o
1T
18
bx I#
bx R#
b1010000000000010 s
b10011 k
b10 =
b10 ]
b10 2"
b101 .
b101 X
b101 $"
b101 5"
b101 )#
b1000 q"
b1000 z"
b1000 !#
b110001000000010001000100011 M
b110001000000010001000100011 d
b110001000000010001000100011 v
b110001000000010001000100011 s"
b110001000000010001000100011 t"
b0xxxxxxxxxxxxxxxxxxxxxxxxxxxxxxxx000000000000000000000000000000000000000000000000000000000000000000000 P#
b100 E
b100 a
b100 ""
b100 /"
b10100000000000100010011 O
b10100000000000100010011 e
b10100000000000100010011 x
b10100000000000100010011 -"
b1000 C
b1000 `
b1000 ~
b1000 p"
b1000 w"
b1000 }"
b100 !
b100 F
b100 b
b100 z
b100 r"
b100 u"
b100 x"
b100 |"
b1 %
1#
#30000
0#
#35000
0O"
0+
09"
b101 V
b101 M"
b101 W"
b101 -#
b100 @
b100 D"
b100 o"
b100 ~"
bx ,
bx :"
bx `"
bx k"
bx 2#
b101 S"
b101 T"
b100000000000000000000000000000000101xxxxxxxxxxxxxxxxxxxxxxxxxxxxxxxx000100000000000000000000000000000010000000000010100000000000100010011 >#
b1100100 R
b1100100 g
b1100100 t
b1100100 *"
b1 f
b1 p
b1 r
1I
b0 o
1T
08
1m
b1000000100000000000000000000000000000000xxxxxxxxxxxxxxxxxxxxxxxxxxxxxxxx00000000000000000000000000000100000000001000100000000000000000000000000011001000000000000000000000000000000100000000110001000000010001000100011 d"
b101 ;"
b101 U"
b101 m"
b1100 q"
b1100 z"
b1100 !#
b110010000000010000110000011 M
b110010000000010000110000011 d
b110010000000010000110000011 v
b110010000000010000110000011 s"
b110010000000010000110000011 t"
b11000100000001000100 s
b11 j
b10 i
b100011 k
b100 =
b100 ]
b100 2"
b10 .
b10 X
b10 $"
b10 5"
b10 )#
b10100000000000100010011 N
b10100000000000100010011 H"
b10100000000000100010011 .#
b100 D
b100 E"
b100 /#
b101 7"
b101 j"
b101 I"
b101 i"
b101 l"
b10 <
b10 A"
b10 %#
b10 0#
b101 -
b101 ="
b101 *#
bx B"
bx ^"
1K"
17
b1100 C
b1100 `
b1100 ~
b1100 p"
b1100 w"
b1100 }"
b1000 !
b1000 F
b1000 b
b1000 z
b1000 r"
b1000 u"
b1000 x"
b1000 |"
b110001000000010001000100011 O
b110001000000010001000100011 e
b110001000000010001000100011 x
b110001000000010001000100011 -"
b100 G
b100 c
b100 |
b100 ."
b1000 E
b1000 a
b1000 ""
b1000 /"
b1000000000100000000000000000000000000000000xxxxxxxxxxxxxxxxxxxxxxxxxxxxxxxx00000000000000000000000000000000000000010100010000000000000000000000000000001010000000000000000000000000000010000000000010100000000000100010011 g"
b10 %
1#
#40000
0#
#45000
b1100100 V
b1100100 M"
b1100100 W"
b1100100 -#
b10000000000000000000000000000000101xxxxxxxxxxxxxxxxxxxxxxxxxxxxxxxx000100000000000000000000000000000010000000000010100000000000100010011 N#
b1101000 @
b1101000 D"
b1101000 o"
b1101000 ~"
b1100100 S"
b1100100 T"
b100000000000000000000000001100100xxxxxxxxxxxxxxxxxxxxxxxxxxxxxxxx001000000000000000000000000000000100000000110001000000010001000100011 >#
b1100100 ;"
b1100100 U"
b1100100 m"
b100 6"
b100 h"
b1010000000100000000000000000000000000000000xxxxxxxxxxxxxxxxxxxxxxxxxxxxxxxx00000000000000000000000000001000000000010000011000000000000000000000000011001000000000000000000000000000000110000000110010000000010000110000011 d"
b1 4
b1 [
b1 q
b1 3"
18
b0 f
b0 p
b0 r
1T
0I
0m
b10100000000000100010011 L
b10100000000000100010011 9#
b10100000000000100010011 B#
b100 B
b100 7#
b100 C#
b10 ;
b10 ,#
b10 6#
b10 D#
bx *
bx 3#
bx =#
b101 U
b101 L"
b101 ["
b101 a"
b101 :#
b101 ;#
b101 A#
16
b110001000000010001000100011 N
b110001000000010001000100011 H"
b110001000000010001000100011 .#
b1000 D
b1000 E"
b1000 /#
b1101000 7"
b1101000 j"
b1100100 I"
b1100100 i"
b1100100 l"
b100 <
b100 A"
b100 %#
b100 0#
b10 -
b10 ="
b10 *#
b100 F"
1H
07
b11001000000001000011 s
b11 k
b11 =
b11 ]
b11 2"
b100 .
b100 X
b100 $"
b100 5"
b100 )#
b10000 q"
b10000 z"
b10000 !#
b1000011000001000110011 M
b1000011000001000110011 d
b1000011000001000110011 v
b1000011000001000110011 s"
b1000011000001000110011 t"
b100000000000000000000000000000000101xxxxxxxxxxxxxxxxxxxxxxxxxxxxxxxx000100000000000000000000000000000010000000000010100000000000100010011 @#
b1000000100000000000000000000000000000000xxxxxxxxxxxxxxxxxxxxxxxxxxxxxxxx00000000000000000000000000000100000000001000100000000000000000000000000011001000000000000000000000000000000100000000110001000000010001000100011 g"
b1100 E
b1100 a
b1100 ""
b1100 /"
b1000 G
b1000 c
b1000 |
b1000 ."
b110010000000010000110000011 O
b110010000000010000110000011 e
b110010000000010000110000011 x
b110010000000010000110000011 -"
b10000 C
b10000 `
b10000 ~
b10000 p"
b10000 w"
b10000 }"
b1100 !
b1100 F
b1100 b
b1100 z
b1100 r"
b1100 u"
b1100 x"
b1100 |"
b11 %
1#
#50000
0#
#55000
b1101100 @
b1101100 D"
b1101100 o"
b1101100 ~"
bx ?
bx _
bx '"
bx 0"
b101000000000000000000000000001100100xxxxxxxxxxxxxxxxxxxxxxxxxxxxxxxx000110000000000000000000000000000110000000110010000000010000110000011 >#
b1100100xxxxxxxxxxxxxxxxxxxxxxxxxxxxxxxx001000000000000000000000000000000100000000110001000000010001000100011 N#
b101 1
b101 Z
b101 %"
b101 ?"
b101 \"
b101 b"
b101 G#
b101 U#
bx R
bx g
bx t
bx *"
b10 o
bx f
bx p
bx r
b0 4
b0 [
b0 q
b0 3"
0T
18
1m
b10000000000xxxxxxxxxxxxxxxxxxxxxxxxxxxxxxxxxxxxxxxxxxxxxxxxxxxxxxxxxxxxxxxx00000000000000000000000000001100000110001000100xxxxxxxxxxxxxxxxxxxxxxxxxxxxxxxx0000000000000000000000000001000000000000001000011000001000110011 d"
b1101100 7"
b1101100 j"
b1000 6"
b1000 h"
1&#
b10100 q"
b10100 z"
b10100 !#
b1100010000000010010000100011 M
b1100010000000010010000100011 d
b1100010000000010010000100011 v
b1100010000000010010000100011 s"
b1100010000000010010000100011 t"
b100001100000100 s
b0 j
b0 i
b110011 k
b100 =
b100 ]
b100 2"
b10 .
b10 X
b10 $"
b10 5"
b10 )#
b11 0
b11 Y
b11 #"
b11 4"
b11 '#
b110010000000010000110000011 N
b110010000000010000110000011 H"
b110010000000010000110000011 .#
b1100 D
b1100 E"
b1100 /#
b11 <
b11 A"
b11 %#
b11 0#
b100 -
b100 ="
b100 *#
b1000 F"
0H
b1 3
b1 @"
b1 1#
17
b110001000000010001000100011 L
b110001000000010001000100011 9#
b110001000000010001000100011 B#
b1000 B
b1000 7#
b1000 C#
b100 ;
b100 ,#
b100 6#
b100 D#
b1100100 U
b1100100 L"
b1100100 ["
b1100100 a"
b1100100 :#
b1100100 ;#
b1100100 A#
1"
18#
06
b10100000000000100010011 K
b10100000000000100010011 L#
b100 K#
b100 S#
b10 :
b10 \
b10 ("
b10 +#
b10 J#
b101 M#
b101 Q#
15
b10100 C
b10100 `
b10100 ~
b10100 p"
b10100 w"
b10100 }"
b10000 !
b10000 F
b10000 b
b10000 z
b10000 r"
b10000 u"
b10000 x"
b10000 |"
b1000011000001000110011 O
b1000011000001000110011 e
b1000011000001000110011 x
b1000011000001000110011 -"
b1100 G
b1100 c
b1100 |
b1100 ."
b10000 E
b10000 a
b10000 ""
b10000 /"
b1010000000100000000000000000000000000000000xxxxxxxxxxxxxxxxxxxxxxxxxxxxxxxx00000000000000000000000000001000000000010000011000000000000000000000000011001000000000000000000000000000000110000000110010000000010000110000011 g"
b100000000000000000000000001100100xxxxxxxxxxxxxxxxxxxxxxxxxxxxxxxx001000000000000000000000000000000100000000110001000000010001000100011 @#
b10000000000000000000000000000000101xxxxxxxxxxxxxxxxxxxxxxxxxxxxxxxx000100000000000000000000000000000010000000000010100000000000100010011 P#
b100 %
1#
#60000
b10000000000xxxxxxxxxxxxxxxxxxxxxxxxxxxxxxxx0000000000000000000000000000010100000000000000000000000000001100000110001000100xxxxxxxxxxxxxxxxxxxxxxxxxxxxxxxx0000000000000000000000000001000000000000001000011000001000110011 d"
b101 >
b101 ^
b101 &"
b101 1"
0#
#65000
xR"
xO"
x+
x9"
bx V
bx M"
bx W"
bx -#
b1100100 1
b1100100 Z
b1100100 %"
b1100100 ?"
b1100100 \"
b1100100 b"
b1100100 G#
b1100100 U#
b10100000000000000000000000001100100xxxxxxxxxxxxxxxxxxxxxxxxxxxxxxxx000110000000000000000000000000000110000000110010000000010000110000011 N#
bx0 @
bx0 D"
bx0 o"
bx0 ~"
b101 ,
b101 :"
b101 `"
b101 k"
b101 2#
bx <"
bx V"
bx Z"
bx S"
b101 T"
b1000xxxxxxxxxxxxxxxxxxxxxxxxxxxxxxxx00000000000000000000000000000101001000000000000000000000000000001000000000000001000011000001000110011 >#
bx >
bx ^
bx &"
bx 1"
b0 ?
b0 _
b0 '"
b0 0"
b1100 6"
b1100 h"
b101 ;"
b101 U"
b101 m"
0&#
b1000000100000000000000000000000000000000xxxxxxxxxxxxxxxxxxxxxxxxxxxxxxxx00000000000000000000000000010000000000010001000000000000000000000000000110010000000000000000000000000000001010000001100010000000010010000100011 d"
b11001000 R
b11001000 g
b11001000 t
b11001000 *"
1T
1I
b0 o
b1 f
b1 p
b1 r
08
b110001000000010001000100011 K
b110001000000010001000100011 L#
b1000 K#
b1000 S#
b100 :
b100 \
b100 ("
b100 +#
b100 J#
b1100100 M#
b1100100 Q#
05
b110010000000010000110000011 L
b110010000000010000110000011 9#
b110010000000010000110000011 B#
b1100 B
b1100 7#
b1100 C#
b11 ;
b11 ,#
b11 6#
b11 D#
0"
08#
b1 2
b1 4#
b1 F#
16
b1000011000001000110011 N
b1000011000001000110011 H"
b1000011000001000110011 .#
b10000 D
b10000 E"
b10000 /#
bx 7"
bx j"
bx I"
bx i"
bx l"
b100 <
b100 A"
b100 %#
b100 0#
b10 -
b10 ="
b10 *#
b11 /
b11 >"
b11 (#
b1100 F"
b101 B"
b101 ^"
bx C"
bx X"
0K"
b0 3
b0 @"
b0 1#
b110001000000001001000 s
b110 j
b10 i
b100011 k
b1000 =
b1000 ]
b1000 2"
b100 .
b100 X
b100 $"
b100 5"
b100 )#
b0 0
b0 Y
b0 #"
b0 4"
b0 '#
b11000 q"
b11000 z"
b11000 !#
bx M
bx d
bx v
bx s"
bx t"
b1100100xxxxxxxxxxxxxxxxxxxxxxxxxxxxxxxx001000000000000000000000000000000100000000110001000000010001000100011 P#
b101000000000000000000000000001100100xxxxxxxxxxxxxxxxxxxxxxxxxxxxxxxx000110000000000000000000000000000110000000110010000000010000110000011 @#
b10000000000xxxxxxxxxxxxxxxxxxxxxxxxxxxxxxxx0000000000000000000000000000010100000000000000000000000000001100000110001000100xxxxxxxxxxxxxxxxxxxxxxxxxxxxxxxx0000000000000000000000000001000000000000001000011000001000110011 g"
b10100 E
b10100 a
b10100 ""
b10100 /"
b10000 G
b10000 c
b10000 |
b10000 ."
b1100010000000010010000100011 O
b1100010000000010010000100011 e
b1100010000000010010000100011 x
b1100010000000010010000100011 -"
b11000 C
b11000 `
b11000 ~
b11000 p"
b11000 w"
b11000 }"
b10100 !
b10100 F
b10100 b
b10100 z
b10100 r"
b10100 u"
b10100 x"
b10100 |"
b101 %
1#
#70000
0#
