Waves/waves_isa.vcd
$date
	Wed Jun 17 18:53:36 2026
$end
$version
	Icarus Verilog
$end
$timescale
	1ps
$end
$scope module tb $end
$var wire 32 ! pcF [31:0] $end
$var wire 1 " memWriteM $end
$var reg 1 # clk $end
$var reg 1 $ reset $end
$var integer 32 % cycle [31:0] $end
$scope module dut $end
$var wire 1 " MemWriteM $end
$var wire 32 & WriteDataM [31:0] $end
$var wire 1 ' ZeroE $end
$var wire 1 # clk $end
$var wire 1 $ reset $end
$var wire 32 ( WriteDataE [31:0] $end
$var wire 1 ) StallF $end
$var wire 1 * StallD $end
$var wire 5 + Rs2E [4:0] $end
$var wire 5 , Rs2D [4:0] $end
$var wire 5 - Rs1E [4:0] $end
$var wire 5 . Rs1D [4:0] $end
$var wire 32 / ResultW [31:0] $end
$var wire 2 0 ResultSrcM [1:0] $end
$var wire 2 1 ResultSrcE [1:0] $end
$var wire 2 2 ResultSrcD [1:0] $end
$var wire 1 3 RegWriteW $end
$var wire 1 4 RegWriteM_internal $end
$var wire 1 5 RegWriteE $end
$var wire 1 6 RegWriteD $end
$var wire 32 7 ReadDataM [31:0] $end
$var wire 5 8 RdW [4:0] $end
$var wire 5 9 RdM [4:0] $end
$var wire 5 : RdE [4:0] $end
$var wire 5 ; RdD [4:0] $end
$var wire 32 < RD2D [31:0] $end
$var wire 32 = RD1D [31:0] $end
$var wire 32 > PCTargetE [31:0] $end
$var wire 1 ? PCSrcE $end
$var wire 32 @ PCPlus4M [31:0] $end
$var wire 32 A PCPlus4F [31:0] $end
$var wire 32 B PCPlus4E [31:0] $end
$var wire 32 C PCPlus4D [31:0] $end
$var wire 32 D PCF [31:0] $end
$var wire 32 E PCD [31:0] $end
$var wire 1 F MemWriteE $end
$var wire 1 G MemWriteD $end
$var wire 1 H JumpD $end
$var wire 32 I InstrW [31:0] $end
$var wire 32 J InstrM [31:0] $end
$var wire 32 K InstrF [31:0] $end
$var wire 32 L InstrE [31:0] $end
$var wire 32 M InstrD [31:0] $end
$var wire 2 N ForwardBE [1:0] $end
$var wire 2 O ForwardAE [1:0] $end
$var wire 1 P FlushE $end
$var wire 1 Q FlushD $end
$var wire 32 R ExtImmD [31:0] $end
$var wire 1 S BranchD $end
$var wire 1 T ALUSrcD $end
$var wire 32 U ALUResultM [31:0] $end
$var wire 32 V ALUResultE [31:0] $end
$var wire 4 W ALUControlD [3:0] $end
$scope module decodeStage $end
$var wire 1 # clk $end
$var wire 1 $ reset $end
$var wire 1 * StallD $end
$var wire 5 X Rs2D [4:0] $end
$var wire 5 Y Rs1D [4:0] $end
$var wire 32 Z ResultW [31:0] $end
$var wire 2 [ ResultSrcD [1:0] $end
$var wire 1 3 RegWriteW $end
$var wire 1 6 RegWriteD $end
$var wire 5 \ RdW [4:0] $end
$var wire 5 ] RdD [4:0] $end
$var wire 32 ^ RD2D [31:0] $end
$var wire 32 _ RD1D [31:0] $end
$var wire 32 ` PCPlus4F [31:0] $end
$var wire 32 a PCPlus4D [31:0] $end
$var wire 32 b PCF [31:0] $end
$var wire 32 c PCD [31:0] $end
$var wire 1 G MemWriteD $end
$var wire 1 H JumpD $end
$var wire 32 d InstrF [31:0] $end
$var wire 32 e InstrD [31:0] $end
$var wire 2 f ImmSrcD [1:0] $end
$var wire 1 Q FlushD $end
$var wire 32 g ExtImmD [31:0] $end
$var wire 1 S BranchD $end
$var wire 1 T ALUSrcD $end
$var wire 4 h ALUControlD [3:0] $end
$scope module ctrl $end
$var wire 3 i funct3 [2:0] $end
$var wire 7 j funct7 [6:0] $end
$var wire 7 k op [6:0] $end
$var wire 1 l use_alt_op $end
$var wire 1 m op5 $end
$var reg 4 n ALUControl [3:0] $end
$var reg 2 o ALUOp [1:0] $end
$var reg 1 T ALUSrc $end
$var reg 1 S Branch $end
$var reg 2 p ImmSrc [1:0] $end
$var reg 1 H Jump $end
$var reg 1 G MemWrite $end
$var reg 1 6 RegWrite $end
$var reg 2 q ResultSrc [1:0] $end
$upscope $end
$scope module ext $end
$var wire 2 r immsrc [1:0] $end
$var wire 25 s instr [31:7] $end
$var reg 32 t immext [31:0] $end
$upscope $end
$scope module ifIdInstr $end
$var wire 1 # clk $end
$var wire 1 u en $end
$var wire 1 $ reset $end
$var wire 32 v d [31:0] $end
$var wire 1 Q clear $end
$var parameter 32 w WIDTH $end
$var reg 32 x q [31:0] $end
$upscope $end
$scope module ifIdPc $end
$var wire 1 # clk $end
$var wire 1 y en $end
$var wire 1 $ reset $end
$var wire 32 z d [31:0] $end
$var wire 1 Q clear $end
$var parameter 32 { WIDTH $end
$var reg 32 | q [31:0] $end
$upscope $end
$scope module ifIdPcPlus4 $end
$var wire 1 # clk $end
$var wire 1 } en $end
$var wire 1 $ reset $end
$var wire 32 ~ d [31:0] $end
$var wire 1 Q clear $end
$var parameter 32 !" WIDTH $end
$var reg 32 "" q [31:0] $end
$upscope $end
$scope module rf $end
$var wire 5 #" a1 [4:0] $end
$var wire 5 $" a2 [4:0] $end
$var wire 1 # clk $end
$var wire 1 3 we3 $end
$var wire 32 %" wd3 [31:0] $end
$var wire 32 &" rd2 [31:0] $end
$var wire 32 '" rd1 [31:0] $end
$var wire 5 (" a3 [4:0] $end
$upscope $end
$upscope $end
$scope module executeStage $end
$var wire 4 )" ALUControlD [3:0] $end
$var wire 1 T ALUSrcD $end
$var wire 1 S BranchD $end
$var wire 32 *" ExtImmD [31:0] $end
$var wire 32 +" InstrD [31:0] $end
$var wire 1 H JumpD $end
$var wire 1 G MemWriteD $end
$var wire 32 ," PCD [31:0] $end
$var wire 32 -" PCPlus4D [31:0] $end
$var wire 1 ? PCSrcE $end
$var wire 32 ." RD1D [31:0] $end
$var wire 32 /" RD2D [31:0] $end
$var wire 5 0" RdD [4:0] $end
$var wire 1 6 RegWriteD $end
$var wire 2 1" ResultSrcD [1:0] $end
$var wire 5 2" Rs1D [4:0] $end
$var wire 5 3" Rs2D [4:0] $end
$var wire 1 # clk $end
$var wire 1 $ reset $end
$var wire 1 4" ZeroE $end
$var wire 32 5" WriteDataE [31:0] $end
$var wire 32 6" SrcBE [31:0] $end
$var wire 32 7" SrcAE [31:0] $end
$var wire 5 8" Rs2E [4:0] $end
$var wire 5 9" Rs1E [4:0] $end
$var wire 32 :" ResultW [31:0] $end
$var wire 2 ;" ResultSrcE [1:0] $end
$var wire 1 5 RegWriteE $end
$var wire 5 <" RdE [4:0] $end
$var wire 32 =" RD2E [31:0] $end
$var wire 32 >" RD1E [31:0] $end
$var wire 32 ?" PCTargetE [31:0] $end
$var wire 32 @" PCPlus4E [31:0] $end
$var wire 32 A" PCE [31:0] $end
$var wire 1 F MemWriteE $end
$var wire 1 B" JumpE $end
$var wire 32 C" InstrE [31:0] $end
$var wire 2 D" ForwardBE [1:0] $end
$var wire 2 E" ForwardAE [1:0] $end
$var wire 1 P FlushE $end
$var wire 32 F" ExtImmE [31:0] $end
$var wire 1 G" BranchE $end
$var wire 1 H" ALUSrcE $end
$var wire 32 I" ALUResultM [31:0] $end
$var wire 32 J" ALUResultE [31:0] $end
$var wire 4 K" ALUControlE [3:0] $end
$scope module aluUnit $end
$var wire 4 L" alucontrol [3:0] $end
$var wire 1 M" isAddSub $end
$var wire 1 N" v $end
$var wire 1 4" zero $end
$var wire 32 O" sum [31:0] $end
$var wire 32 P" condinvb [31:0] $end
$var wire 32 Q" b [31:0] $end
$var wire 32 R" a [31:0] $end
$var reg 32 S" result [31:0] $end
$upscope $end
$scope module forwardAmux $end
$var wire 32 T" d0 [31:0] $end
$var wire 32 U" y [31:0] $end
$var wire 2 V" s [1:0] $end
$var wire 32 W" d2 [31:0] $end
$var wire 32 X" d1 [31:0] $end
$var parameter 32 Y" WIDTH $end
$upscope $end
$scope module forwardBmux $end
$var wire 32 Z" d0 [31:0] $end
$var wire 32 [" y [31:0] $end
$var wire 2 \" s [1:0] $end
$var wire 32 ]" d2 [31:0] $end
$var wire 32 ^" d1 [31:0] $end
$var parameter 32 _" WIDTH $end
$upscope $end
$scope module idexReg $end
$var wire 1 # clk $end
$var wire 218 `" d [217:0] $end
$var wire 1 a" en $end
$var wire 1 $ reset $end
$var wire 1 P clear $end
$var parameter 32 b" WIDTH $end
$var reg 218 c" q [217:0] $end
$upscope $end
$scope module pcTargetAdd $end
$var wire 32 d" a [31:0] $end
$var wire 32 e" b [31:0] $end
$var wire 32 f" y [31:0] $end
$upscope $end
$scope module srcBmux $end
$var wire 32 g" d0 [31:0] $end
$var wire 32 h" d1 [31:0] $end
$var wire 1 H" s $end
$var wire 32 i" y [31:0] $end
$var parameter 32 j" WIDTH $end
$upscope $end
$upscope $end
$scope module fetchStage $end
$var wire 1 ? PCSrcE $end
$var wire 32 k" PCTargetE [31:0] $end
$var wire 1 # clk $end
$var wire 1 $ reset $end
$var wire 1 ) StallF $end
$var wire 32 l" PCPlus4F [31:0] $end
$var wire 32 m" PCF_next [31:0] $end
$var wire 32 n" PCF [31:0] $end
$var wire 32 o" InstrF [31:0] $end
$scope module imemory $end
$var wire 32 p" rd [31:0] $end
$var wire 32 q" a [31:0] $end
$upscope $end
$scope module pcAdd4 $end
$var wire 32 r" b [31:0] $end
$var wire 32 s" y [31:0] $end
$var wire 32 t" a [31:0] $end
$upscope $end
$scope module pcReg $end
$var wire 1 # clk $end
$var wire 1 u" en $end
$var wire 1 $ reset $end
$var wire 32 v" d [31:0] $end
$var parameter 32 w" WIDTH $end
$var reg 32 x" q [31:0] $end
$upscope $end
$scope module pcmux $end
$var wire 32 y" d0 [31:0] $end
$var wire 32 z" d1 [31:0] $end
$var wire 1 ? s $end
$var wire 32 {" y [31:0] $end
$var parameter 32 |" WIDTH $end
$upscope $end
$upscope $end
$scope module hazardUnit $end
$var wire 1 Q FlushD $end
$var wire 1 P FlushE $end
$var wire 1 ? PCSrcE $end
$var wire 5 }" RdE [4:0] $end
$var wire 1 ~" ResultSrcE0 $end
$var wire 5 !# Rs1D [4:0] $end
$var wire 5 "# Rs1E [4:0] $end
$var wire 5 ## Rs2D [4:0] $end
$var wire 5 $# Rs2E [4:0] $end
$var wire 1 * StallD $end
$var wire 1 ) StallF $end
$var wire 1 %# lwStall $end
$var wire 1 3 RegWriteW $end
$var wire 1 4 RegWriteM $end
$var wire 5 &# RdW [4:0] $end
$var wire 5 '# RdM [4:0] $end
$var reg 2 (# ForwardAE [1:0] $end
$var reg 2 )# ForwardBE [1:0] $end
$upscope $end
$scope module memStage $end
$var wire 32 *# ALUResultE [31:0] $end
$var wire 32 +# InstrE [31:0] $end
$var wire 1 F MemWriteE $end
$var wire 32 ,# PCPlus4E [31:0] $end
$var wire 5 -# RdE [4:0] $end
$var wire 1 5 RegWriteE $end
$var wire 2 .# ResultSrcE [1:0] $end
$var wire 32 /# WriteDataE [31:0] $end
$var wire 1 # clk $end
$var wire 1 $ reset $end
$var wire 32 0# WriteDataM [31:0] $end
$var wire 2 1# ResultSrcM [1:0] $end
$var wire 1 4 RegWriteM $end
$var wire 32 2# ReadDataM [31:0] $end
$var wire 5 3# RdM [4:0] $end
$var wire 32 4# PCPlus4M [31:0] $end
$var wire 1 5# MemWriteM $end
$var wire 32 6# InstrM [31:0] $end
$var wire 32 7# ALUResultM [31:0] $end
$scope module dataMemory $end
$var wire 32 8# a [31:0] $end
$var wire 1 # clk $end
$var wire 32 9# rd [31:0] $end
$var wire 32 :# wd [31:0] $end
$var wire 1 5# we $end
$upscope $end
$scope module exmemReg $end
$var wire 1 # clk $end
$var wire 137 ;# d [136:0] $end
$var wire 1 $ reset $end
$var parameter 32 <# WIDTH $end
$var reg 137 =# q [136:0] $end
$upscope $end
$upscope $end
$scope module wbStage $end
$var wire 32 ># ALUResultM [31:0] $end
$var wire 32 ?# InstrM [31:0] $end
$var wire 32 @# PCPlus4M [31:0] $end
$var wire 5 A# RdM [4:0] $end
$var wire 32 B# ReadDataM [31:0] $end
$var wire 1 4 RegWriteM $end
$var wire 2 C# ResultSrcM [1:0] $end
$var wire 1 # clk $end
$var wire 1 $ reset $end
$var wire 32 D# ResultW [31:0] $end
$var wire 2 E# ResultSrcW [1:0] $end
$var wire 1 3 RegWriteW $end
$var wire 32 F# ReadDataW [31:0] $end
$var wire 5 G# RdW [4:0] $end
$var wire 32 H# PCPlus4W [31:0] $end
$var wire 32 I# InstrW [31:0] $end
$var wire 32 J# ALUResultW [31:0] $end
$scope module memwbReg $end
$var wire 1 # clk $end
$var wire 136 K# d [135:0] $end
$var wire 1 $ reset $end
$var parameter 32 L# WIDTH $end
$var reg 136 M# q [135:0] $end
$upscope $end
$scope module resultMux $end
$var wire 32 N# d0 [31:0] $end
$var wire 32 O# d1 [31:0] $end
$var wire 32 P# d2 [31:0] $end
$var wire 2 Q# s [1:0] $end
$var wire 32 R# y [31:0] $end
$var parameter 32 S# WIDTH $end
$upscope $end
$upscope $end
$upscope $end
$upscope $end
$enddefinitions $end
$comment Show the parameter values. $end
$dumpall
b100000 S#
b10001000 L#
b10001001 <#
b100000 |"
b100000 w"
b100000 j"
b11011010 b"
b100000 _"
b100000 Y"
b100000 !"
b100000 {
b100000 w
$end
#0
$dumpvars
b0 R#
b0 Q#
b0 P#
b0 O#
b0 N#
b0 M#
b0xxxxxxxxxxxxxxxxxxxxxxxxxxxxxxxx000000000000000000000000000000000000000000000000000000000000000000000 K#
b0 J#
b0 I#
b0 H#
b0 G#
b0 F#
b0 E#
b0 D#
b0 C#
bx B#
b0 A#
b0 @#
b0 ?#
b0 >#
b0 =#
b0 ;#
b0 :#
bx 9#
b0 8#
b0 7#
b0 6#
05#
b0 4#
b0 3#
bx 2#
b0 1#
b0 0#
b0 /#
b0 .#
b0 -#
b0 ,#
b0 +#
b0 *#
b0 )#
b0 (#
b0 '#
b0 &#
0%#
b0 $#
b0 ##
b0 "#
b0 !#
0~"
b0 }"
b100 {"
b0 z"
b100 y"
b0 x"
b100 v"
1u"
b0 t"
b100 s"
b100 r"
b0 q"
b10100000000000100010011 p"
b10100000000000100010011 o"
b0 n"
b100 m"
b100 l"
b0 k"
b0 i"
b0 h"
b0 g"
b0 f"
b0 e"
b0 d"
b0 c"
1a"
b0 `"
b0 ^"
b0 ]"
b0 \"
b0 ["
b0 Z"
b0 X"
b0 W"
b0 V"
b0 U"
b0 T"
b0 S"
b0 R"
b0 Q"
b0 P"
b0 O"
0N"
1M"
b0 L"
b0 K"
b0 J"
b0 I"
0H"
0G"
b0 F"
b0 E"
b0 D"
b0 C"
0B"
b0 A"
b0 @"
b0 ?"
b0 >"
b0 ="
b0 <"
b0 ;"
b0 :"
b0 9"
b0 8"
b0 7"
b0 6"
b0 5"
14"
b0 3"
b0 2"
b0 1"
b0 0"
b0 /"
b0 ."
b0 -"
b0 ,"
b0 +"
b0 *"
b0 )"
b0 ("
b0 '"
b0 &"
b0 %"
b0 $"
b0 #"
b0 ""
b100 ~
1}
b0 |
b0 z
1y
b0 x
b10100000000000100010011 v
1u
b0 t
b0 s
b0 r
b0 q
b0 p
b0 o
b0 n
0m
0l
b0 k
b0 j
b0 i
b0 h
b0 g
b0 f
b0 e
b10100000000000100010011 d
b0 c
b0 b
b0 a
b100 `
b0 _
b0 ^
b0 ]
b0 \
b0 [
b0 Z
b0 Y
b0 X
b0 W
b0 V
b0 U
0T
0S
b0 R
0Q
0P
b0 O
b0 N
b0 M
b0 L
b10100000000000100010011 K
b0 J
b0 I
0H
0G
0F
b0 E
b0 D
b0 C
b0 B
b100 A
b0 @
0?
b0 >
b0 =
b0 <
b0 ;
b0 :
b0 9
b0 8
bx 7
06
05
04
03
b0 2
b0 1
b0 0
b0 /
b0 .
b0 -
b0 ,
b0 +
0*
0)
b0 (
1'
b0 &
b0 %
1$
0#
0"
b0 !
$end
#5000
1#
#10000
0#
#15000
1#
#20000
0#
#22000
0$
#25000
bx <
bx ^
bx &"
bx /"
b1000000000100000000000000000000000000000000xxxxxxxxxxxxxxxxxxxxxxxxxxxxxxxx00000000000000000000000000000000000000010100010000000000000000000000000000001010000000000000000000000000000010000000000010100000000000100010011 `"
b101 R
b101 g
b101 t
b101 *"
b10 o
1T
16
bx F#
bx O#
b1010000000000010 s
b10011 k
b10 ;
b10 ]
b10 0"
b101 ,
b101 X
b101 $"
b101 3"
b101 ##
b1000 m"
b1000 v"
b1000 {"
b10011 K
b10011 d
b10011 v
b10011 o"
b10011 p"
b0xxxxxxxxxxxxxxxxxxxxxxxxxxxxxxxx000000000000000000000000000000000000000000000000000000000000000000000 M#
b100 C
b100 a
b100 ""
b100 -"
b10100000000000100010011 M
b10100000000000100010011 e
b10100000000000100010011 x
b10100000000000100010011 +"
b1000 A
b1000 `
b1000 ~
b1000 l"
b1000 s"
b1000 y"
b100 !
b100 D
b100 b
b100 z
b100 n"
b100 q"
b100 t"
b100 x"
b1 %
1#
#30000
0#
#35000
0'
04"
b101 V
b101 J"
b101 S"
b101 *#
b0 <
b0 ^
b0 &"
b0 /"
bx (
bx 5"
bx ["
bx g"
bx /#
b101 O"
b101 P"
b100000000000000000000000000000000101xxxxxxxxxxxxxxxxxxxxxxxxxxxxxxxx000100000000000000000000000000000010000000000010100000000000100010011 ;#
b0 R
b0 g
b0 t
b0 *"
b10000000001000000000000000000000000000000000000000000000000000000000000000000000000000000000000000000000100000000000000000000000000000000000000000000000000000000000000000000000000000100000000000000000000000000000010011 `"
b101 6"
b101 Q"
b101 i"
b1100 m"
b1100 v"
b1100 {"
b0 s
b0 ;
b0 ]
b0 0"
b0 ,
b0 X
b0 $"
b0 3"
b0 ##
b10100000000000100010011 L
b10100000000000100010011 C"
b10100000000000100010011 +#
b100 B
b100 @"
b100 ,#
b101 >
b101 ?"
b101 f"
b101 k"
b101 z"
b101 F"
b101 e"
b101 h"
b10 :
b10 <"
b10 }"
b10 -#
b101 +
b101 8"
b101 $#
bx ="
bx Z"
1H"
15
b1100 A
b1100 `
b1100 ~
b1100 l"
b1100 s"
b1100 y"
b1000 !
b1000 D
b1000 b
b1000 z
b1000 n"
b1000 q"
b1000 t"
b1000 x"
b10011 M
b10011 e
b10011 x
b10011 +"
b100 E
b100 c
b100 |
b100 ,"
b1000 C
b1000 a
b1000 ""
b1000 -"
b1000000000100000000000000000000000000000000xxxxxxxxxxxxxxxxxxxxxxxxxxxxxxxx00000000000000000000000000000000000000010100010000000000000000000000000000001010000000000000000000000000000010000000000010100000000000100010011 c"
b10 %
1#
#40000
0#
#45000
1'
14"
b0 V
b0 J"
b0 S"
b0 *#
b10000000000000000000000000000000101xxxxxxxxxxxxxxxxxxxxxxxxxxxxxxxx000100000000000000000000000000000010000000000010100000000000100010011 K#
b0 O"
b0 P"
b10000000000000000000000000000000000000000000000000000000000000000000000000000000000000000000000000000100000000000000000000000000000010011 ;#
b0 (
b0 5"
b0 ["
b0 g"
b0 /#
b0 6"
b0 Q"
b0 i"
b10000000001000000000000000000000000000000000000000000000000000000000000000000000000000000000000000000001000000000000000000000000000000000000000000000000000000000000000000000000000000110000000000000000000000000000010011 `"
b10100000000000100010011 J
b10100000000000100010011 6#
b10100000000000100010011 ?#
b100 @
b100 4#
b100 @#
b10 9
b10 '#
b10 3#
b10 A#
bx &
bx 0#
bx :#
b101 U
b101 I"
b101 W"
b101 ]"
b101 7#
b101 8#
b101 >#
14
b10011 L
b10011 C"
b10011 +#
b1000 B
b1000 @"
b1000 ,#
b0 F"
b0 e"
b0 h"
b0 :
b0 <"
b0 }"
b0 -#
b0 +
b0 8"
b0 $#
b100 >
b100 ?"
b100 f"
b100 k"
b100 z"
b100 A"
b100 d"
b0 ="
b0 Z"
b10000 m"
b10000 v"
b10000 {"
b100000000000000000000000000000000101xxxxxxxxxxxxxxxxxxxxxxxxxxxxxxxx000100000000000000000000000000000010000000000010100000000000100010011 =#
b10000000001000000000000000000000000000000000000000000000000000000000000000000000000000000000000000000000100000000000000000000000000000000000000000000000000000000000000000000000000000100000000000000000000000000000010011 c"
b1100 C
b1100 a
b1100 ""
b1100 -"
b1000 E
b1000 c
b1000 |
b1000 ,"
b10000 A
b10000 `
b10000 ~
b10000 l"
b10000 s"
b10000 y"
b1100 !
b1100 D
b1100 b
b1100 z
b1100 n"
b1100 q"
b1100 t"
b1100 x"
b11 %
1#
#50000
0#
#55000
b10000000000000000000000000000000000000000000000000000000000000000000000000000000000000000000000000000110000000000000000000000000000010011 ;#
b10000000000000000000000000000000000xxxxxxxxxxxxxxxxxxxxxxxxxxxxxxxx000000000000000000000000000000000100000000000000000000000000000010011 K#
b101 /
b101 Z
b101 %"
b101 :"
b101 X"
b101 ^"
b101 D#
b101 R#
b10000000001000000000000000000000000000000000000000000000000000000000000000000000000000000000000000000001100000000000000000000000000000000000000000000000000000000000000000000000000001000000000000000000000000000000010011 `"
b10100 m"
b10100 v"
b10100 {"
b1000010000000110110011 K
b1000010000000110110011 d
b1000010000000110110011 v
b1000010000000110110011 o"
b1000010000000110110011 p"
b1100 B
b1100 @"
b1100 ,#
b1000 >
b1000 ?"
b1000 f"
b1000 k"
b1000 z"
b1000 A"
b1000 d"
b10011 J
b10011 6#
b10011 ?#
b1000 @
b1000 4#
b1000 @#
b0 9
b0 '#
b0 3#
b0 A#
b0 &
b0 0#
b0 :#
b0 U
b0 I"
b0 W"
b0 ]"
b0 7#
b0 8#
b0 >#
b10100000000000100010011 I
b10100000000000100010011 I#
b100 H#
b100 P#
b10 8
b10 \
b10 ("
b10 &#
b10 G#
b101 J#
b101 N#
13
b10100 A
b10100 `
b10100 ~
b10100 l"
b10100 s"
b10100 y"
b10000 !
b10000 D
b10000 b
b10000 z
b10000 n"
b10000 q"
b10000 t"
b10000 x"
b1100 E
b1100 c
b1100 |
b1100 ,"
b10000 C
b10000 a
b10000 ""
b10000 -"
b10000000001000000000000000000000000000000000000000000000000000000000000000000000000000000000000000000001000000000000000000000000000000000000000000000000000000000000000000000000000000110000000000000000000000000000010011 c"
b10000000000000000000000000000000000000000000000000000000000000000000000000000000000000000000000000000100000000000000000000000000000010011 =#
b10000000000000000000000000000000101xxxxxxxxxxxxxxxxxxxxxxxxxxxxxxxx000100000000000000000000000000000010000000000010100000000000100010011 M#
b100 %
1#
#60000
0#
#65000
b0 /
b0 Z
b0 %"
b0 :"
b0 X"
b0 ^"
b0 D#
b0 R#
b10000000000000000000000000000000000xxxxxxxxxxxxxxxxxxxxxxxxxxxxxxxx000000000000000000000000000000000110000000000000000000000000000010011 K#
b10000000000000000000000000000000000000000000000000000000000000000000000000000000000000000000000000001000000000000000000000000000000010011 ;#
b101 <
b101 ^
b101 &"
b101 /"
b101 =
b101 _
b101 '"
b101 ."
b10000000000000000000000000000000000000001010000000000000000000000000000010100000000000000000000000000010000000100001000011xxxxxxxxxxxxxxxxxxxxxxxxxxxxxxxx0000000000000000000000000001010000000000001000010000000110110011 `"
bx R
bx g
bx t
bx *"
bx f
bx p
bx r
b10 o
0T
16
1m
b10011 I
b10011 I#
b1000 H#
b1000 P#
b0 8
b0 \
b0 ("
b0 &#
b0 G#
b0 J#
b0 N#
b1100 @
b1100 4#
b1100 @#
b10000 B
b10000 @"
b10000 ,#
b1100 >
b1100 ?"
b1100 f"
b1100 k"
b1100 z"
b1100 A"
b1100 d"
b100001000000011 s
b110011 k
b11 ;
b11 ]
b11 0"
b10 ,
b10 X
b10 $"
b10 3"
b10 ##
b10 .
b10 Y
b10 #"
b10 2"
b10 !#
b11000 m"
b11000 v"
b11000 {"
b10011 K
b10011 d
b10011 v
b10011 o"
b10011 p"
b10000000000000000000000000000000000xxxxxxxxxxxxxxxxxxxxxxxxxxxxxxxx000000000000000000000000000000000100000000000000000000000000000010011 M#
b10000000000000000000000000000000000000000000000000000000000000000000000000000000000000000000000000000110000000000000000000000000000010011 =#
b10000000001000000000000000000000000000000000000000000000000000000000000000000000000000000000000000000001100000000000000000000000000000000000000000000000000000000000000000000000000001000000000000000000000000000000010011 c"
b10100 C
b10100 a
b10100 ""
b10100 -"
b10000 E
b10000 c
b10000 |
b10000 ,"
b1000010000000110110011 M
b1000010000000110110011 e
b1000010000000110110011 x
b1000010000000110110011 +"
b11000 A
b11000 `
b11000 ~
b11000 l"
b11000 s"
b11000 y"
b10100 !
b10100 D
b10100 b
b10100 z
b10100 n"
b10100 q"
b10100 t"
b10100 x"
b101 %
1#
#70000
0#
#75000
b101 P"
b101 6"
b101 Q"
b101 i"
0'
04"
b1010 V
b1010 J"
b1010 S"
b1010 *#
b0 <
b0 ^
b0 &"
b0 /"
b0 =
b0 _
b0 '"
b0 ."
b10000000000000000000000000000000101000000000000000000000000000000101000110000000000000000000000000001010000000000001000010000000110110011 ;#
b101 (
b101 5"
b101 ["
b101 g"
b101 /#
b1010 O"
b101 7"
b101 R"
b101 U"
b10000000000000000000000000000000000xxxxxxxxxxxxxxxxxxxxxxxxxxxxxxxx000000000000000000000000000000001000000000000000000000000000000010011 K#
b0 R
b0 g
b0 t
b0 *"
1T
b10 o
b0 f
b0 p
b0 r
16
0m
b10000000001000000000000000000000000000000000000000000000000000000000000000000000000000000000000000000010100000000000000000000000000000000000000000000000000000000000000000000000000001100000000000000000000000000000010011 `"
b11100 m"
b11100 v"
b11100 {"
b0 s
b10011 k
b0 ;
b0 ]
b0 0"
b0 ,
b0 X
b0 $"
b0 3"
b0 ##
b0 .
b0 Y
b0 #"
b0 2"
b0 !#
b1000010000000110110011 L
b1000010000000110110011 C"
b1000010000000110110011 +#
b10100 B
b10100 @"
b10100 ,#
bx F"
bx e"
bx h"
b11 :
b11 <"
b11 }"
b11 -#
b10 +
b10 8"
b10 $#
b10 -
b10 9"
b10 "#
bx >
bx ?"
bx f"
bx k"
bx z"
b10000 A"
b10000 d"
b101 ="
b101 Z"
b101 >"
b101 T"
0H"
b10000 @
b10000 4#
b10000 @#
b1100 H#
b1100 P#
b11100 A
b11100 `
b11100 ~
b11100 l"
b11100 s"
b11100 y"
b11000 !
b11000 D
b11000 b
b11000 z
b11000 n"
b11000 q"
b11000 t"
b11000 x"
b10011 M
b10011 e
b10011 x
b10011 +"
b10100 E
b10100 c
b10100 |
b10100 ,"
b11000 C
b11000 a
b11000 ""
b11000 -"
b10000000000000000000000000000000000000001010000000000000000000000000000010100000000000000000000000000010000000100001000011xxxxxxxxxxxxxxxxxxxxxxxxxxxxxxxx0000000000000000000000000001010000000000001000010000000110110011 c"
b10000000000000000000000000000000000000000000000000000000000000000000000000000000000000000000000000001000000000000000000000000000000010011 =#
b10000000000000000000000000000000000xxxxxxxxxxxxxxxxxxxxxxxxxxxxxxxx000000000000000000000000000000000110000000000000000000000000000010011 M#
b110 %
1#
#80000
0#
#85000
1'
14"
b0 V
b0 J"
b0 S"
b0 *#
b10000000000000000000000000000001010xxxxxxxxxxxxxxxxxxxxxxxxxxxxxxxx000110000000000000000000000000001010000000000001000010000000110110011 K#
b10000000000000000000000000000000000000000000000000000000000000000000000000000000000000000000000000001100000000000000000000000000000010011 ;#
b0 (
b0 5"
b0 ["
b0 g"
b0 /#
b0 7"
b0 R"
b0 U"
b0 O"
b0 P"
b0 6"
b0 Q"
b0 i"
b10000000001000000000000000000000000000000000000000000000000000000000000000000000000000000000000000000011000000000000000000000000000000000000000000000000000000000000000000000000000001110000000000000000000000000000010011 `"
b10000 H#
b10000 P#
b1000010000000110110011 J
b1000010000000110110011 6#
b1000010000000110110011 ?#
b10100 @
b10100 4#
b10100 @#
b11 9
b11 '#
b11 3#
b11 A#
b101 &
b101 0#
b101 :#
b1010 U
b1010 I"
b1010 W"
b1010 ]"
b1010 7#
b1010 8#
b1010 >#
b10011 L
b10011 C"
b10011 +#
b11000 B
b11000 @"
b11000 ,#
b10100 >
b10100 ?"
b10100 f"
b10100 k"
b10100 z"
b0 F"
b0 e"
b0 h"
b0 :
b0 <"
b0 }"
b0 -#
b0 +
b0 8"
b0 $#
b0 -
b0 9"
b0 "#
b10100 A"
b10100 d"
b0 ="
b0 Z"
b0 >"
b0 T"
1H"
b100000 m"
b100000 v"
b100000 {"
b10000000000000000000000000000000000xxxxxxxxxxxxxxxxxxxxxxxxxxxxxxxx000000000000000000000000000000001000000000000000000000000000000010011 M#
b10000000000000000000000000000000101000000000000000000000000000000101000110000000000000000000000000001010000000000001000010000000110110011 =#
b10000000001000000000000000000000000000000000000000000000000000000000000000000000000000000000000000000010100000000000000000000000000000000000000000000000000000000000000000000000000001100000000000000000000000000000010011 c"
b11100 C
b11100 a
b11100 ""
b11100 -"
b11000 E
b11000 c
b11000 |
b11000 ,"
b100000 A
b100000 `
b100000 ~
b100000 l"
b100000 s"
b100000 y"
b11100 !
b11100 D
b11100 b
b11100 z
b11100 n"
b11100 q"
b11100 t"
b11100 x"
b111 %
1#
#90000
0#
