Waves/waves_stalling_NO_HAZARD.vcd
$date
	Thu Jun 18 02:32:54 2026
$end
$version
	Icarus Verilog
$end
$timescale
	1ps
$end
$scope module tb $end
$var wire 32 ! pcF [31:0] $end
$var wire 1 " memWriteM $end
$var reg 1 # clk $end
$var reg 1 $ reset $end
$var integer 32 % cycle [31:0] $end
$scope module dut $end
$var wire 2 & ForwardAE [1:0] $end
$var wire 2 ' ForwardBE [1:0] $end
$var wire 1 " MemWriteM $end
$var wire 1 ( StallD $end
$var wire 1 ) StallF $end
$var wire 32 * WriteDataM [31:0] $end
$var wire 1 + ZeroE $end
$var wire 1 # clk $end
$var wire 1 $ reset $end
$var wire 32 , WriteDataE [31:0] $end
$var wire 5 - Rs2E [4:0] $end
$var wire 5 . Rs2D [4:0] $end
$var wire 5 / Rs1E [4:0] $end
$var wire 5 0 Rs1D [4:0] $end
$var wire 32 1 ResultW [31:0] $end
$var wire 2 2 ResultSrcM [1:0] $end
$var wire 2 3 ResultSrcE [1:0] $end
$var wire 2 4 ResultSrcD [1:0] $end
$var wire 1 5 RegWriteW $end
$var wire 1 6 RegWriteM_internal $end
$var wire 1 7 RegWriteE $end
$var wire 1 8 RegWriteD $end
$var wire 32 9 ReadDataM [31:0] $end
$var wire 5 : RdW [4:0] $end
$var wire 5 ; RdM [4:0] $end
$var wire 5 < RdE [4:0] $end
$var wire 5 = RdD [4:0] $end
$var wire 32 > RD2D [31:0] $end
$var wire 32 ? RD1D [31:0] $end
$var wire 32 @ PCTargetE [31:0] $end
$var wire 1 A PCSrcE $end
$var wire 32 B PCPlus4M [31:0] $end
$var wire 32 C PCPlus4F [31:0] $end
$var wire 32 D PCPlus4E [31:0] $end
$var wire 32 E PCPlus4D [31:0] $end
$var wire 32 F PCF [31:0] $end
$var wire 32 G PCD [31:0] $end
$var wire 1 H MemWriteE $end
$var wire 1 I MemWriteD $end
$var wire 1 J JumpD $end
$var wire 32 K InstrW [31:0] $end
$var wire 32 L InstrM [31:0] $end
$var wire 32 M InstrF [31:0] $end
$var wire 32 N InstrE [31:0] $end
$var wire 32 O InstrD [31:0] $end
$var wire 1 P FlushE $end
$var wire 1 Q FlushD $end
$var wire 32 R ExtImmD [31:0] $end
$var wire 1 S BranchD $end
$var wire 1 T ALUSrcD $end
$var wire 32 U ALUResultM [31:0] $end
$var wire 32 V ALUResultE [31:0] $end
$var wire 4 W ALUControlD [3:0] $end
$scope module decodeStage $end
$var wire 1 ( StallD $end
$var wire 1 # clk $end
$var wire 1 $ reset $end
$var wire 5 X Rs2D [4:0] $end
$var wire 5 Y Rs1D [4:0] $end
$var wire 32 Z ResultW [31:0] $end
$var wire 2 [ ResultSrcD [1:0] $end
$var wire 1 5 RegWriteW $end
$var wire 1 8 RegWriteD $end
$var wire 5 \ RdW [4:0] $end
$var wire 5 ] RdD [4:0] $end
$var wire 32 ^ RD2D [31:0] $end
$var wire 32 _ RD1D [31:0] $end
$var wire 32 ` PCPlus4F [31:0] $end
$var wire 32 a PCPlus4D [31:0] $end
$var wire 32 b PCF [31:0] $end
$var wire 32 c PCD [31:0] $end
$var wire 1 I MemWriteD $end
$var wire 1 J JumpD $end
$var wire 32 d InstrF [31:0] $end
$var wire 32 e InstrD [31:0] $end
$var wire 2 f ImmSrcD [1:0] $end
$var wire 1 Q FlushD $end
$var wire 32 g ExtImmD [31:0] $end
$var wire 1 S BranchD $end
$var wire 1 T ALUSrcD $end
$var wire 4 h ALUControlD [3:0] $end
$scope module ctrl $end
$var wire 3 i funct3 [2:0] $end
$var wire 7 j funct7 [6:0] $end
$var wire 7 k op [6:0] $end
$var wire 1 l use_alt_op $end
$var wire 1 m op5 $end
$var reg 4 n ALUControl [3:0] $end
$var reg 2 o ALUOp [1:0] $end
$var reg 1 T ALUSrc $end
$var reg 1 S Branch $end
$var reg 2 p ImmSrc [1:0] $end
$var reg 1 J Jump $end
$var reg 1 I MemWrite $end
$var reg 1 8 RegWrite $end
$var reg 2 q ResultSrc [1:0] $end
$upscope $end
$scope module ext $end
$var wire 2 r immsrc [1:0] $end
$var wire 25 s instr [31:7] $end
$var reg 32 t immext [31:0] $end
$upscope $end
$scope module ifIdInstr $end
$var wire 1 # clk $end
$var wire 1 u en $end
$var wire 1 $ reset $end
$var wire 32 v d [31:0] $end
$var wire 1 Q clear $end
$var parameter 32 w WIDTH $end
$var reg 32 x q [31:0] $end
$upscope $end
$scope module ifIdPc $end
$var wire 1 # clk $end
$var wire 1 y en $end
$var wire 1 $ reset $end
$var wire 32 z d [31:0] $end
$var wire 1 Q clear $end
$var parameter 32 { WIDTH $end
$var reg 32 | q [31:0] $end
$upscope $end
$scope module ifIdPcPlus4 $end
$var wire 1 # clk $end
$var wire 1 } en $end
$var wire 1 $ reset $end
$var wire 32 ~ d [31:0] $end
$var wire 1 Q clear $end
$var parameter 32 !" WIDTH $end
$var reg 32 "" q [31:0] $end
$upscope $end
$scope module rf $end
$var wire 5 #" a1 [4:0] $end
$var wire 5 $" a2 [4:0] $end
$var wire 1 # clk $end
$var wire 1 5 we3 $end
$var wire 32 %" wd3 [31:0] $end
$var wire 32 &" rd2 [31:0] $end
$var wire 32 '" rd1 [31:0] $end
$var wire 5 (" a3 [4:0] $end
$upscope $end
$upscope $end
$scope module executeStage $end
$var wire 4 )" ALUControlD [3:0] $end
$var wire 1 T ALUSrcD $end
$var wire 1 S BranchD $end
$var wire 32 *" ExtImmD [31:0] $end
$var wire 2 +" ForwardAE [1:0] $end
$var wire 2 ," ForwardBE [1:0] $end
$var wire 32 -" InstrD [31:0] $end
$var wire 1 J JumpD $end
$var wire 1 I MemWriteD $end
$var wire 32 ." PCD [31:0] $end
$var wire 32 /" PCPlus4D [31:0] $end
$var wire 1 A PCSrcE $end
$var wire 32 0" RD1D [31:0] $end
$var wire 32 1" RD2D [31:0] $end
$var wire 5 2" RdD [4:0] $end
$var wire 1 8 RegWriteD $end
$var wire 2 3" ResultSrcD [1:0] $end
$var wire 5 4" Rs1D [4:0] $end
$var wire 5 5" Rs2D [4:0] $end
$var wire 1 # clk $end
$var wire 1 $ reset $end
$var wire 1 6" ZeroE $end
$var wire 32 7" WriteDataE [31:0] $end
$var wire 32 8" SrcBE [31:0] $end
$var wire 32 9" SrcAE [31:0] $end
$var wire 5 :" Rs2E [4:0] $end
$var wire 5 ;" Rs1E [4:0] $end
$var wire 32 <" ResultW [31:0] $end
$var wire 2 =" ResultSrcE [1:0] $end
$var wire 1 7 RegWriteE $end
$var wire 5 >" RdE [4:0] $end
$var wire 32 ?" RD2E [31:0] $end
$var wire 32 @" RD1E [31:0] $end
$var wire 32 A" PCTargetE [31:0] $end
$var wire 32 B" PCPlus4E [31:0] $end
$var wire 32 C" PCE [31:0] $end
$var wire 1 H MemWriteE $end
$var wire 1 D" JumpE $end
$var wire 32 E" InstrE [31:0] $end
$var wire 1 P FlushE $end
$var wire 32 F" ExtImmE [31:0] $end
$var wire 1 G" BranchE $end
$var wire 1 H" ALUSrcE $end
$var wire 32 I" ALUResultM [31:0] $end
$var wire 32 J" ALUResultE [31:0] $end
$var wire 4 K" ALUControlE [3:0] $end
$scope module aluUnit $end
$var wire 4 L" alucontrol [3:0] $end
$var wire 1 M" isAddSub $end
$var wire 1 N" v $end
$var wire 1 6" zero $end
$var wire 32 O" sum [31:0] $end
$var wire 32 P" condinvb [31:0] $end
$var wire 32 Q" b [31:0] $end
$var wire 32 R" a [31:0] $end
$var reg 32 S" result [31:0] $end
$upscope $end
$scope module forwardAmux $end
$var wire 32 T" d0 [31:0] $end
$var wire 2 U" s [1:0] $end
$var wire 32 V" y [31:0] $end
$var wire 32 W" d2 [31:0] $end
$var wire 32 X" d1 [31:0] $end
$var parameter 32 Y" WIDTH $end
$upscope $end
$scope module forwardBmux $end
$var wire 32 Z" d0 [31:0] $end
$var wire 2 [" s [1:0] $end
$var wire 32 \" y [31:0] $end
$var wire 32 ]" d2 [31:0] $end
$var wire 32 ^" d1 [31:0] $end
$var parameter 32 _" WIDTH $end
$upscope $end
$scope module idexReg $end
$var wire 1 # clk $end
$var wire 218 `" d [217:0] $end
$var wire 1 a" en $end
$var wire 1 $ reset $end
$var wire 1 P clear $end
$var parameter 32 b" WIDTH $end
$var reg 218 c" q [217:0] $end
$upscope $end
$scope module pcTargetAdd $end
$var wire 32 d" a [31:0] $end
$var wire 32 e" b [31:0] $end
$var wire 32 f" y [31:0] $end
$upscope $end
$scope module srcBmux $end
$var wire 32 g" d0 [31:0] $end
$var wire 32 h" d1 [31:0] $end
$var wire 1 H" s $end
$var wire 32 i" y [31:0] $end
$var parameter 32 j" WIDTH $end
$upscope $end
$upscope $end
$scope module fetchStage $end
$var wire 1 A PCSrcE $end
$var wire 32 k" PCTargetE [31:0] $end
$var wire 1 ) StallF $end
$var wire 1 # clk $end
$var wire 1 $ reset $end
$var wire 32 l" PCPlus4F [31:0] $end
$var wire 32 m" PCF_next [31:0] $end
$var wire 32 n" PCF [31:0] $end
$var wire 32 o" InstrF [31:0] $end
$scope module imemory $end
$var wire 32 p" rd [31:0] $end
$var wire 32 q" a [31:0] $end
$upscope $end
$scope module pcAdd4 $end
$var wire 32 r" b [31:0] $end
$var wire 32 s" y [31:0] $end
$var wire 32 t" a [31:0] $end
$upscope $end
$scope module pcReg $end
$var wire 1 # clk $end
$var wire 1 u" en $end
$var wire 1 $ reset $end
$var wire 32 v" d [31:0] $end
$var parameter 32 w" WIDTH $end
$var reg 32 x" q [31:0] $end
$upscope $end
$scope module pcmux $end
$var wire 32 y" d0 [31:0] $end
$var wire 32 z" d1 [31:0] $end
$var wire 1 A s $end
$var wire 32 {" y [31:0] $end
$var parameter 32 |" WIDTH $end
$upscope $end
$upscope $end
$scope module hazardUnit $end
$var wire 1 Q FlushD $end
$var wire 1 P FlushE $end
$var wire 2 }" ForwardAE [1:0] $end
$var wire 2 ~" ForwardBE [1:0] $end
$var wire 1 A PCSrcE $end
$var wire 5 !# RdE [4:0] $end
$var wire 1 "# ResultSrcE0 $end
$var wire 5 ## Rs1D [4:0] $end
$var wire 5 $# Rs1E [4:0] $end
$var wire 5 %# Rs2D [4:0] $end
$var wire 5 &# Rs2E [4:0] $end
$var wire 1 ( StallD $end
$var wire 1 ) StallF $end
$var wire 1 5 RegWriteW $end
$var wire 1 6 RegWriteM $end
$var wire 5 '# RdW [4:0] $end
$var wire 5 (# RdM [4:0] $end
$upscope $end
$scope module memStage $end
$var wire 32 )# ALUResultE [31:0] $end
$var wire 32 *# InstrE [31:0] $end
$var wire 1 H MemWriteE $end
$var wire 32 +# PCPlus4E [31:0] $end
$var wire 5 ,# RdE [4:0] $end
$var wire 1 7 RegWriteE $end
$var wire 2 -# ResultSrcE [1:0] $end
$var wire 32 .# WriteDataE [31:0] $end
$var wire 1 # clk $end
$var wire 1 $ reset $end
$var wire 32 /# WriteDataM [31:0] $end
$var wire 2 0# ResultSrcM [1:0] $end
$var wire 1 6 RegWriteM $end
$var wire 32 1# ReadDataM [31:0] $end
$var wire 5 2# RdM [4:0] $end
$var wire 32 3# PCPlus4M [31:0] $end
$var wire 1 4# MemWriteM $end
$var wire 32 5# InstrM [31:0] $end
$var wire 32 6# ALUResultM [31:0] $end
$scope module dataMemory $end
$var wire 32 7# a [31:0] $end
$var wire 1 # clk $end
$var wire 32 8# rd [31:0] $end
$var wire 32 9# wd [31:0] $end
$var wire 1 4# we $end
$upscope $end
$scope module exmemReg $end
$var wire 1 # clk $end
$var wire 137 :# d [136:0] $end
$var wire 1 $ reset $end
$var parameter 32 ;# WIDTH $end
$var reg 137 <# q [136:0] $end
$upscope $end
$upscope $end
$scope module wbStage $end
$var wire 32 =# ALUResultM [31:0] $end
$var wire 32 ># InstrM [31:0] $end
$var wire 32 ?# PCPlus4M [31:0] $end
$var wire 5 @# RdM [4:0] $end
$var wire 32 A# ReadDataM [31:0] $end
$var wire 1 6 RegWriteM $end
$var wire 2 B# ResultSrcM [1:0] $end
$var wire 1 # clk $end
$var wire 1 $ reset $end
$var wire 32 C# ResultW [31:0] $end
$var wire 2 D# ResultSrcW [1:0] $end
$var wire 1 5 RegWriteW $end
$var wire 32 E# ReadDataW [31:0] $end
$var wire 5 F# RdW [4:0] $end
$var wire 32 G# PCPlus4W [31:0] $end
$var wire 32 H# InstrW [31:0] $end
$var wire 32 I# ALUResultW [31:0] $end
$scope module memwbReg $end
$var wire 1 # clk $end
$var wire 136 J# d [135:0] $end
$var wire 1 $ reset $end
$var parameter 32 K# WIDTH $end
$var reg 136 L# q [135:0] $end
$upscope $end
$scope module resultMux $end
$var wire 32 M# d0 [31:0] $end
$var wire 32 N# d1 [31:0] $end
$var wire 32 O# d2 [31:0] $end
$var wire 2 P# s [1:0] $end
$var wire 32 Q# y [31:0] $end
$var parameter 32 R# WIDTH $end
$upscope $end
$upscope $end
$upscope $end
$upscope $end
$enddefinitions $end
$comment Show the parameter values. $end
$dumpall
b100000 R#
b10001000 K#
b10001001 ;#
b100000 |"
b100000 w"
b100000 j"
b11011010 b"
b100000 _"
b100000 Y"
b100000 !"
b100000 {
b100000 w
$end
#0
$dumpvars
b0 Q#
b0 P#
b0 O#
b0 N#
b0 M#
b0 L#
b0xxxxxxxxxxxxxxxxxxxxxxxxxxxxxxxx000000000000000000000000000000000000000000000000000000000000000000000 J#
b0 I#
b0 H#
b0 G#
b0 F#
b0 E#
b0 D#
b0 C#
b0 B#
bx A#
b0 @#
b0 ?#
b0 >#
b0 =#
b0 <#
b0 :#
b0 9#
bx 8#
b0 7#
b0 6#
b0 5#
04#
b0 3#
b0 2#
bx 1#
b0 0#
b0 /#
b0 .#
b0 -#
b0 ,#
b0 +#
b0 *#
b0 )#
b0 (#
b0 '#
b0 &#
b0 %#
b0 $#
b0 ##
0"#
b0 !#
b0 ~"
b0 }"
b100 {"
b0 z"
b100 y"
b0 x"
b100 v"
1u"
b0 t"
b100 s"
b100 r"
b0 q"
b10100000000000100010011 p"
b10100000000000100010011 o"
b0 n"
b100 m"
b100 l"
b0 k"
b0 i"
b0 h"
b0 g"
b0 f"
b0 e"
b0 d"
b0 c"
1a"
b0 `"
b0 ^"
b0 ]"
b0 \"
b0 ["
b0 Z"
b0 X"
b0 W"
b0 V"
b0 U"
b0 T"
b0 S"
b0 R"
b0 Q"
b0 P"
b0 O"
0N"
1M"
b0 L"
b0 K"
b0 J"
b0 I"
0H"
0G"
b0 F"
b0 E"
0D"
b0 C"
b0 B"
b0 A"
b0 @"
b0 ?"
b0 >"
b0 ="
b0 <"
b0 ;"
b0 :"
b0 9"
b0 8"
b0 7"
16"
b0 5"
b0 4"
b0 3"
b0 2"
b0 1"
b0 0"
b0 /"
b0 ."
b0 -"
b0 ,"
b0 +"
b0 *"
b0 )"
b0 ("
b0 '"
b0 &"
b0 %"
b0 $"
b0 #"
b0 ""
b100 ~
1}
b0 |
b0 z
1y
b0 x
b10100000000000100010011 v
1u
b0 t
b0 s
b0 r
b0 q
b0 p
b0 o
b0 n
0m
0l
b0 k
b0 j
b0 i
b0 h
b0 g
b0 f
b0 e
b10100000000000100010011 d
b0 c
b0 b
b0 a
b100 `
b0 _
b0 ^
b0 ]
b0 \
b0 [
b0 Z
b0 Y
b0 X
b0 W
b0 V
b0 U
0T
0S
b0 R
0Q
0P
b0 O
b0 N
b10100000000000100010011 M
b0 L
b0 K
0J
0I
0H
b0 G
b0 F
b0 E
b0 D
b100 C
b0 B
0A
b0 @
b0 ?
b0 >
b0 =
b0 <
b0 ;
b0 :
bx 9
08
07
06
05
b0 4
b0 3
b0 2
b0 1
b0 0
b0 /
b0 .
b0 -
b0 ,
1+
b0 *
0)
0(
b0 '
b0 &
b0 %
1$
0#
0"
b0 !
$end
#5000
1#
#10000
0#
#15000
1#
#20000
0#
#22000
0$
#25000
bx >
bx ^
bx &"
bx 1"
b1000000000100000000000000000000000000000000xxxxxxxxxxxxxxxxxxxxxxxxxxxxxxxx00000000000000000000000000000000000000010100010000000000000000000000000000001010000000000000000000000000000010000000000010100000000000100010011 `"
b101 R
b101 g
b101 t
b101 *"
b10 o
1T
18
bx E#
bx N#
b1010000000000010 s
b10011 k
b10 =
b10 ]
b10 2"
b101 .
b101 X
b101 $"
b101 5"
b101 %#
b1000 m"
b1000 v"
b1000 {"
b110001000000010001000100011 M
b110001000000010001000100011 d
b110001000000010001000100011 v
b110001000000010001000100011 o"
b110001000000010001000100011 p"
b0xxxxxxxxxxxxxxxxxxxxxxxxxxxxxxxx000000000000000000000000000000000000000000000000000000000000000000000 L#
b100 E
b100 a
b100 ""
b100 /"
b10100000000000100010011 O
b10100000000000100010011 e
b10100000000000100010011 x
b10100000000000100010011 -"
b1000 C
b1000 `
b1000 ~
b1000 l"
b1000 s"
b1000 y"
b100 !
b100 F
b100 b
b100 z
b100 n"
b100 q"
b100 t"
b100 x"
b1 %
1#
#30000
0#
#35000
0+
06"
b101 V
b101 J"
b101 S"
b101 )#
bx ,
bx 7"
bx \"
bx g"
bx .#
b101 O"
b101 P"
b100000000000000000000000000000000101xxxxxxxxxxxxxxxxxxxxxxxxxxxxxxxx000100000000000000000000000000000010000000000010100000000000100010011 :#
b1100100 R
b1100100 g
b1100100 t
b1100100 *"
b1 f
b1 p
b1 r
1I
b0 o
1T
08
1m
b1000000100000000000000000000000000000000xxxxxxxxxxxxxxxxxxxxxxxxxxxxxxxx00000000000000000000000000000100000000001000100000000000000000000000000011001000000000000000000000000000000100000000110001000000010001000100011 `"
b101 8"
b101 Q"
b101 i"
b1100 m"
b1100 v"
b1100 {"
b110010000000010000110000011 M
b110010000000010000110000011 d
b110010000000010000110000011 v
b110010000000010000110000011 o"
b110010000000010000110000011 p"
b11000100000001000100 s
b11 j
b10 i
b100011 k
b100 =
b100 ]
b100 2"
b10 .
b10 X
b10 $"
b10 5"
b10 %#
b10100000000000100010011 N
b10100000000000100010011 E"
b10100000000000100010011 *#
b100 D
b100 B"
b100 +#
b101 @
b101 A"
b101 f"
b101 k"
b101 z"
b101 F"
b101 e"
b101 h"
b10 <
b10 >"
b10 !#
b10 ,#
b101 -
b101 :"
b101 &#
bx ?"
bx Z"
1H"
17
b1100 C
b1100 `
b1100 ~
b1100 l"
b1100 s"
b1100 y"
b1000 !
b1000 F
b1000 b
b1000 z
b1000 n"
b1000 q"
b1000 t"
b1000 x"
b110001000000010001000100011 O
b110001000000010001000100011 e
b110001000000010001000100011 x
b110001000000010001000100011 -"
b100 G
b100 c
b100 |
b100 ."
b1000 E
b1000 a
b1000 ""
b1000 /"
b1000000000100000000000000000000000000000000xxxxxxxxxxxxxxxxxxxxxxxxxxxxxxxx00000000000000000000000000000000000000010100010000000000000000000000000000001010000000000000000000000000000010000000000010100000000000100010011 c"
b10 %
1#
#40000
0#
#45000
b1100100 V
b1100100 J"
b1100100 S"
b1100100 )#
b10000000000000000000000000000000101xxxxxxxxxxxxxxxxxxxxxxxxxxxxxxxx000100000000000000000000000000000010000000000010100000000000100010011 J#
b1100100 O"
b1100100 P"
b100000000000000000000000001100100xxxxxxxxxxxxxxxxxxxxxxxxxxxxxxxx001000000000000000000000000000000100000000110001000000010001000100011 :#
b1100100 8"
b1100100 Q"
b1100100 i"
b1010000000100000000000000000000000000000000xxxxxxxxxxxxxxxxxxxxxxxxxxxxxxxx00000000000000000000000000001000000000010000011000000000000000000000000011001000000000000000000000000000000110000000110010000000010000110000011 `"
b1 4
b1 [
b1 q
b1 3"
18
b0 f
b0 p
b0 r
1T
0I
0m
b10100000000000100010011 L
b10100000000000100010011 5#
b10100000000000100010011 >#
b100 B
b100 3#
b100 ?#
b10 ;
b10 (#
b10 2#
b10 @#
bx *
bx /#
bx 9#
b101 U
b101 I"
b101 W"
b101 ]"
b101 6#
b101 7#
b101 =#
16
b110001000000010001000100011 N
b110001000000010001000100011 E"
b110001000000010001000100011 *#
b1000 D
b1000 B"
b1000 +#
b1100100 F"
b1100100 e"
b1100100 h"
b100 <
b100 >"
b100 !#
b100 ,#
b10 -
b10 :"
b10 &#
b1101000 @
b1101000 A"
b1101000 f"
b1101000 k"
b1101000 z"
b100 C"
b100 d"
1H
07
b11001000000001000011 s
b11 k
b11 =
b11 ]
b11 2"
b100 .
b100 X
b100 $"
b100 5"
b100 %#
b10000 m"
b10000 v"
b10000 {"
b1000011000001000110011 M
b1000011000001000110011 d
b1000011000001000110011 v
b1000011000001000110011 o"
b1000011000001000110011 p"
b100000000000000000000000000000000101xxxxxxxxxxxxxxxxxxxxxxxxxxxxxxxx000100000000000000000000000000000010000000000010100000000000100010011 <#
b1000000100000000000000000000000000000000xxxxxxxxxxxxxxxxxxxxxxxxxxxxxxxx00000000000000000000000000000100000000001000100000000000000000000000000011001000000000000000000000000000000100000000110001000000010001000100011 c"
b1100 E
b1100 a
b1100 ""
b1100 /"
b1000 G
b1000 c
b1000 |
b1000 ."
b110010000000010000110000011 O
b110010000000010000110000011 e
b110010000000010000110000011 x
b110010000000010000110000011 -"
b10000 C
b10000 `
b10000 ~
b10000 l"
b10000 s"
b10000 y"
b1100 !
b1100 F
b1100 b
b1100 z
b1100 n"
b1100 q"
b1100 t"
b1100 x"
b11 %
1#
#50000
0#
#55000
bx ?
bx _
bx '"
bx 0"
b101000000000000000000000000001100100xxxxxxxxxxxxxxxxxxxxxxxxxxxxxxxx000110000000000000000000000000000110000000110010000000010000110000011 :#
b1100100xxxxxxxxxxxxxxxxxxxxxxxxxxxxxxxx001000000000000000000000000000000100000000110001000000010001000100011 J#
b101 1
b101 Z
b101 %"
b101 <"
b101 X"
b101 ^"
b101 C#
b101 Q#
bx R
bx g
bx t
bx *"
b10 o
bx f
bx p
bx r
b0 4
b0 [
b0 q
b0 3"
0T
18
1m
b10000000000xxxxxxxxxxxxxxxxxxxxxxxxxxxxxxxxxxxxxxxxxxxxxxxxxxxxxxxxxxxxxxxx00000000000000000000000000001100000110001000100xxxxxxxxxxxxxxxxxxxxxxxxxxxxxxxx0000000000000000000000000001000000000000001000011000001000110011 `"
1"#
b10100 m"
b10100 v"
b10100 {"
b1100010000000010010000100011 M
b1100010000000010010000100011 d
b1100010000000010010000100011 v
b1100010000000010010000100011 o"
b1100010000000010010000100011 p"
b100001100000100 s
b0 j
b0 i
b110011 k
b100 =
b100 ]
b100 2"
b10 .
b10 X
b10 $"
b10 5"
b10 %#
b11 0
b11 Y
b11 #"
b11 4"
b11 ##
b110010000000010000110000011 N
b110010000000010000110000011 E"
b110010000000010000110000011 *#
b1100 D
b1100 B"
b1100 +#
b11 <
b11 >"
b11 !#
b11 ,#
b100 -
b100 :"
b100 &#
b1101100 @
b1101100 A"
b1101100 f"
b1101100 k"
b1101100 z"
b1000 C"
b1000 d"
0H
b1 3
b1 ="
b1 -#
17
b110001000000010001000100011 L
b110001000000010001000100011 5#
b110001000000010001000100011 >#
b1000 B
b1000 3#
b1000 ?#
b100 ;
b100 (#
b100 2#
b100 @#
b1100100 U
b1100100 I"
b1100100 W"
b1100100 ]"
b1100100 6#
b1100100 7#
b1100100 =#
1"
14#
06
b10100000000000100010011 K
b10100000000000100010011 H#
b100 G#
b100 O#
b10 :
b10 \
b10 ("
b10 '#
b10 F#
b101 I#
b101 M#
15
b10100 C
b10100 `
b10100 ~
b10100 l"
b10100 s"
b10100 y"
b10000 !
b10000 F
b10000 b
b10000 z
b10000 n"
b10000 q"
b10000 t"
b10000 x"
b1000011000001000110011 O
b1000011000001000110011 e
b1000011000001000110011 x
b1000011000001000110011 -"
b1100 G
b1100 c
b1100 |
b1100 ."
b10000 E
b10000 a
b10000 ""
b10000 /"
b1010000000100000000000000000000000000000000xxxxxxxxxxxxxxxxxxxxxxxxxxxxxxxx00000000000000000000000000001000000000010000011000000000000000000000000011001000000000000000000000000000000110000000110010000000010000110000011 c"
b100000000000000000000000001100100xxxxxxxxxxxxxxxxxxxxxxxxxxxxxxxx001000000000000000000000000000000100000000110001000000010001000100011 <#
b10000000000000000000000000000000101xxxxxxxxxxxxxxxxxxxxxxxxxxxxxxxx000100000000000000000000000000000010000000000010100000000000100010011 L#
b100 %
1#
#60000
b10000000000xxxxxxxxxxxxxxxxxxxxxxxxxxxxxxxx0000000000000000000000000000010100000000000000000000000000001100000110001000100xxxxxxxxxxxxxxxxxxxxxxxxxxxxxxxx0000000000000000000000000001000000000000001000011000001000110011 `"
b101 >
b101 ^
b101 &"
b101 1"
0#
#65000
xN"
x+
x6"
bx V
bx J"
bx S"
bx )#
b1100100 1
b1100100 Z
b1100100 %"
b1100100 <"
b1100100 X"
b1100100 ^"
b1100100 C#
b1100100 Q#
b10100000000000000000000000001100100xxxxxxxxxxxxxxxxxxxxxxxxxxxxxxxx000110000000000000000000000000000110000000110010000000010000110000011 J#
b101 ,
b101 7"
b101 \"
b101 g"
b101 .#
bx 9"
bx R"
bx V"
bx O"
b101 P"
b1000xxxxxxxxxxxxxxxxxxxxxxxxxxxxxxxx00000000000000000000000000000101001000000000000000000000000000001000000000000001000011000001000110011 :#
bx >
bx ^
bx &"
bx 1"
b0 ?
b0 _
b0 '"
b0 0"
b101 8"
b101 Q"
b101 i"
0"#
b1000000100000000000000000000000000000000xxxxxxxxxxxxxxxxxxxxxxxxxxxxxxxx00000000000000000000000000010000000000010001000000000000000000000000000110010000000000000000000000000000001010000001100010000000010010000100011 `"
b11001000 R
b11001000 g
b11001000 t
b11001000 *"
1T
1I
b0 o
b1 f
b1 p
b1 r
08
b110001000000010001000100011 K
b110001000000010001000100011 H#
b1000 G#
b1000 O#
b100 :
b100 \
b100 ("
b100 '#
b100 F#
b1100100 I#
b1100100 M#
05
b110010000000010000110000011 L
b110010000000010000110000011 5#
b110010000000010000110000011 >#
b1100 B
b1100 3#
b1100 ?#
b11 ;
b11 (#
b11 2#
b11 @#
0"
04#
b1 2
b1 0#
b1 B#
16
b1000011000001000110011 N
b1000011000001000110011 E"
b1000011000001000110011 *#
b10000 D
b10000 B"
b10000 +#
bx F"
bx e"
bx h"
b100 <
b100 >"
b100 !#
b100 ,#
b10 -
b10 :"
b10 &#
b11 /
b11 ;"
b11 $#
bx @
bx A"
bx f"
bx k"
bx z"
b1100 C"
b1100 d"
b101 ?"
b101 Z"
bx @"
bx T"
0H"
b0 3
b0 ="
b0 -#
b110001000000001001000 s
b110 j
b10 i
b100011 k
b1000 =
b1000 ]
b1000 2"
b100 .
b100 X
b100 $"
b100 5"
b100 %#
b0 0
b0 Y
b0 #"
b0 4"
b0 ##
b11000 m"
b11000 v"
b11000 {"
bx M
bx d
bx v
bx o"
bx p"
b1100100xxxxxxxxxxxxxxxxxxxxxxxxxxxxxxxx001000000000000000000000000000000100000000110001000000010001000100011 L#
b101000000000000000000000000001100100xxxxxxxxxxxxxxxxxxxxxxxxxxxxxxxx000110000000000000000000000000000110000000110010000000010000110000011 <#
b10000000000xxxxxxxxxxxxxxxxxxxxxxxxxxxxxxxx0000000000000000000000000000010100000000000000000000000000001100000110001000100xxxxxxxxxxxxxxxxxxxxxxxxxxxxxxxx0000000000000000000000000001000000000000001000011000001000110011 c"
b10100 E
b10100 a
b10100 ""
b10100 /"
b10000 G
b10000 c
b10000 |
b10000 ."
b1100010000000010010000100011 O
b1100010000000010010000100011 e
b1100010000000010010000100011 x
b1100010000000010010000100011 -"
b11000 C
b11000 `
b11000 ~
b11000 l"
b11000 s"
b11000 y"
b10100 !
b10100 F
b10100 b
b10100 z
b10100 n"
b10100 q"
b10100 t"
b10100 x"
b101 %
1#
#70000
0#
