Waves/waves_stall.vcd
$date
	Wed Jun 17 13:48:44 2026
$end
$version
	Icarus Verilog
$end
$timescale
	1ps
$end
$scope module tb $end
$var wire 32 ! pcF [31:0] $end
$var wire 1 " memWriteM $end
$var reg 1 # clk $end
$var reg 1 $ reset $end
$var integer 32 % cycle [31:0] $end
$scope module dut $end
$var wire 1 " MemWriteM $end
$var wire 32 & WriteDataM [31:0] $end
$var wire 1 ' ZeroE $end
$var wire 1 # clk $end
$var wire 1 $ reset $end
$var wire 32 ( WriteDataE [31:0] $end
$var wire 1 ) StallF $end
$var wire 1 * StallD $end
$var wire 5 + Rs2E [4:0] $end
$var wire 5 , Rs2D [4:0] $end
$var wire 5 - Rs1E [4:0] $end
$var wire 5 . Rs1D [4:0] $end
$var wire 32 / ResultW [31:0] $end
$var wire 2 0 ResultSrcM [1:0] $end
$var wire 2 1 ResultSrcE [1:0] $end
$var wire 2 2 ResultSrcD [1:0] $end
$var wire 1 3 RegWriteW $end
$var wire 1 4 RegWriteM_internal $end
$var wire 1 5 RegWriteE $end
$var wire 1 6 RegWriteD $end
$var wire 32 7 ReadDataM [31:0] $end
$var wire 5 8 RdW [4:0] $end
$var wire 5 9 RdM [4:0] $end
$var wire 5 : RdE [4:0] $end
$var wire 5 ; RdD [4:0] $end
$var wire 32 < RD2D [31:0] $end
$var wire 32 = RD1D [31:0] $end
$var wire 32 > PCTargetE [31:0] $end
$var wire 1 ? PCSrcE $end
$var wire 32 @ PCPlus4M [31:0] $end
$var wire 32 A PCPlus4F [31:0] $end
$var wire 32 B PCPlus4E [31:0] $end
$var wire 32 C PCPlus4D [31:0] $end
$var wire 32 D PCF [31:0] $end
$var wire 32 E PCD [31:0] $end
$var wire 1 F MemWriteE $end
$var wire 1 G MemWriteD $end
$var wire 1 H JumpD $end
$var wire 32 I InstrF [31:0] $end
$var wire 32 J InstrD [31:0] $end
$var wire 2 K ForwardBE [1:0] $end
$var wire 2 L ForwardAE [1:0] $end
$var wire 1 M FlushE $end
$var wire 1 N FlushD $end
$var wire 32 O ExtImmD [31:0] $end
$var wire 1 P BranchD $end
$var wire 1 Q ALUSrcD $end
$var wire 32 R ALUResultM [31:0] $end
$var wire 32 S ALUResultE [31:0] $end
$var wire 4 T ALUControlD [3:0] $end
$scope module decodeStage $end
$var wire 1 # clk $end
$var wire 1 $ reset $end
$var wire 1 * StallD $end
$var wire 5 U Rs2D [4:0] $end
$var wire 5 V Rs1D [4:0] $end
$var wire 32 W ResultW [31:0] $end
$var wire 2 X ResultSrcD [1:0] $end
$var wire 1 3 RegWriteW $end
$var wire 1 6 RegWriteD $end
$var wire 5 Y RdW [4:0] $end
$var wire 5 Z RdD [4:0] $end
$var wire 32 [ RD2D [31:0] $end
$var wire 32 \ RD1D [31:0] $end
$var wire 32 ] PCPlus4F [31:0] $end
$var wire 32 ^ PCPlus4D [31:0] $end
$var wire 32 _ PCF [31:0] $end
$var wire 32 ` PCD [31:0] $end
$var wire 1 G MemWriteD $end
$var wire 1 H JumpD $end
$var wire 32 a InstrF [31:0] $end
$var wire 32 b InstrD [31:0] $end
$var wire 2 c ImmSrcD [1:0] $end
$var wire 1 N FlushD $end
$var wire 32 d ExtImmD [31:0] $end
$var wire 1 P BranchD $end
$var wire 1 Q ALUSrcD $end
$var wire 4 e ALUControlD [3:0] $end
$scope module ctrl $end
$var wire 3 f funct3 [2:0] $end
$var wire 7 g funct7 [6:0] $end
$var wire 7 h op [6:0] $end
$var wire 1 i use_alt_op $end
$var wire 1 j op5 $end
$var reg 4 k ALUControl [3:0] $end
$var reg 2 l ALUOp [1:0] $end
$var reg 1 Q ALUSrc $end
$var reg 1 P Branch $end
$var reg 2 m ImmSrc [1:0] $end
$var reg 1 H Jump $end
$var reg 1 G MemWrite $end
$var reg 1 6 RegWrite $end
$var reg 2 n ResultSrc [1:0] $end
$upscope $end
$scope module ext $end
$var wire 2 o immsrc [1:0] $end
$var wire 25 p instr [31:7] $end
$var reg 32 q immext [31:0] $end
$upscope $end
$scope module ifIdInstr $end
$var wire 1 # clk $end
$var wire 1 r en $end
$var wire 1 $ reset $end
$var wire 32 s d [31:0] $end
$var wire 1 N clear $end
$var parameter 32 t WIDTH $end
$var reg 32 u q [31:0] $end
$upscope $end
$scope module ifIdPc $end
$var wire 1 # clk $end
$var wire 1 v en $end
$var wire 1 $ reset $end
$var wire 32 w d [31:0] $end
$var wire 1 N clear $end
$var parameter 32 x WIDTH $end
$var reg 32 y q [31:0] $end
$upscope $end
$scope module ifIdPcPlus4 $end
$var wire 1 # clk $end
$var wire 1 z en $end
$var wire 1 $ reset $end
$var wire 32 { d [31:0] $end
$var wire 1 N clear $end
$var parameter 32 | WIDTH $end
$var reg 32 } q [31:0] $end
$upscope $end
$scope module rf $end
$var wire 5 ~ a1 [4:0] $end
$var wire 5 !" a2 [4:0] $end
$var wire 1 # clk $end
$var wire 1 3 we3 $end
$var wire 32 "" wd3 [31:0] $end
$var wire 32 #" rd2 [31:0] $end
$var wire 32 $" rd1 [31:0] $end
$var wire 5 %" a3 [4:0] $end
$upscope $end
$upscope $end
$scope module executeStage $end
$var wire 4 &" ALUControlD [3:0] $end
$var wire 1 Q ALUSrcD $end
$var wire 1 P BranchD $end
$var wire 32 '" ExtImmD [31:0] $end
$var wire 1 H JumpD $end
$var wire 1 G MemWriteD $end
$var wire 32 (" PCD [31:0] $end
$var wire 32 )" PCPlus4D [31:0] $end
$var wire 1 ? PCSrcE $end
$var wire 32 *" RD1D [31:0] $end
$var wire 32 +" RD2D [31:0] $end
$var wire 5 ," RdD [4:0] $end
$var wire 1 6 RegWriteD $end
$var wire 2 -" ResultSrcD [1:0] $end
$var wire 5 ." Rs1D [4:0] $end
$var wire 5 /" Rs2D [4:0] $end
$var wire 1 # clk $end
$var wire 1 $ reset $end
$var wire 1 0" ZeroE $end
$var wire 32 1" WriteDataE [31:0] $end
$var wire 32 2" SrcBE [31:0] $end
$var wire 32 3" SrcAE [31:0] $end
$var wire 5 4" Rs2E [4:0] $end
$var wire 5 5" Rs1E [4:0] $end
$var wire 32 6" ResultW [31:0] $end
$var wire 2 7" ResultSrcE [1:0] $end
$var wire 1 5 RegWriteE $end
$var wire 5 8" RdE [4:0] $end
$var wire 32 9" RD2E [31:0] $end
$var wire 32 :" RD1E [31:0] $end
$var wire 32 ;" PCTargetE [31:0] $end
$var wire 32 <" PCPlus4E [31:0] $end
$var wire 32 =" PCE [31:0] $end
$var wire 1 F MemWriteE $end
$var wire 1 >" JumpE $end
$var wire 2 ?" ForwardBE [1:0] $end
$var wire 2 @" ForwardAE [1:0] $end
$var wire 1 M FlushE $end
$var wire 32 A" ExtImmE [31:0] $end
$var wire 1 B" BranchE $end
$var wire 1 C" ALUSrcE $end
$var wire 32 D" ALUResultM [31:0] $end
$var wire 32 E" ALUResultE [31:0] $end
$var wire 4 F" ALUControlE [3:0] $end
$scope module aluUnit $end
$var wire 4 G" alucontrol [3:0] $end
$var wire 1 H" isAddSub $end
$var wire 1 I" v $end
$var wire 1 0" zero $end
$var wire 32 J" sum [31:0] $end
$var wire 32 K" condinvb [31:0] $end
$var wire 32 L" b [31:0] $end
$var wire 32 M" a [31:0] $end
$var reg 32 N" result [31:0] $end
$upscope $end
$scope module forwardAmux $end
$var wire 32 O" d0 [31:0] $end
$var wire 32 P" y [31:0] $end
$var wire 2 Q" s [1:0] $end
$var wire 32 R" d2 [31:0] $end
$var wire 32 S" d1 [31:0] $end
$var parameter 32 T" WIDTH $end
$upscope $end
$scope module forwardBmux $end
$var wire 32 U" d0 [31:0] $end
$var wire 32 V" y [31:0] $end
$var wire 2 W" s [1:0] $end
$var wire 32 X" d2 [31:0] $end
$var wire 32 Y" d1 [31:0] $end
$var parameter 32 Z" WIDTH $end
$upscope $end
$scope module idexReg $end
$var wire 1 # clk $end
$var wire 186 [" d [185:0] $end
$var wire 1 \" en $end
$var wire 1 $ reset $end
$var wire 1 M clear $end
$var parameter 32 ]" WIDTH $end
$var reg 186 ^" q [185:0] $end
$upscope $end
$scope module pcTargetAdd $end
$var wire 32 _" a [31:0] $end
$var wire 32 `" b [31:0] $end
$var wire 32 a" y [31:0] $end
$upscope $end
$scope module srcBmux $end
$var wire 32 b" d0 [31:0] $end
$var wire 32 c" d1 [31:0] $end
$var wire 1 C" s $end
$var wire 32 d" y [31:0] $end
$var parameter 32 e" WIDTH $end
$upscope $end
$upscope $end
$scope module fetchStage $end
$var wire 1 ? PCSrcE $end
$var wire 32 f" PCTargetE [31:0] $end
$var wire 1 # clk $end
$var wire 1 $ reset $end
$var wire 1 ) StallF $end
$var wire 32 g" PCPlus4F [31:0] $end
$var wire 32 h" PCF_next [31:0] $end
$var wire 32 i" PCF [31:0] $end
$var wire 32 j" InstrF [31:0] $end
$scope module imemory $end
$var wire 32 k" rd [31:0] $end
$var wire 32 l" a [31:0] $end
$upscope $end
$scope module pcAdd4 $end
$var wire 32 m" b [31:0] $end
$var wire 32 n" y [31:0] $end
$var wire 32 o" a [31:0] $end
$upscope $end
$scope module pcReg $end
$var wire 1 # clk $end
$var wire 1 p" en $end
$var wire 1 $ reset $end
$var wire 32 q" d [31:0] $end
$var parameter 32 r" WIDTH $end
$var reg 32 s" q [31:0] $end
$upscope $end
$scope module pcmux $end
$var wire 32 t" d0 [31:0] $end
$var wire 32 u" d1 [31:0] $end
$var wire 1 ? s $end
$var wire 32 v" y [31:0] $end
$var parameter 32 w" WIDTH $end
$upscope $end
$upscope $end
$scope module hazardUnit $end
$var wire 1 N FlushD $end
$var wire 1 M FlushE $end
$var wire 1 ? PCSrcE $end
$var wire 5 x" RdE [4:0] $end
$var wire 1 y" ResultSrcE0 $end
$var wire 5 z" Rs1D [4:0] $end
$var wire 5 {" Rs1E [4:0] $end
$var wire 5 |" Rs2D [4:0] $end
$var wire 5 }" Rs2E [4:0] $end
$var wire 1 * StallD $end
$var wire 1 ) StallF $end
$var wire 1 ~" lwStall $end
$var wire 1 3 RegWriteW $end
$var wire 1 4 RegWriteM $end
$var wire 5 !# RdW [4:0] $end
$var wire 5 "# RdM [4:0] $end
$var reg 2 ## ForwardAE [1:0] $end
$var reg 2 $# ForwardBE [1:0] $end
$upscope $end
$scope module memStage $end
$var wire 32 %# ALUResultE [31:0] $end
$var wire 1 F MemWriteE $end
$var wire 32 &# PCPlus4E [31:0] $end
$var wire 5 '# RdE [4:0] $end
$var wire 1 5 RegWriteE $end
$var wire 2 (# ResultSrcE [1:0] $end
$var wire 32 )# WriteDataE [31:0] $end
$var wire 1 # clk $end
$var wire 1 $ reset $end
$var wire 32 *# WriteDataM [31:0] $end
$var wire 2 +# ResultSrcM [1:0] $end
$var wire 1 4 RegWriteM $end
$var wire 32 ,# ReadDataM [31:0] $end
$var wire 5 -# RdM [4:0] $end
$var wire 32 .# PCPlus4M [31:0] $end
$var wire 1 /# MemWriteM $end
$var wire 32 0# ALUResultM [31:0] $end
$scope module dataMemory $end
$var wire 32 1# a [31:0] $end
$var wire 1 # clk $end
$var wire 32 2# rd [31:0] $end
$var wire 32 3# wd [31:0] $end
$var wire 1 /# we $end
$upscope $end
$scope module exmemReg $end
$var wire 1 # clk $end
$var wire 105 4# d [104:0] $end
$var wire 1 $ reset $end
$var parameter 32 5# WIDTH $end
$var reg 105 6# q [104:0] $end
$upscope $end
$upscope $end
$scope module wbStage $end
$var wire 32 7# ALUResultM [31:0] $end
$var wire 32 8# PCPlus4M [31:0] $end
$var wire 5 9# RdM [4:0] $end
$var wire 32 :# ReadDataM [31:0] $end
$var wire 1 4 RegWriteM $end
$var wire 2 ;# ResultSrcM [1:0] $end
$var wire 1 # clk $end
$var wire 1 $ reset $end
$var wire 32 <# ResultW [31:0] $end
$var wire 2 =# ResultSrcW [1:0] $end
$var wire 1 3 RegWriteW $end
$var wire 32 ># ReadDataW [31:0] $end
$var wire 5 ?# RdW [4:0] $end
$var wire 32 @# PCPlus4W [31:0] $end
$var wire 32 A# ALUResultW [31:0] $end
$scope module memwbReg $end
$var wire 1 # clk $end
$var wire 104 B# d [103:0] $end
$var wire 1 $ reset $end
$var parameter 32 C# WIDTH $end
$var reg 104 D# q [103:0] $end
$upscope $end
$scope module resultMux $end
$var wire 32 E# d0 [31:0] $end
$var wire 32 F# d1 [31:0] $end
$var wire 32 G# d2 [31:0] $end
$var wire 2 H# s [1:0] $end
$var wire 32 I# y [31:0] $end
$var parameter 32 J# WIDTH $end
$upscope $end
$upscope $end
$upscope $end
$upscope $end
$enddefinitions $end
$comment Show the parameter values. $end
$dumpall
b100000 J#
b1101000 C#
b1101001 5#
b100000 w"
b100000 r"
b100000 e"
b10111010 ]"
b100000 Z"
b100000 T"
b100000 |
b100000 x
b100000 t
$end
#0
$dumpvars
b0 I#
b0 H#
b0 G#
b0 F#
b0 E#
b0 D#
b0xxxxxxxxxxxxxxxxxxxxxxxxxxxxxxxx0000000000000000000000000000000000000 B#
b0 A#
b0 @#
b0 ?#
b0 >#
b0 =#
b0 <#
b0 ;#
bx :#
b0 9#
b0 8#
b0 7#
b0 6#
b0 4#
b0 3#
bx 2#
b0 1#
b0 0#
0/#
b0 .#
b0 -#
bx ,#
b0 +#
b0 *#
b0 )#
b0 (#
b0 '#
b0 &#
b0 %#
b0 $#
b0 ##
b0 "#
b0 !#
0~"
b0 }"
b0 |"
b0 {"
b0 z"
0y"
b0 x"
b100 v"
b0 u"
b100 t"
b0 s"
b100 q"
1p"
b0 o"
b100 n"
b100 m"
b0 l"
b10100000000000100010011 k"
b10100000000000100010011 j"
b0 i"
b100 h"
b100 g"
b0 f"
b0 d"
b0 c"
b0 b"
b0 a"
b0 `"
b0 _"
b0 ^"
1\"
b0 ["
b0 Y"
b0 X"
b0 W"
b0 V"
b0 U"
b0 S"
b0 R"
b0 Q"
b0 P"
b0 O"
b0 N"
b0 M"
b0 L"
b0 K"
b0 J"
0I"
1H"
b0 G"
b0 F"
b0 E"
b0 D"
0C"
0B"
b0 A"
b0 @"
b0 ?"
0>"
b0 ="
b0 <"
b0 ;"
b0 :"
b0 9"
b0 8"
b0 7"
b0 6"
b0 5"
b0 4"
b0 3"
b0 2"
b0 1"
10"
b0 /"
b0 ."
b0 -"
b0 ,"
b0 +"
b0 *"
b0 )"
b0 ("
b0 '"
b0 &"
b0 %"
b0 $"
b0 #"
b0 ""
b0 !"
b0 ~
b0 }
b100 {
1z
b0 y
b0 w
1v
b0 u
b10100000000000100010011 s
1r
b0 q
b0 p
b0 o
b0 n
b0 m
b0 l
b0 k
0j
0i
b0 h
b0 g
b0 f
b0 e
b0 d
b0 c
b0 b
b10100000000000100010011 a
b0 `
b0 _
b0 ^
b100 ]
b0 \
b0 [
b0 Z
b0 Y
b0 X
b0 W
b0 V
b0 U
b0 T
b0 S
b0 R
0Q
0P
b0 O
0N
0M
b0 L
b0 K
b0 J
b10100000000000100010011 I
0H
0G
0F
b0 E
b0 D
b0 C
b0 B
b100 A
b0 @
0?
b0 >
b0 =
b0 <
b0 ;
b0 :
b0 9
b0 8
bx 7
06
05
04
03
b0 2
b0 1
b0 0
b0 /
b0 .
b0 -
b0 ,
b0 +
0*
0)
b0 (
1'
b0 &
b0 %
1$
0#
0"
b0 !
$end
#5000
1#
#10000
0#
#15000
1#
#20000
0#
#22000
0$
#25000
bx <
bx [
bx #"
bx +"
b1000000000100000000000000000000000000000000xxxxxxxxxxxxxxxxxxxxxxxxxxxxxxxx000000000000000000000000000000000000000101000100000000000000000000000000000010100000000000000000000000000000100 ["
b101 O
b101 d
b101 q
b101 '"
b10 l
1Q
16
bx >#
bx F#
b1010000000000010 p
b10011 h
b10 ;
b10 Z
b10 ,"
b101 ,
b101 U
b101 !"
b101 /"
b101 |"
b1000 h"
b1000 q"
b1000 v"
b110001000000010001000100011 I
b110001000000010001000100011 a
b110001000000010001000100011 s
b110001000000010001000100011 j"
b110001000000010001000100011 k"
b0xxxxxxxxxxxxxxxxxxxxxxxxxxxxxxxx0000000000000000000000000000000000000 D#
b100 C
b100 ^
b100 }
b100 )"
b10100000000000100010011 J
b10100000000000100010011 b
b10100000000000100010011 u
b1000 A
b1000 ]
b1000 {
b1000 g"
b1000 n"
b1000 t"
b100 !
b100 D
b100 _
b100 w
b100 i"
b100 l"
b100 o"
b100 s"
b1 %
1#
#30000
0#
#35000
0'
00"
b101 S
b101 E"
b101 N"
b101 %#
bx (
bx 1"
bx V"
bx b"
bx )#
b101 J"
b101 K"
b100000000000000000000000000000000101xxxxxxxxxxxxxxxxxxxxxxxxxxxxxxxx0001000000000000000000000000000000100 4#
b1100100 O
b1100100 d
b1100100 q
b1100100 '"
b1 c
b1 m
b1 o
1G
b0 l
1Q
06
1j
b1000000100000000000000000000000000000000xxxxxxxxxxxxxxxxxxxxxxxxxxxxxxxx000000000000000000000000000001000000000010001000000000000000000000000000110010000000000000000000000000000001000 ["
b101 2"
b101 L"
b101 d"
b1100 h"
b1100 q"
b1100 v"
b110010000000010000110000011 I
b110010000000010000110000011 a
b110010000000010000110000011 s
b110010000000010000110000011 j"
b110010000000010000110000011 k"
b11000100000001000100 p
b11 g
b10 f
b100011 h
b100 ;
b100 Z
b100 ,"
b10 ,
b10 U
b10 !"
b10 /"
b10 |"
b100 B
b100 <"
b100 &#
b101 >
b101 ;"
b101 a"
b101 f"
b101 u"
b101 A"
b101 `"
b101 c"
b10 :
b10 8"
b10 x"
b10 '#
b101 +
b101 4"
b101 }"
bx 9"
bx U"
1C"
15
b1100 A
b1100 ]
b1100 {
b1100 g"
b1100 n"
b1100 t"
b1000 !
b1000 D
b1000 _
b1000 w
b1000 i"
b1000 l"
b1000 o"
b1000 s"
b110001000000010001000100011 J
b110001000000010001000100011 b
b110001000000010001000100011 u
b100 E
b100 `
b100 y
b100 ("
b1000 C
b1000 ^
b1000 }
b1000 )"
b1000000000100000000000000000000000000000000xxxxxxxxxxxxxxxxxxxxxxxxxxxxxxxx000000000000000000000000000000000000000101000100000000000000000000000000000010100000000000000000000000000000100 ^"
b10 %
1#
#40000
0#
#45000
b1100100 S
b1100100 E"
b1100100 N"
b1100100 %#
b101 (
b101 1"
b101 V"
b101 b"
b101 )#
b10000000000000000000000000000000101xxxxxxxxxxxxxxxxxxxxxxxxxxxxxxxx0001000000000000000000000000000000100 B#
b1100100 J"
b1100100 K"
b100000000000000000000000001100100000000000000000000000000000001010010000000000000000000000000000001000 4#
b1100100 2"
b1100100 L"
b1100100 d"
b10 K
b10 ?"
b10 W"
b10 $#
b1010000000100000000000000000000000000000000xxxxxxxxxxxxxxxxxxxxxxxxxxxxxxxx000000000000000000000000000010000000000100000110000000000000000000000000110010000000000000000000000000000001100 ["
b1 2
b1 X
b1 n
b1 -"
16
b0 c
b0 m
b0 o
1Q
0G
0j
b100 @
b100 .#
b100 8#
b10 9
b10 "#
b10 -#
b10 9#
bx &
bx *#
bx 3#
b101 R
b101 D"
b101 R"
b101 X"
b101 0#
b101 1#
b101 7#
14
b1000 B
b1000 <"
b1000 &#
b1100100 A"
b1100100 `"
b1100100 c"
b100 :
b100 8"
b100 x"
b100 '#
b10 +
b10 4"
b10 }"
b1101000 >
b1101000 ;"
b1101000 a"
b1101000 f"
b1101000 u"
b100 ="
b100 _"
1F
05
b11001000000001000011 p
b11 h
b11 ;
b11 Z
b11 ,"
b100 ,
b100 U
b100 !"
b100 /"
b100 |"
b10000 h"
b10000 q"
b10000 v"
b1000011000001000110011 I
b1000011000001000110011 a
b1000011000001000110011 s
b1000011000001000110011 j"
b1000011000001000110011 k"
b100000000000000000000000000000000101xxxxxxxxxxxxxxxxxxxxxxxxxxxxxxxx0001000000000000000000000000000000100 6#
b1000000100000000000000000000000000000000xxxxxxxxxxxxxxxxxxxxxxxxxxxxxxxx000000000000000000000000000001000000000010001000000000000000000000000000110010000000000000000000000000000001000 ^"
b1100 C
b1100 ^
b1100 }
b1100 )"
b1000 E
b1000 `
b1000 y
b1000 ("
b110010000000010000110000011 J
b110010000000010000110000011 b
b110010000000010000110000011 u
b10000 A
b10000 ]
b10000 {
b10000 g"
b10000 n"
b10000 t"
b1100 !
b1100 D
b1100 _
b1100 w
b1100 i"
b1100 l"
b1100 o"
b1100 s"
b11 %
1#
#50000
0#
#55000
0p"
0z
0v
0r
1M
bx =
bx \
bx $"
bx *"
1)
1*
1~"
b101000000000000000000000000001100100xxxxxxxxxxxxxxxxxxxxxxxxxxxxxxxx0001100000000000000000000000000001100 4#
b1100100xxxxxxxxxxxxxxxxxxxxxxxxxxxxxxxx0010000000000000000000000000000001000 B#
b101 /
b101 W
b101 ""
b101 6"
b101 S"
b101 Y"
b101 <#
b101 I#
bx O
bx d
bx q
bx '"
b10 l
bx c
bx m
bx o
b0 2
b0 X
b0 n
b0 -"
0Q
16
1j
b10000000000xxxxxxxxxxxxxxxxxxxxxxxxxxxxxxxxxxxxxxxxxxxxxxxxxxxxxxxxxxxxxxxx00000000000000000000000000001100000110001000100xxxxxxxxxxxxxxxxxxxxxxxxxxxxxxxx00000000000000000000000000010000 ["
1y"
bx (
bx 1"
bx V"
bx b"
bx )#
b0 K
b0 ?"
b0 W"
b0 $#
b10100 h"
b10100 q"
b10100 v"
b1100010000000010010000100011 I
b1100010000000010010000100011 a
b1100010000000010010000100011 s
b1100010000000010010000100011 j"
b1100010000000010010000100011 k"
b100001100000100 p
b0 g
b0 f
b110011 h
b100 ;
b100 Z
b100 ,"
b10 ,
b10 U
b10 !"
b10 /"
b10 |"
b11 .
b11 V
b11 ~
b11 ."
b11 z"
b1100 B
b1100 <"
b1100 &#
b11 :
b11 8"
b11 x"
b11 '#
b100 +
b100 4"
b100 }"
b1101100 >
b1101100 ;"
b1101100 a"
b1101100 f"
b1101100 u"
b1000 ="
b1000 _"
0F
b1 1
b1 7"
b1 (#
15
b1000 @
b1000 .#
b1000 8#
b100 9
b100 "#
b100 -#
b100 9#
b101 &
b101 *#
b101 3#
b1100100 R
b1100100 D"
b1100100 R"
b1100100 X"
b1100100 0#
b1100100 1#
b1100100 7#
1"
1/#
04
b100 @#
b100 G#
b10 8
b10 Y
b10 %"
b10 !#
b10 ?#
b101 A#
b101 E#
13
b10100 A
b10100 ]
b10100 {
b10100 g"
b10100 n"
b10100 t"
b10000 !
b10000 D
b10000 _
b10000 w
b10000 i"
b10000 l"
b10000 o"
b10000 s"
b1000011000001000110011 J
b1000011000001000110011 b
b1000011000001000110011 u
b1100 E
b1100 `
b1100 y
b1100 ("
b10000 C
b10000 ^
b10000 }
b10000 )"
b1010000000100000000000000000000000000000000xxxxxxxxxxxxxxxxxxxxxxxxxxxxxxxx000000000000000000000000000010000000000100000110000000000000000000000000110010000000000000000000000000000001100 ^"
b100000000000000000000000001100100000000000000000000000000000001010010000000000000000000000000000001000 6#
b10000000000000000000000000000000101xxxxxxxxxxxxxxxxxxxxxxxxxxxxxxxx0001000000000000000000000000000000100 D#
b100 %
1#
#60000
b10000000000xxxxxxxxxxxxxxxxxxxxxxxxxxxxxxxx0000000000000000000000000000010100000000000000000000000000001100000110001000100xxxxxxxxxxxxxxxxxxxxxxxxxxxxxxxx00000000000000000000000000010000 ["
b101 <
b101 [
b101 #"
b101 +"
0#
#65000
0I"
1'
10"
b0 S
b0 E"
b0 N"
b0 %#
1p"
1z
1v
1r
0M
b1100100 /
b1100100 W
b1100100 ""
b1100100 6"
b1100100 S"
b1100100 Y"
b1100100 <#
b1100100 I#
b0 (
b0 1"
b0 V"
b0 b"
b0 )#
b0 J"
b0 K"
0)
0*
0~"
b0 4#
b0 2"
b0 L"
b0 d"
0y"
b10100000000000000000000000001100100000000000000000000000000000001010001100000000000000000000000000001100 B#
b1000 @#
b1000 G#
b100 8
b100 Y
b100 %"
b100 !#
b100 ?#
b1100100 A#
b1100100 E#
03
b1100 @
b1100 .#
b1100 8#
b11 9
b11 "#
b11 -#
b11 9#
bx &
bx *#
bx 3#
0"
0/#
b1 0
b1 +#
b1 ;#
14
b0 B
b0 <"
b0 &#
b0 A"
b0 `"
b0 c"
b0 :
b0 8"
b0 x"
b0 '#
b0 +
b0 4"
b0 }"
b0 >
b0 ;"
b0 a"
b0 f"
b0 u"
b0 ="
b0 _"
b0 9"
b0 U"
0C"
b0 1
b0 7"
b0 (#
05
b1100100xxxxxxxxxxxxxxxxxxxxxxxxxxxxxxxx0010000000000000000000000000000001000 D#
b101000000000000000000000000001100100xxxxxxxxxxxxxxxxxxxxxxxxxxxxxxxx0001100000000000000000000000000001100 6#
b0 ^"
b101 7
b101 ,#
b101 2#
b101 :#
b101 %
1#
#70000
0#
#75000
0I"
b101 K"
b101 2"
b101 L"
b101 d"
0'
00"
b1010 S
b1010 E"
b1010 N"
b1010 %#
b101 /
b101 W
b101 ""
b101 6"
b101 S"
b101 Y"
b101 <#
b101 I#
bx <
bx [
bx #"
bx +"
b0 =
b0 \
b0 $"
b0 *"
b101 (
b101 1"
b101 V"
b101 b"
b101 )#
b1010 J"
b101 3"
b101 M"
b101 P"
b100000000000000000000000000000001010000000000000000000000000000001010010000000000000000000000000000010000 4#
b0xxxxxxxxxxxxxxxxxxxxxxxxxxxxxxxx0000000000000000000000000000000000000 B#
b11001000 O
b11001000 d
b11001000 q
b11001000 '"
1Q
1G
b0 l
b1 c
b1 m
b1 o
06
b1000000100000000000000000000000000000000xxxxxxxxxxxxxxxxxxxxxxxxxxxxxxxx000000000000000000000000000100000000000100010000000000000000000000000001100100000000000000000000000000000010100 ["
bx 7
bx ,#
bx 2#
bx :#
b1 L
b1 @"
b1 Q"
b1 ##
b11000 h"
b11000 q"
b11000 v"
bx I
bx a
bx s
bx j"
bx k"
b110001000000001001000 p
b110 g
b10 f
b100011 h
b1000 ;
b1000 Z
b1000 ,"
b100 ,
b100 U
b100 !"
b100 /"
b100 |"
b0 .
b0 V
b0 ~
b0 ."
b0 z"
b10000 B
b10000 <"
b10000 &#
bx A"
bx `"
bx c"
b100 :
b100 8"
b100 x"
b100 '#
b10 +
b10 4"
b10 }"
b11 -
b11 5"
b11 {"
bx >
bx ;"
bx a"
bx f"
bx u"
b1100 ="
b1100 _"
b101 9"
b101 U"
bx :"
bx O"
15
b0 @
b0 .#
b0 8#
b0 9
b0 "#
b0 -#
b0 9#
b0 &
b0 *#
b0 3#
b0 R
b0 D"
b0 R"
b0 X"
b0 0#
b0 1#
b0 7#
b0 0
b0 +#
b0 ;#
04
b1100 @#
b1100 G#
b11 8
b11 Y
b11 %"
b11 !#
b11 ?#
b101 >#
b101 F#
b1 =#
b1 H#
13
b11000 A
b11000 ]
b11000 {
b11000 g"
b11000 n"
b11000 t"
b10100 !
b10100 D
b10100 _
b10100 w
b10100 i"
b10100 l"
b10100 o"
b10100 s"
b1100010000000010010000100011 J
b1100010000000010010000100011 b
b1100010000000010010000100011 u
b10000 E
b10000 `
b10000 y
b10000 ("
b10100 C
b10100 ^
b10100 }
b10100 )"
b10000000000xxxxxxxxxxxxxxxxxxxxxxxxxxxxxxxx0000000000000000000000000000010100000000000000000000000000001100000110001000100xxxxxxxxxxxxxxxxxxxxxxxxxxxxxxxx00000000000000000000000000010000 ^"
b0 6#
b10100000000000000000000000001100100000000000000000000000000000001010001100000000000000000000000000001100 D#
b110 %
1#
#80000
0#
