Waves/waves_rvc_branches.vcd
$date
	Thu Jun 25 14:43:04 2026
$end
$version
	Icarus Verilog
$end
$timescale
	1ps
$end
$scope module tb $end
$var wire 32 ! pcF [31:0] $end
$var wire 1 " memWriteM $end
$var reg 1 # clk $end
$var reg 1 $ reset $end
$var integer 32 % cycle [31:0] $end
$scope module dut $end
$var wire 1 " MemWriteM $end
$var wire 32 & WriteDataM [31:0] $end
$var wire 1 ' ZeroE $end
$var wire 1 # clk $end
$var wire 1 $ reset $end
$var wire 32 ( WriteDataE [31:0] $end
$var wire 1 ) StallF $end
$var wire 1 * StallD $end
$var wire 5 + Rs2E [4:0] $end
$var wire 5 , Rs2D [4:0] $end
$var wire 5 - Rs1E [4:0] $end
$var wire 5 . Rs1D [4:0] $end
$var wire 32 / ResultW [31:0] $end
$var wire 2 0 ResultSrcM [1:0] $end
$var wire 2 1 ResultSrcE [1:0] $end
$var wire 2 2 ResultSrcD [1:0] $end
$var wire 1 3 RegWriteW $end
$var wire 1 4 RegWriteM_internal $end
$var wire 1 5 RegWriteE $end
$var wire 1 6 RegWriteD $end
$var wire 32 7 ReadDataM [31:0] $end
$var wire 5 8 RdW [4:0] $end
$var wire 5 9 RdM [4:0] $end
$var wire 5 : RdE [4:0] $end
$var wire 5 ; RdD [4:0] $end
$var wire 32 < RD2D [31:0] $end
$var wire 32 = RD1D [31:0] $end
$var wire 32 > PCTargetE [31:0] $end
$var wire 1 ? PCSrcE $end
$var wire 32 @ PCPlus4M [31:0] $end
$var wire 32 A PCPlus4F [31:0] $end
$var wire 32 B PCPlus4E [31:0] $end
$var wire 32 C PCPlus4D [31:0] $end
$var wire 32 D PCF [31:0] $end
$var wire 32 E PCD [31:0] $end
$var wire 1 F MemWriteE $end
$var wire 1 G MemWriteD $end
$var wire 1 H JumpD $end
$var wire 32 I InstrW [31:0] $end
$var wire 32 J InstrM [31:0] $end
$var wire 32 K InstrF [31:0] $end
$var wire 32 L InstrE [31:0] $end
$var wire 32 M InstrD [31:0] $end
$var wire 2 N ForwardBE [1:0] $end
$var wire 2 O ForwardAE [1:0] $end
$var wire 1 P FlushE $end
$var wire 1 Q FlushD $end
$var wire 32 R ExtImmD [31:0] $end
$var wire 1 S BranchD $end
$var wire 1 T ALUSrcD $end
$var wire 32 U ALUResultM [31:0] $end
$var wire 32 V ALUResultE [31:0] $end
$var wire 4 W ALUControlD [3:0] $end
$scope module decodeStage $end
$var wire 1 # clk $end
$var wire 1 $ reset $end
$var wire 1 * StallD $end
$var wire 5 X Rs2D [4:0] $end
$var wire 5 Y Rs1D [4:0] $end
$var wire 32 Z ResultW [31:0] $end
$var wire 2 [ ResultSrcD [1:0] $end
$var wire 1 3 RegWriteW $end
$var wire 1 6 RegWriteD $end
$var wire 5 \ RdW [4:0] $end
$var wire 5 ] RdD [4:0] $end
$var wire 32 ^ RD2D [31:0] $end
$var wire 32 _ RD1D [31:0] $end
$var wire 32 ` PCPlus4F [31:0] $end
$var wire 32 a PCPlus4D [31:0] $end
$var wire 32 b PCF [31:0] $end
$var wire 32 c PCD [31:0] $end
$var wire 1 G MemWriteD $end
$var wire 1 H JumpD $end
$var wire 32 d InstrF [31:0] $end
$var wire 32 e InstrD [31:0] $end
$var wire 3 f ImmSrcD [2:0] $end
$var wire 1 Q FlushD $end
$var wire 32 g ExtImmD [31:0] $end
$var wire 1 S BranchD $end
$var wire 1 T ALUSrcD $end
$var wire 4 h ALUControlD [3:0] $end
$scope module ctrl $end
$var wire 3 i funct3 [2:0] $end
$var wire 7 j funct7 [6:0] $end
$var wire 7 k op [6:0] $end
$var wire 1 l use_alt_op $end
$var wire 1 m op5 $end
$var reg 4 n ALUControl [3:0] $end
$var reg 2 o ALUOp [1:0] $end
$var reg 1 T ALUSrc $end
$var reg 1 S Branch $end
$var reg 3 p ImmSrc [2:0] $end
$var reg 1 H Jump $end
$var reg 1 G MemWrite $end
$var reg 1 6 RegWrite $end
$var reg 2 q ResultSrc [1:0] $end
$upscope $end
$scope module ext $end
$var wire 3 r immsrc [2:0] $end
$var wire 25 s instr [31:7] $end
$var reg 32 t immext [31:0] $end
$upscope $end
$scope module ifIdInstr $end
$var wire 1 # clk $end
$var wire 1 u en $end
$var wire 1 $ reset $end
$var wire 32 v d [31:0] $end
$var wire 1 Q clear $end
$var parameter 32 w WIDTH $end
$var reg 32 x q [31:0] $end
$upscope $end
$scope module ifIdPc $end
$var wire 1 # clk $end
$var wire 1 y en $end
$var wire 1 $ reset $end
$var wire 32 z d [31:0] $end
$var wire 1 Q clear $end
$var parameter 32 { WIDTH $end
$var reg 32 | q [31:0] $end
$upscope $end
$scope module ifIdPcPlus4 $end
$var wire 1 # clk $end
$var wire 1 } en $end
$var wire 1 $ reset $end
$var wire 32 ~ d [31:0] $end
$var wire 1 Q clear $end
$var parameter 32 !" WIDTH $end
$var reg 32 "" q [31:0] $end
$upscope $end
$scope module rf $end
$var wire 5 #" a1 [4:0] $end
$var wire 5 $" a2 [4:0] $end
$var wire 1 # clk $end
$var wire 1 3 we3 $end
$var wire 32 %" wd3 [31:0] $end
$var wire 32 &" rd2 [31:0] $end
$var wire 32 '" rd1 [31:0] $end
$var wire 5 (" a3 [4:0] $end
$var integer 32 )" i [31:0] $end
$upscope $end
$upscope $end
$scope module executeStage $end
$var wire 4 *" ALUControlD [3:0] $end
$var wire 1 T ALUSrcD $end
$var wire 1 S BranchD $end
$var wire 32 +" ExtImmD [31:0] $end
$var wire 32 ," InstrD [31:0] $end
$var wire 1 H JumpD $end
$var wire 1 G MemWriteD $end
$var wire 32 -" PCD [31:0] $end
$var wire 32 ." PCPlus4D [31:0] $end
$var wire 1 ? PCSrcE $end
$var wire 32 /" RD1D [31:0] $end
$var wire 32 0" RD2D [31:0] $end
$var wire 5 1" RdD [4:0] $end
$var wire 1 6 RegWriteD $end
$var wire 2 2" ResultSrcD [1:0] $end
$var wire 5 3" Rs1D [4:0] $end
$var wire 5 4" Rs2D [4:0] $end
$var wire 1 # clk $end
$var wire 1 $ reset $end
$var wire 32 5" pcTargetBaseE [31:0] $end
$var wire 32 6" pcTargetAddOutE [31:0] $end
$var wire 1 7" isJALRE $end
$var wire 1 8" ZeroE $end
$var wire 32 9" WriteDataE [31:0] $end
$var wire 32 :" SrcBE [31:0] $end
$var wire 32 ;" SrcAE [31:0] $end
$var wire 5 <" Rs2E [4:0] $end
$var wire 5 =" Rs1E [4:0] $end
$var wire 32 >" ResultW [31:0] $end
$var wire 2 ?" ResultSrcE [1:0] $end
$var wire 1 5 RegWriteE $end
$var wire 5 @" RdE [4:0] $end
$var wire 32 A" RD2E [31:0] $end
$var wire 32 B" RD1E [31:0] $end
$var wire 32 C" PCTargetE [31:0] $end
$var wire 32 D" PCPlus4E [31:0] $end
$var wire 32 E" PCE [31:0] $end
$var wire 1 F MemWriteE $end
$var wire 1 F" JumpE $end
$var wire 32 G" InstrE [31:0] $end
$var wire 2 H" ForwardBE [1:0] $end
$var wire 2 I" ForwardAE [1:0] $end
$var wire 1 P FlushE $end
$var wire 32 J" ExtImmE [31:0] $end
$var wire 1 K" BranchE $end
$var wire 1 L" ALUSrcE $end
$var wire 32 M" ALUResultM [31:0] $end
$var wire 32 N" ALUResultE [31:0] $end
$var wire 4 O" ALUControlE [3:0] $end
$var reg 1 P" TakeBranchE $end
$scope module aluUnit $end
$var wire 4 Q" alucontrol [3:0] $end
$var wire 1 R" isAddSub $end
$var wire 1 S" v $end
$var wire 1 8" zero $end
$var wire 32 T" sum [31:0] $end
$var wire 32 U" condinvb [31:0] $end
$var wire 32 V" b [31:0] $end
$var wire 32 W" a [31:0] $end
$var reg 32 X" result [31:0] $end
$upscope $end
$scope module forwardAmux $end
$var wire 32 Y" d0 [31:0] $end
$var wire 32 Z" y [31:0] $end
$var wire 2 [" s [1:0] $end
$var wire 32 \" d2 [31:0] $end
$var wire 32 ]" d1 [31:0] $end
$var parameter 32 ^" WIDTH $end
$upscope $end
$scope module forwardBmux $end
$var wire 32 _" d0 [31:0] $end
$var wire 32 `" y [31:0] $end
$var wire 2 a" s [1:0] $end
$var wire 32 b" d2 [31:0] $end
$var wire 32 c" d1 [31:0] $end
$var parameter 32 d" WIDTH $end
$upscope $end
$scope module idexReg $end
$var wire 1 # clk $end
$var wire 218 e" d [217:0] $end
$var wire 1 f" en $end
$var wire 1 $ reset $end
$var wire 1 P clear $end
$var parameter 32 g" WIDTH $end
$var reg 218 h" q [217:0] $end
$upscope $end
$scope module pcTargetAdd $end
$var wire 32 i" a [31:0] $end
$var wire 32 j" b [31:0] $end
$var wire 32 k" y [31:0] $end
$upscope $end
$scope module srcBmux $end
$var wire 32 l" d0 [31:0] $end
$var wire 32 m" d1 [31:0] $end
$var wire 1 L" s $end
$var wire 32 n" y [31:0] $end
$var parameter 32 o" WIDTH $end
$upscope $end
$upscope $end
$scope module fetchStage $end
$var wire 1 ? PCSrcE $end
$var wire 32 p" PCTargetE [31:0] $end
$var wire 1 # clk $end
$var wire 1 $ reset $end
$var wire 32 q" raw_imem_data [31:0] $end
$var wire 32 r" pc_increment [31:0] $end
$var wire 1 s" is_compressed $end
$var wire 32 t" decompressed_instr [31:0] $end
$var wire 16 u" cinstr [15:0] $end
$var wire 32 v" actual_instr [31:0] $end
$var wire 1 ) StallF $end
$var wire 32 w" PCPlus4F [31:0] $end
$var wire 32 x" PCF_next [31:0] $end
$var wire 32 y" PCF [31:0] $end
$var wire 32 z" InstrF [31:0] $end
$scope module decomp $end
$var wire 16 {" cinstr [15:0] $end
$var wire 5 |" shamt [4:0] $end
$var wire 5 }" rs2p [4:0] $end
$var wire 5 ~" rs2 [4:0] $end
$var wire 5 !# rdp_rs1p [4:0] $end
$var wire 5 "# rd_rs1 [4:0] $end
$var wire 21 ## j_imm [20:0] $end
$var wire 1 s" is_compressed $end
$var wire 8 $# imm_swsp [7:0] $end
$var wire 8 %# imm_lwsp [7:0] $end
$var wire 7 &# imm_lw_sw [6:0] $end
$var wire 20 '# imm_lui [19:0] $end
$var wire 12 (# imm_addi [11:0] $end
$var wire 13 )# b_imm [12:0] $end
$var reg 32 *# outstr [31:0] $end
$upscope $end
$scope module imem_inst $end
$var wire 32 +# rd [31:0] $end
$var wire 32 ,# a [31:0] $end
$upscope $end
$scope module pcReg $end
$var wire 1 # clk $end
$var wire 1 -# en $end
$var wire 1 $ reset $end
$var wire 32 .# d [31:0] $end
$var parameter 32 /# WIDTH $end
$var reg 32 0# q [31:0] $end
$upscope $end
$scope module pcadd $end
$var wire 32 1# a [31:0] $end
$var wire 32 2# b [31:0] $end
$var wire 32 3# y [31:0] $end
$upscope $end
$scope module pcmux $end
$var wire 32 4# d0 [31:0] $end
$var wire 32 5# d1 [31:0] $end
$var wire 1 ? s $end
$var wire 32 6# y [31:0] $end
$var parameter 32 7# WIDTH $end
$upscope $end
$upscope $end
$scope module hazardUnit $end
$var wire 1 Q FlushD $end
$var wire 1 P FlushE $end
$var wire 1 ? PCSrcE $end
$var wire 5 8# RdE [4:0] $end
$var wire 1 9# ResultSrcE0 $end
$var wire 5 :# Rs1D [4:0] $end
$var wire 5 ;# Rs1E [4:0] $end
$var wire 5 <# Rs2D [4:0] $end
$var wire 5 =# Rs2E [4:0] $end
$var wire 1 * StallD $end
$var wire 1 ) StallF $end
$var wire 1 ># lwStall $end
$var wire 1 3 RegWriteW $end
$var wire 1 4 RegWriteM $end
$var wire 5 ?# RdW [4:0] $end
$var wire 5 @# RdM [4:0] $end
$var reg 2 A# ForwardAE [1:0] $end
$var reg 2 B# ForwardBE [1:0] $end
$upscope $end
$scope module memStage $end
$var wire 32 C# ALUResultE [31:0] $end
$var wire 32 D# InstrE [31:0] $end
$var wire 1 F MemWriteE $end
$var wire 32 E# PCPlus4E [31:0] $end
$var wire 5 F# RdE [4:0] $end
$var wire 1 5 RegWriteE $end
$var wire 2 G# ResultSrcE [1:0] $end
$var wire 32 H# WriteDataE [31:0] $end
$var wire 1 # clk $end
$var wire 1 $ reset $end
$var wire 32 I# WriteDataM [31:0] $end
$var wire 2 J# ResultSrcM [1:0] $end
$var wire 1 4 RegWriteM $end
$var wire 32 K# ReadDataM [31:0] $end
$var wire 5 L# RdM [4:0] $end
$var wire 32 M# PCPlus4M [31:0] $end
$var wire 1 N# MemWriteM $end
$var wire 32 O# InstrM [31:0] $end
$var wire 32 P# ALUResultM [31:0] $end
$scope module dataMemory $end
$var wire 32 Q# a [31:0] $end
$var wire 1 # clk $end
$var wire 32 R# rd [31:0] $end
$var wire 32 S# wd [31:0] $end
$var wire 1 N# we $end
$upscope $end
$scope module exmemReg $end
$var wire 1 # clk $end
$var wire 137 T# d [136:0] $end
$var wire 1 $ reset $end
$var parameter 32 U# WIDTH $end
$var reg 137 V# q [136:0] $end
$upscope $end
$upscope $end
$scope module wbStage $end
$var wire 32 W# ALUResultM [31:0] $end
$var wire 32 X# InstrM [31:0] $end
$var wire 32 Y# PCPlus4M [31:0] $end
$var wire 5 Z# RdM [4:0] $end
$var wire 32 [# ReadDataM [31:0] $end
$var wire 1 4 RegWriteM $end
$var wire 2 \# ResultSrcM [1:0] $end
$var wire 1 # clk $end
$var wire 1 $ reset $end
$var wire 32 ]# ResultW [31:0] $end
$var wire 2 ^# ResultSrcW [1:0] $end
$var wire 1 3 RegWriteW $end
$var wire 32 _# ReadDataW [31:0] $end
$var wire 5 `# RdW [4:0] $end
$var wire 32 a# PCPlus4W [31:0] $end
$var wire 32 b# InstrW [31:0] $end
$var wire 32 c# ALUResultW [31:0] $end
$scope module memwbReg $end
$var wire 1 # clk $end
$var wire 136 d# d [135:0] $end
$var wire 1 $ reset $end
$var parameter 32 e# WIDTH $end
$var reg 136 f# q [135:0] $end
$upscope $end
$scope module resultMux $end
$var wire 32 g# d0 [31:0] $end
$var wire 32 h# d1 [31:0] $end
$var wire 32 i# d2 [31:0] $end
$var wire 2 j# s [1:0] $end
$var wire 32 k# y [31:0] $end
$var parameter 32 l# WIDTH $end
$upscope $end
$upscope $end
$upscope $end
$upscope $end
$enddefinitions $end
$comment Show the parameter values. $end
$dumpall
b100000 l#
b10001000 e#
b10001001 U#
b100000 7#
b100000 /#
b100000 o"
b11011010 g"
b100000 d"
b100000 ^"
b100000 !"
b100000 {
b100000 w
$end
#0
$dumpvars
b0 k#
b0 j#
b0 i#
b0 h#
b0 g#
b0 f#
b0xxxxxxxxxxxxxxxxxxxxxxxxxxxxxxxx000000000000000000000000000000000000000000000000000000000000000000000 d#
b0 c#
b0 b#
b0 a#
b0 `#
b0 _#
b0 ^#
b0 ]#
b0 \#
bx [#
b0 Z#
b0 Y#
b0 X#
b0 W#
b0 V#
b0 T#
b0 S#
bx R#
b0 Q#
b0 P#
b0 O#
0N#
b0 M#
b0 L#
bx K#
b0 J#
b0 I#
b0 H#
b0 G#
b0 F#
b0 E#
b0 D#
b0 C#
b0 B#
b0 A#
b0 @#
b0 ?#
0>#
b0 =#
b0 <#
b0 ;#
b0 :#
09#
b0 8#
b100 6#
b0 5#
b100 4#
b100 3#
b100 2#
b0 1#
b0 0#
b100 .#
1-#
b0 ,#
b10000010011 +#
b10011 *#
b1100 )#
b100 (#
b100 '#
b1000 &#
b100 %#
b1000 $#
b1000000100 ##
b1000 "#
b1000 !#
b100 ~"
b1100 }"
b100 |"
b10000010011 {"
b10000010011 z"
b0 y"
b100 x"
b100 w"
b10000010011 v"
b10000010011 u"
b10011 t"
0s"
b100 r"
b10000010011 q"
b0 p"
b0 n"
b0 m"
b0 l"
b0 k"
b0 j"
b0 i"
b0 h"
1f"
b0 e"
b0 c"
b0 b"
b0 a"
b0 `"
b0 _"
b0 ]"
b0 \"
b0 ["
b0 Z"
b0 Y"
b0 X"
b0 W"
b0 V"
b0 U"
b0 T"
0S"
1R"
b0 Q"
1P"
b0 O"
b0 N"
b0 M"
0L"
0K"
b0 J"
b0 I"
b0 H"
b0 G"
0F"
b0 E"
b0 D"
b0 C"
b0 B"
b0 A"
b0 @"
b0 ?"
b0 >"
b0 ="
b0 <"
b0 ;"
b0 :"
b0 9"
18"
07"
b0 6"
b0 5"
b0 4"
b0 3"
b0 2"
b0 1"
b0 0"
b0 /"
b0 ."
b0 -"
b0 ,"
b0 +"
b0 *"
b100000 )"
b0 ("
b0 '"
b0 &"
b0 %"
b0 $"
b0 #"
b0 ""
b100 ~
1}
b0 |
b0 z
1y
b0 x
b10000010011 v
1u
b0 t
b0 s
b0 r
b0 q
b0 p
b0 o
b0 n
0m
0l
b0 k
b0 j
b0 i
b0 h
b0 g
b0 f
b0 e
b10000010011 d
b0 c
b0 b
b0 a
b100 `
b0 _
b0 ^
b0 ]
b0 \
b0 [
b0 Z
b0 Y
b0 X
b0 W
b0 V
b0 U
0T
0S
b0 R
0Q
0P
b0 O
b0 N
b0 M
b0 L
b10000010011 K
b0 J
b0 I
0H
0G
0F
b0 E
b0 D
b0 C
b0 B
b100 A
b0 @
0?
b0 >
b0 =
b0 <
b0 ;
b0 :
b0 9
b0 8
bx 7
06
05
04
03
b0 2
b0 1
b0 0
b0 /
b0 .
b0 -
b0 ,
b0 +
0*
0)
b0 (
1'
b0 &
b0 %
1$
0#
0"
b0 !
$end
#5000
1#
#10000
0#
#15000
1#
#20000
0#
#22000
0$
#25000
b1001000100 ##
b1001 !#
b1001000 $#
b1001 "#
b10010010011 u"
b10010010011 {"
b100000000010010010011 K
b100000000010010010011 d
b100000000010010010011 v
b100000000010010010011 z"
b10000000001000000000000000000000000000000000000000000000000000000000000000000000000000000000000000000000000000000000001000000000000000000000000000000000000000000000000000000000000000010000000000000000000000010000010011 e"
b10 o
1T
16
b100000000010010010011 v"
bx _#
bx h#
b1000 s
b10011 k
b1000 ;
b1000 ]
b1000 1"
b1000 x"
b1000 .#
b1000 6#
b100000000010010010011 q"
b100000000010010010011 +#
b0xxxxxxxxxxxxxxxxxxxxxxxxxxxxxxxx000000000000000000000000000000000000000000000000000000000000000000000 f#
b100 C
b100 a
b100 ""
b100 ."
b10000010011 M
b10000010011 e
b10000010011 x
b10000010011 ,"
b1000 A
b1000 `
b1000 ~
b1000 w"
b1000 3#
b1000 4#
b100 !
b100 D
b100 b
b100 z
b100 y"
b100 ,#
b100 0#
b100 1#
b1 %
1#
#30000
0#
#35000
b10 |"
b1000010 ##
b10 )#
b10 r"
b10 2#
b1010 }"
b10 (#
b10 '#
b0 &#
b10000000 %#
b1000000 $#
b1001000000101100011 t"
b1001000000101100011 *#
1s"
b1 "#
b10 ~"
b1100000010001001 u"
b1100000010001001 {"
b1001000000101100011 K
b1001000000101100011 d
b1001000000101100011 v
b1001000000101100011 z"
b10000000000000000000000000000000000000000000000000000000000000000000010000000000000000000000000000000010000000000000000000000010000010011 T#
b11100000100010011100000010001001 v"
b1 R
b1 g
b1 t
b1 +"
b10000000001000000000000000000000000000000000000000000000000000000000000000000000000000000000000000000000100000000000101001000000000000000000000000000000010000000000000000000000000000100000000000000100000000010010010011 e"
b1010 x"
b1010 .#
b1010 6#
b11100000100010011100000010001001 q"
b11100000100010011100000010001001 +#
b10000000001001 s
b1001 ;
b1001 ]
b1001 1"
b1 ,
b1 X
b1 $"
b1 4"
b1 <#
b10000010011 L
b10000010011 G"
b10000010011 D#
b100 B
b100 D"
b100 E#
b1000 :
b1000 @"
b1000 8#
b1000 F#
1L"
15
b1010 A
b1010 `
b1010 ~
b1010 w"
b1010 3#
b1010 4#
b1000 !
b1000 D
b1000 b
b1000 z
b1000 y"
b1000 ,#
b1000 0#
b1000 1#
b100000000010010010011 M
b100000000010010010011 e
b100000000010010010011 x
b100000000010010010011 ,"
b100 E
b100 c
b100 |
b100 -"
b1000 C
b1000 a
b1000 ""
b1000 ."
b10000000001000000000000000000000000000000000000000000000000000000000000000000000000000000000000000000000000000000000001000000000000000000000000000000000000000000000000000000000000000010000000000000000000000010000010011 h"
b10 %
1#
#40000
0#
#45000
0P"
b1001001000101100011 K
b1001001000101100011 d
b1001001000101100011 v
b1001001000101100011 z"
0'
08"
b1 V
b1 N"
b1 X"
b1 C#
b100 >
b100 C"
b100 p"
b100 5#
b1001001000101100011 t"
b1001001000101100011 *#
b10000000000000000000000000000000000xxxxxxxxxxxxxxxxxxxxxxxxxxxxxxxx010000000000000000000000000000000010000000000000000000000010000010011 d#
b1 T"
b1 U"
b10000000000000000000000000000000000100000000000000000000000000000000010010000000000000000000000000000100000000000000100000000010010010011 T#
b1000 W
b1000 h
b1000 n
b1000 *"
b1110000010001001 u"
b1110000010001001 {"
b1 :"
b1 V"
b1 n"
b100 5"
b100 i"
b110000000000000000000000000000000000000000000000000000000000000000000000000000000000000000000000001000010010000000010000000000000000000000000000000100000000000000000000000000000101000000000000001001000000101100011 e"
b10 R
b10 g
b10 t
b10 +"
b10 f
b10 p
b10 r
1S
b1 o
0T
06
1m
b1110000010001001 v"
b10000010011 J
b10000010011 O#
b10000010011 X#
b100 @
b100 M#
b100 Y#
b1000 9
b1000 @#
b1000 L#
b1000 Z#
14
b100000000010010010011 L
b100000000010010010011 G"
b100000000010010010011 D#
b1000 B
b1000 D"
b1000 E#
b101 6"
b101 k"
b1 J"
b1 j"
b1 m"
b1001 :
b1001 @"
b1001 8#
b1001 F#
b1 +
b1 <"
b1 =#
b100 E"
b100100000010 s
b1100011 k
b10 ;
b10 ]
b10 1"
b0 ,
b0 X
b0 $"
b0 4"
b0 <#
b1001 .
b1001 Y
b1001 #"
b1001 3"
b1001 :#
b1100 x"
b1100 .#
b1100 6#
b10000000000000000000000000000000000000000000000000000000000000000000010000000000000000000000000000000010000000000000000000000010000010011 V#
b10000000001000000000000000000000000000000000000000000000000000000000000000000000000000000000000000000000100000000000101001000000000000000000000000000000010000000000000000000000000000100000000000000100000000010010010011 h"
b1010 C
b1010 a
b1010 ""
b1010 ."
b1000 E
b1000 c
b1000 |
b1000 -"
b1001000000101100011 M
b1001000000101100011 e
b1001000000101100011 x
b1001000000101100011 ,"
b1100 A
b1100 `
b1100 ~
b1100 w"
b1100 3#
b1100 4#
b1010 !
b1010 D
b1010 b
b1010 z
b1010 y"
b1010 ,#
b1010 0#
b1010 1#
b11 %
1#
#50000
0#
#55000
b100 |"
b100 ##
b100 )#
b100 r"
b100 2#
b10011 K
b10011 d
b10011 v
b10011 z"
b1000 !#
b1100 }"
b100 (#
b100 '#
b100 %#
b0 $#
b10011 t"
b10011 *#
0s"
b0 "#
b100 ~"
b1 ;"
b1 W"
b1 Z"
b10011 u"
b10011 {"
b1010 >
b1010 C"
b1010 p"
b1010 5#
b1 V
b1 N"
b1 X"
b1 C#
b11111111111111111111111111111111 U"
b1 T"
b100000000000000000000000000000000000100000000000000000000000000000101000000000000001001000000101100011 T#
b10000000000000000000000000000000001xxxxxxxxxxxxxxxxxxxxxxxxxxxxxxxx010010000000000000000000000000000100000000000000100000000010010010011 d#
b10011 v"
b110000000000000000000000000000000000000000000000000000000000000000000000000000000000000000000000001010010010000000010000000000000000000000000000000100000000000000000000000000000110000000000000001001001000101100011 e"
b1000 5"
b1000 i"
b0 :"
b0 V"
b0 n"
b10 O
b10 I"
b10 ["
b10 A#
b10000 x"
b10000 .#
b10000 6#
b10011 q"
b10011 +#
b100100100010 s
b1 i
b1001000000101100011 L
b1001000000101100011 G"
b1001000000101100011 D#
b1010 B
b1010 D"
b1010 E#
b1010 6"
b1010 k"
b10 J"
b10 j"
b10 m"
b10 :
b10 @"
b10 8#
b10 F#
b0 +
b0 <"
b0 =#
b1001 -
b1001 ="
b1001 ;#
b1000 E"
0L"
b1000 O"
b1000 Q"
1K"
05
b100000000010010010011 J
b100000000010010010011 O#
b100000000010010010011 X#
b1000 @
b1000 M#
b1000 Y#
b1001 9
b1001 @#
b1001 L#
b1001 Z#
b1 U
b1 M"
b1 \"
b1 b"
b1 P#
b1 Q#
b1 W#
b10000010011 I
b10000010011 b#
b100 a#
b100 i#
b1000 8
b1000 \
b1000 ("
b1000 ?#
b1000 `#
13
b10000 A
b10000 `
b10000 ~
b10000 w"
b10000 3#
b10000 4#
b1100 !
b1100 D
b1100 b
b1100 z
b1100 y"
b1100 ,#
b1100 0#
b1100 1#
b1001001000101100011 M
b1001001000101100011 e
b1001001000101100011 x
b1001001000101100011 ,"
b1010 E
b1010 c
b1010 |
b1010 -"
b1100 C
b1100 a
b1100 ""
b1100 ."
b110000000000000000000000000000000000000000000000000000000000000000000000000000000000000000000000001000010010000000010000000000000000000000000000000100000000000000000000000000000101000000000000001001000000101100011 h"
b10000000000000000000000000000000000100000000000000000000000000000000010010000000000000000000000000000100000000000000100000000010010010011 V#
b10000000000000000000000000000000000xxxxxxxxxxxxxxxxxxxxxxxxxxxxxxxx010000000000000000000000000000000010000000000000000000000010000010011 f#
b100 %
1#
#60000
0#
#65000
b11000000100 ##
b1100 )#
0'
08"
b1 V
b1 N"
b1 X"
b1 C#
1P
b1010 !#
b1000 &#
b10001000 $#
b1 T"
b1 ;"
b1 W"
b1 Z"
1Q
1?
b1100 >
b1100 C"
b1100 p"
b1100 5#
b1010 "#
b1 /
b1 Z
b1 %"
b1 >"
b1 ]"
b1 c"
b1 ]#
b1 k#
b1xxxxxxxxxxxxxxxxxxxxxxxxxxxxxxxx000100000000000000000000000000000101000000000000001001000000101100011 d#
b100000000000000000000000000000000000100000000000000000000000000000110000000000000001001001000101100011 T#
b10100010011 u"
b10100010011 {"
b110001100000000010100010011 K
b110001100000000010100010011 d
b110001100000000010100010011 v
b110001100000000010100010011 z"
b1 O
b1 I"
b1 ["
b1 A#
1P"
b1100 6"
b1100 k"
b1010 5"
b1010 i"
b10000000001000000000000000000000000000000000000000000000000000000000000000000000000000000000000000000001100000000000000000000000000000000000000000000000000000000000000000000000000001000000000000000000000000000000010011 e"
b0 R
b0 g
b0 t
b0 +"
b0 W
b0 h
b0 n
b0 *"
1T
16
b10 o
b0 f
b0 p
b0 r
0S
0m
b110001100000000010100010011 v"
b100000000010010010011 I
b100000000010010010011 b#
b1000 a#
b1000 i#
b1001 8
b1001 \
b1001 ("
b1001 ?#
b1001 `#
b1 c#
b1 g#
b1001000000101100011 J
b1001000000101100011 O#
b1001000000101100011 X#
b1010 @
b1010 M#
b1010 Y#
b10 9
b10 @#
b10 L#
b10 Z#
04
b1001001000101100011 L
b1001001000101100011 G"
b1001001000101100011 D#
b1100 B
b1100 D"
b1100 E#
b1010 E"
b0 s
b0 i
b10011 k
b0 ;
b0 ]
b0 1"
b0 .
b0 Y
b0 #"
b0 3"
b0 :#
b1100 x"
b1100 .#
b1100 6#
b110001100000000010100010011 q"
b110001100000000010100010011 +#
b10000000000000000000000000000000001xxxxxxxxxxxxxxxxxxxxxxxxxxxxxxxx010010000000000000000000000000000100000000000000100000000010010010011 f#
b100000000000000000000000000000000000100000000000000000000000000000101000000000000001001000000101100011 V#
b110000000000000000000000000000000000000000000000000000000000000000000000000000000000000000000000001010010010000000010000000000000000000000000000000100000000000000000000000000000110000000000000001001001000101100011 h"
b10000 C
b10000 a
b10000 ""
b10000 ."
b1100 E
b1100 c
b1100 |
b1100 -"
b10011 M
b10011 e
b10011 x
b10011 ,"
b10100 A
b10100 `
b10100 ~
b10100 w"
b10100 3#
b10100 4#
b10000 !
b10000 D
b10000 b
b10000 z
b10000 y"
b10000 ,#
b10000 0#
b10000 1#
b101 %
1#
#70000
0#
#75000
b100 ##
b100 )#
1'
18"
b0 V
b0 N"
b0 X"
b0 C#
b1000 !#
b0 &#
b0 $#
b0 ;"
b0 W"
b0 Z"
b0 "#
b10000 x"
b10000 .#
b10000 6#
0P
b10011 u"
b10011 {"
b10011 K
b10011 d
b10011 v
b10011 z"
b0 >
b0 C"
b0 p"
b0 5#
b0 T#
b0 U"
b0 T"
0Q
0?
b1xxxxxxxxxxxxxxxxxxxxxxxxxxxxxxxx000100000000000000000000000000000110000000000000001001001000101100011 d#
b10011 v"
b0 o
0T
06
b0 e"
1P"
b0 5"
b0 i"
b0 O
b0 I"
b0 ["
b0 A#
b10011 q"
b10011 +#
b0 k
b0 L
b0 G"
b0 D#
b0 B
b0 D"
b0 E#
b0 6"
b0 k"
b0 J"
b0 j"
b0 m"
b0 :
b0 @"
b0 8#
b0 F#
b0 -
b0 ="
b0 ;#
b0 E"
b0 O"
b0 Q"
0K"
b1001001000101100011 J
b1001001000101100011 O#
b1001001000101100011 X#
b1100 @
b1100 M#
b1100 Y#
b1001000000101100011 I
b1001000000101100011 b#
b1010 a#
b1010 i#
b10 8
b10 \
b10 ("
b10 ?#
b10 `#
03
b10000 A
b10000 `
b10000 ~
b10000 w"
b10000 3#
b10000 4#
b1100 !
b1100 D
b1100 b
b1100 z
b1100 y"
b1100 ,#
b1100 0#
b1100 1#
b0 M
b0 e
b0 x
b0 ,"
b0 E
b0 c
b0 |
b0 -"
b0 C
b0 a
b0 ""
b0 ."
b0 h"
b100000000000000000000000000000000000100000000000000000000000000000110000000000000001001001000101100011 V#
b1xxxxxxxxxxxxxxxxxxxxxxxxxxxxxxxx000100000000000000000000000000000101000000000000001001000000101100011 f#
b110 %
1#
#80000
0#
